{
    "name": "test_kramdown.rb", 
    "tot_risk": 11964.330244755249, 
    "lines": [
        {
            "author_risks": {
                "Parker Moore": {
                    "tot_knowledge": 1000.0, 
                    "tot_orphaned": 0.0, 
                    "tot_risk": 100.0
                }
            }, 
            "tot_knowledge": 1000.0, 
            "tot_orphaned": 0.0, 
            "tot_risk": 100.0
        }, 
        {
            "author_risks": {
                "Parker Moore": {
                    "tot_knowledge": 1000.0, 
                    "tot_orphaned": 0.0, 
                    "tot_risk": 100.0
                }
            }, 
            "tot_knowledge": 1000.0, 
            "tot_orphaned": 0.0, 
            "tot_risk": 100.0
        }, 
        {
            "author_risks": {
                "Git by a Bus Safe Author": {
                    "tot_knowledge": 736.3636363636364, 
                    "tot_orphaned": 0.0, 
                    "tot_risk": 0.7363636363636366
                }, 
                "Jason Graham": {
                    "tot_knowledge": 18.181818181818173, 
                    "tot_orphaned": 0.0, 
                    "tot_risk": 1.8181818181818175
                }, 
                "Pat Hawks": {
                    "tot_knowledge": 100.0, 
                    "tot_orphaned": 0.0, 
                    "tot_risk": 10.0
                }, 
                "Jason Graham\nTom Preston-Werner": {
                    "tot_knowledge": 163.63636363636363, 
                    "tot_orphaned": 0.0, 
                    "tot_risk": 1.6363636363636367
                }, 
                "Jason Graham\nPat Hawks": {
                    "tot_knowledge": 81.81818181818183, 
                    "tot_orphaned": 0.0, 
                    "tot_risk": 0.8181818181818185
                }, 
                "Tom Preston-Werner": {
                    "tot_knowledge": 18.181818181818173, 
                    "tot_orphaned": 0.0, 
                    "tot_risk": 1.8181818181818175
                }, 
                "Pat Hawks\nTom Preston-Werner": {
                    "tot_knowledge": 81.81818181818183, 
                    "tot_orphaned": 0.0, 
                    "tot_risk": 0.8181818181818185
                }
            }, 
            "tot_knowledge": 1200.0, 
            "tot_orphaned": 0.0, 
            "tot_risk": 17.645454545454545
        }, 
        {
            "author_risks": {
                "Jason Graham": {
                    "tot_knowledge": 1000.0, 
                    "tot_orphaned": 0.0, 
                    "tot_risk": 100.0
                }
            }, 
            "tot_knowledge": 1000.0, 
            "tot_orphaned": 0.0, 
            "tot_risk": 100.0
        }, 
        {
            "author_risks": {
                "Jason Graham": {
                    "tot_knowledge": 18.181818181818173, 
                    "tot_orphaned": 0.0, 
                    "tot_risk": 1.8181818181818175
                }, 
                "Parker Moore": {
                    "tot_knowledge": 200.0, 
                    "tot_orphaned": 0.0, 
                    "tot_risk": 20.0
                }, 
                "Jason Graham\nParker Moore": {
                    "tot_knowledge": 981.8181818181819, 
                    "tot_orphaned": 0.0, 
                    "tot_risk": 9.81818181818182
                }
            }, 
            "tot_knowledge": 1200.0, 
            "tot_orphaned": 0.0, 
            "tot_risk": 31.636363636363637
        }, 
        {
            "author_risks": {
                "Jason Graham": {
                    "tot_knowledge": 1000.0, 
                    "tot_orphaned": 0.0, 
                    "tot_risk": 100.0
                }
            }, 
            "tot_knowledge": 1000.0, 
            "tot_orphaned": 0.0, 
            "tot_risk": 100.0
        }, 
        {
            "author_risks": {
                "Jason Graham": {
                    "tot_knowledge": 1000.0, 
                    "tot_orphaned": 0.0, 
                    "tot_risk": 100.0
                }
            }, 
            "tot_knowledge": 1000.0, 
            "tot_orphaned": 0.0, 
            "tot_risk": 100.0
        }, 
        {
            "author_risks": {
                "Tom Preston-Werner": {
                    "tot_knowledge": 100.0, 
                    "tot_orphaned": 0.0, 
                    "tot_risk": 10.0
                }, 
                "Jason Graham\nTom Preston-Werner": {
                    "tot_knowledge": 900.0, 
                    "tot_orphaned": 0.0, 
                    "tot_risk": 9.000000000000002
                }, 
                "Jason Graham": {
                    "tot_knowledge": 100.0, 
                    "tot_orphaned": 0.0, 
                    "tot_risk": 10.0
                }
            }, 
            "tot_knowledge": 1100.0, 
            "tot_orphaned": 0.0, 
            "tot_risk": 29.0
        }, 
        {
            "author_risks": {
                "Jason Graham\nPat Hawks": {
                    "tot_knowledge": 900.0, 
                    "tot_orphaned": 0.0, 
                    "tot_risk": 9.000000000000002
                }, 
                "Jason Graham": {
                    "tot_knowledge": 100.0, 
                    "tot_orphaned": 0.0, 
                    "tot_risk": 10.0
                }, 
                "Pat Hawks": {
                    "tot_knowledge": 100.0, 
                    "tot_orphaned": 0.0, 
                    "tot_risk": 10.0
                }
            }, 
            "tot_knowledge": 1100.0, 
            "tot_orphaned": 0.0, 
            "tot_risk": 29.0
        }, 
        {
            "author_risks": {
                "Jason Graham\nPat Hawks": {
                    "tot_knowledge": 900.0, 
                    "tot_orphaned": 0.0, 
                    "tot_risk": 9.000000000000002
                }, 
                "Jason Graham": {
                    "tot_knowledge": 100.0, 
                    "tot_orphaned": 0.0, 
                    "tot_risk": 10.0
                }, 
                "Pat Hawks": {
                    "tot_knowledge": 100.0, 
                    "tot_orphaned": 0.0, 
                    "tot_risk": 10.0
                }
            }, 
            "tot_knowledge": 1100.0, 
            "tot_orphaned": 0.0, 
            "tot_risk": 29.0
        }, 
        {
            "author_risks": {
                "Jordon Bedwell\nPat Hawks": {
                    "tot_knowledge": 81.81818181818183, 
                    "tot_orphaned": 0.0, 
                    "tot_risk": 0.8181818181818185
                }, 
                "Git by a Bus Safe Author": {
                    "tot_knowledge": 736.3636363636364, 
                    "tot_orphaned": 0.0, 
                    "tot_risk": 0.7363636363636366
                }, 
                "Jason Graham": {
                    "tot_knowledge": 18.181818181818173, 
                    "tot_orphaned": 0.0, 
                    "tot_risk": 1.8181818181818175
                }, 
                "Jason Graham\nJordon Bedwell": {
                    "tot_knowledge": 163.63636363636363, 
                    "tot_orphaned": 0.0, 
                    "tot_risk": 1.6363636363636367
                }, 
                "Pat Hawks": {
                    "tot_knowledge": 100.0, 
                    "tot_orphaned": 0.0, 
                    "tot_risk": 10.0
                }, 
                "Jason Graham\nPat Hawks": {
                    "tot_knowledge": 81.81818181818183, 
                    "tot_orphaned": 0.0, 
                    "tot_risk": 0.8181818181818185
                }, 
                "Jordon Bedwell": {
                    "tot_knowledge": 18.181818181818173, 
                    "tot_orphaned": 0.0, 
                    "tot_risk": 1.8181818181818175
                }
            }, 
            "tot_knowledge": 1200.0, 
            "tot_orphaned": 0.0, 
            "tot_risk": 17.645454545454545
        }, 
        {
            "author_risks": {
                "Jason Graham\nPat Hawks": {
                    "tot_knowledge": 900.0, 
                    "tot_orphaned": 0.0, 
                    "tot_risk": 9.000000000000002
                }, 
                "Jason Graham": {
                    "tot_knowledge": 100.0, 
                    "tot_orphaned": 0.0, 
                    "tot_risk": 10.0
                }, 
                "Pat Hawks": {
                    "tot_knowledge": 100.0, 
                    "tot_orphaned": 0.0, 
                    "tot_risk": 10.0
                }
            }, 
            "tot_knowledge": 1100.0, 
            "tot_orphaned": 0.0, 
            "tot_risk": 29.0
        }, 
        {
            "author_risks": {
                "Git by a Bus Safe Author": {
                    "tot_knowledge": 736.3636363636364, 
                    "tot_orphaned": 0.0, 
                    "tot_risk": 0.7363636363636366
                }, 
                "Jason Graham": {
                    "tot_knowledge": 18.181818181818173, 
                    "tot_orphaned": 0.0, 
                    "tot_risk": 1.8181818181818175
                }, 
                "Pat Hawks": {
                    "tot_knowledge": 100.0, 
                    "tot_orphaned": 0.0, 
                    "tot_risk": 10.0
                }, 
                "Jason Graham\nTom Preston-Werner": {
                    "tot_knowledge": 163.63636363636363, 
                    "tot_orphaned": 0.0, 
                    "tot_risk": 1.6363636363636367
                }, 
                "Jason Graham\nPat Hawks": {
                    "tot_knowledge": 81.81818181818183, 
                    "tot_orphaned": 0.0, 
                    "tot_risk": 0.8181818181818185
                }, 
                "Tom Preston-Werner": {
                    "tot_knowledge": 18.181818181818173, 
                    "tot_orphaned": 0.0, 
                    "tot_risk": 1.8181818181818175
                }, 
                "Pat Hawks\nTom Preston-Werner": {
                    "tot_knowledge": 81.81818181818183, 
                    "tot_orphaned": 0.0, 
                    "tot_risk": 0.8181818181818185
                }
            }, 
            "tot_knowledge": 1200.0, 
            "tot_orphaned": 0.0, 
            "tot_risk": 17.645454545454545
        }, 
        {
            "author_risks": {
                "Jordon Bedwell\nTom Preston-Werner": {
                    "tot_knowledge": 20.454545454545453, 
                    "tot_orphaned": 0.0, 
                    "tot_risk": 0.20454545454545459
                }, 
                "Jordon Bedwell\nPat Hawks": {
                    "tot_knowledge": 75.0, 
                    "tot_orphaned": 0.0, 
                    "tot_risk": 0.7500000000000001
                }, 
                "Git by a Bus Safe Author": {
                    "tot_knowledge": 981.8181818181819, 
                    "tot_orphaned": 0.0, 
                    "tot_risk": 0.9818181818181821
                }, 
                "Tom Preston-Werner\nmaul.esel": {
                    "tot_knowledge": 40.90909090909091, 
                    "tot_orphaned": 0.0, 
                    "tot_risk": 0.40909090909090917
                }, 
                "Jordon Bedwell\nmaul.esel": {
                    "tot_knowledge": 20.454545454545453, 
                    "tot_orphaned": 0.0, 
                    "tot_risk": 0.20454545454545459
                }, 
                "maul.esel": {
                    "tot_knowledge": 4.545454545454543, 
                    "tot_orphaned": 0.0, 
                    "tot_risk": 0.45454545454545436
                }, 
                "Pat Hawks": {
                    "tot_knowledge": 100.0, 
                    "tot_orphaned": 0.0, 
                    "tot_risk": 10.0
                }, 
                "Pat Hawks\nTom Preston-Werner": {
                    "tot_knowledge": 13.63636363636363, 
                    "tot_orphaned": 0.0, 
                    "tot_risk": 0.13636363636363633
                }, 
                "Tom Preston-Werner": {
                    "tot_knowledge": 4.545454545454543, 
                    "tot_orphaned": 0.0, 
                    "tot_risk": 0.45454545454545436
                }, 
                "Jordon Bedwell": {
                    "tot_knowledge": 25.0, 
                    "tot_orphaned": 0.0, 
                    "tot_risk": 2.5
                }, 
                "Pat Hawks\nmaul.esel": {
                    "tot_knowledge": 13.63636363636363, 
                    "tot_orphaned": 0.0, 
                    "tot_risk": 0.13636363636363633
                }
            }, 
            "tot_knowledge": 1300.0000000000005, 
            "tot_orphaned": 0.0, 
            "tot_risk": 16.231818181818184
        }, 
        {
            "author_risks": {
                "Jordon Bedwell": {
                    "tot_knowledge": 100.0, 
                    "tot_orphaned": 0.0, 
                    "tot_risk": 10.0
                }, 
                "Pat Hawks": {
                    "tot_knowledge": 100.0, 
                    "tot_orphaned": 0.0, 
                    "tot_risk": 10.0
                }, 
                "Jordon Bedwell\nPat Hawks": {
                    "tot_knowledge": 900.0, 
                    "tot_orphaned": 0.0, 
                    "tot_risk": 9.000000000000002
                }
            }, 
            "tot_knowledge": 1100.0, 
            "tot_orphaned": 0.0, 
            "tot_risk": 29.0
        }, 
        {
            "author_risks": {
                "Ashwin Maroli": {
                    "tot_knowledge": 1100.0, 
                    "tot_orphaned": 0.0, 
                    "tot_risk": 110.0
                }
            }, 
            "tot_knowledge": 1100.0, 
            "tot_orphaned": 0.0, 
            "tot_risk": 110.0
        }, 
        {
            "author_risks": {
                "maul.esel": {
                    "tot_knowledge": 1000.0, 
                    "tot_orphaned": 0.0, 
                    "tot_risk": 100.0
                }
            }, 
            "tot_knowledge": 1000.0, 
            "tot_orphaned": 0.0, 
            "tot_risk": 100.0
        }, 
        {
            "author_risks": {
                "Pat Hawks\nSaleem Rashid": {
                    "tot_knowledge": 900.0, 
                    "tot_orphaned": 0.0, 
                    "tot_risk": 9.000000000000002
                }, 
                "Pat Hawks": {
                    "tot_knowledge": 100.0, 
                    "tot_orphaned": 0.0, 
                    "tot_risk": 10.0
                }, 
                "Saleem Rashid": {
                    "tot_knowledge": 100.0, 
                    "tot_orphaned": 0.0, 
                    "tot_risk": 10.0
                }
            }, 
            "tot_knowledge": 1100.0, 
            "tot_orphaned": 0.0, 
            "tot_risk": 29.0
        }, 
        {
            "author_risks": {
                "Jordon Bedwell\nParker Moore": {
                    "tot_knowledge": 20.454545454545453, 
                    "tot_orphaned": 0.0, 
                    "tot_risk": 0.20454545454545459
                }, 
                "Parker Moore\nPat Hawks": {
                    "tot_knowledge": 13.63636363636363, 
                    "tot_orphaned": 0.0, 
                    "tot_risk": 0.13636363636363633
                }, 
                "Jordon Bedwell\nPat Hawks": {
                    "tot_knowledge": 75.0, 
                    "tot_orphaned": 0.0, 
                    "tot_risk": 0.7500000000000001
                }, 
                "Git by a Bus Safe Author": {
                    "tot_knowledge": 981.8181818181819, 
                    "tot_orphaned": 0.0, 
                    "tot_risk": 0.9818181818181821
                }, 
                "Jordon Bedwell\nmaul.esel": {
                    "tot_knowledge": 20.454545454545453, 
                    "tot_orphaned": 0.0, 
                    "tot_risk": 0.20454545454545459
                }, 
                "maul.esel": {
                    "tot_knowledge": 4.545454545454543, 
                    "tot_orphaned": 0.0, 
                    "tot_risk": 0.45454545454545436
                }, 
                "Pat Hawks": {
                    "tot_knowledge": 100.0, 
                    "tot_orphaned": 0.0, 
                    "tot_risk": 10.0
                }, 
                "Parker Moore": {
                    "tot_knowledge": 4.545454545454543, 
                    "tot_orphaned": 0.0, 
                    "tot_risk": 0.45454545454545436
                }, 
                "Parker Moore\nmaul.esel": {
                    "tot_knowledge": 40.90909090909091, 
                    "tot_orphaned": 0.0, 
                    "tot_risk": 0.40909090909090917
                }, 
                "Jordon Bedwell": {
                    "tot_knowledge": 25.0, 
                    "tot_orphaned": 0.0, 
                    "tot_risk": 2.5
                }, 
                "Pat Hawks\nmaul.esel": {
                    "tot_knowledge": 13.63636363636363, 
                    "tot_orphaned": 0.0, 
                    "tot_risk": 0.13636363636363633
                }
            }, 
            "tot_knowledge": 1300.0000000000002, 
            "tot_orphaned": 0.0, 
            "tot_risk": 16.231818181818184
        }, 
        {
            "author_risks": {
                "Jordon Bedwell\nParker Moore": {
                    "tot_knowledge": 3.1468531468531453, 
                    "tot_orphaned": 0.0, 
                    "tot_risk": 0.03146853146853146
                }, 
                "Parker Moore\nPat Hawks": {
                    "tot_knowledge": 138.46153846153845, 
                    "tot_orphaned": 0.0, 
                    "tot_risk": 1.3846153846153848
                }, 
                "Jordon Bedwell\nPat Hawks": {
                    "tot_knowledge": 29.370629370629374, 
                    "tot_orphaned": 0.0, 
                    "tot_risk": 0.2937062937062938
                }, 
                "Git by a Bus Safe Author": {
                    "tot_knowledge": 1019.5804195804195, 
                    "tot_orphaned": 0.0, 
                    "tot_risk": 1.0195804195804197
                }, 
                "Jordon Bedwell\nmaul.esel": {
                    "tot_knowledge": 12.587412587412587, 
                    "tot_orphaned": 0.0, 
                    "tot_risk": 0.1258741258741259
                }, 
                "maul.esel": {
                    "tot_knowledge": 1.3986013986013979, 
                    "tot_orphaned": 0.0, 
                    "tot_risk": 0.1398601398601398
                }, 
                "Pat Hawks": {
                    "tot_knowledge": 61.53846153846155, 
                    "tot_orphaned": 0.0, 
                    "tot_risk": 6.153846153846155
                }, 
                "Parker Moore": {
                    "tot_knowledge": 100.0, 
                    "tot_orphaned": 0.0, 
                    "tot_risk": 10.0
                }, 
                "Parker Moore\nmaul.esel": {
                    "tot_knowledge": 3.1468531468531453, 
                    "tot_orphaned": 0.0, 
                    "tot_risk": 0.03146853146853146
                }, 
                "Jordon Bedwell": {
                    "tot_knowledge": 1.3986013986013979, 
                    "tot_orphaned": 0.0, 
                    "tot_risk": 0.1398601398601398
                }, 
                "Pat Hawks\nmaul.esel": {
                    "tot_knowledge": 29.370629370629374, 
                    "tot_orphaned": 0.0, 
                    "tot_risk": 0.2937062937062938
                }
            }, 
            "tot_knowledge": 1399.9999999999998, 
            "tot_orphaned": 0.0, 
            "tot_risk": 19.613986013986015
        }, 
        {
            "author_risks": {
                "Parker Moore": {
                    "tot_knowledge": 1000.0, 
                    "tot_orphaned": 0.0, 
                    "tot_risk": 100.0
                }
            }, 
            "tot_knowledge": 1000.0, 
            "tot_orphaned": 0.0, 
            "tot_risk": 100.0
        }, 
        {
            "author_risks": {
                "Parker Moore": {
                    "tot_knowledge": 1000.0, 
                    "tot_orphaned": 0.0, 
                    "tot_risk": 100.0
                }
            }, 
            "tot_knowledge": 1000.0, 
            "tot_orphaned": 0.0, 
            "tot_risk": 100.0
        }, 
        {
            "author_risks": {
                "Parker Moore": {
                    "tot_knowledge": 1000.0, 
                    "tot_orphaned": 0.0, 
                    "tot_risk": 100.0
                }
            }, 
            "tot_knowledge": 1000.0, 
            "tot_orphaned": 0.0, 
            "tot_risk": 100.0
        }, 
        {
            "author_risks": {
                "Jason Graham\nPat Hawks": {
                    "tot_knowledge": 900.0, 
                    "tot_orphaned": 0.0, 
                    "tot_risk": 9.000000000000002
                }, 
                "Jason Graham": {
                    "tot_knowledge": 100.0, 
                    "tot_orphaned": 0.0, 
                    "tot_risk": 10.0
                }, 
                "Pat Hawks": {
                    "tot_knowledge": 100.0, 
                    "tot_orphaned": 0.0, 
                    "tot_risk": 10.0
                }
            }, 
            "tot_knowledge": 1100.0, 
            "tot_orphaned": 0.0, 
            "tot_risk": 29.0
        }, 
        {
            "author_risks": {
                "Jason Graham\nPat Hawks": {
                    "tot_knowledge": 900.0, 
                    "tot_orphaned": 0.0, 
                    "tot_risk": 9.000000000000002
                }, 
                "Jason Graham": {
                    "tot_knowledge": 100.0, 
                    "tot_orphaned": 0.0, 
                    "tot_risk": 10.0
                }, 
                "Pat Hawks": {
                    "tot_knowledge": 100.0, 
                    "tot_orphaned": 0.0, 
                    "tot_risk": 10.0
                }
            }, 
            "tot_knowledge": 1100.0, 
            "tot_orphaned": 0.0, 
            "tot_risk": 29.0
        }, 
        {
            "author_risks": {
                "maul.esel": {
                    "tot_knowledge": 1000.0, 
                    "tot_orphaned": 0.0, 
                    "tot_risk": 100.0
                }
            }, 
            "tot_knowledge": 1000.0, 
            "tot_orphaned": 0.0, 
            "tot_risk": 100.0
        }, 
        {
            "author_risks": {
                "Parker Moore": {
                    "tot_knowledge": 1000.0, 
                    "tot_orphaned": 0.0, 
                    "tot_risk": 100.0
                }
            }, 
            "tot_knowledge": 1000.0, 
            "tot_orphaned": 0.0, 
            "tot_risk": 100.0
        }, 
        {
            "author_risks": {
                "Parker Moore": {
                    "tot_knowledge": 1000.0, 
                    "tot_orphaned": 0.0, 
                    "tot_risk": 100.0
                }
            }, 
            "tot_knowledge": 1000.0, 
            "tot_orphaned": 0.0, 
            "tot_risk": 100.0
        }, 
        {
            "author_risks": {
                "Parker Moore": {
                    "tot_knowledge": 1000.0, 
                    "tot_orphaned": 0.0, 
                    "tot_risk": 100.0
                }
            }, 
            "tot_knowledge": 1000.0, 
            "tot_orphaned": 0.0, 
            "tot_risk": 100.0
        }, 
        {
            "author_risks": {
                "Jordon Bedwell": {
                    "tot_knowledge": 1000.0, 
                    "tot_orphaned": 0.0, 
                    "tot_risk": 100.0
                }
            }, 
            "tot_knowledge": 1000.0, 
            "tot_orphaned": 0.0, 
            "tot_risk": 100.0
        }, 
        {
            "author_risks": {
                "maul.esel": {
                    "tot_knowledge": 1000.0, 
                    "tot_orphaned": 0.0, 
                    "tot_risk": 100.0
                }
            }, 
            "tot_knowledge": 1000.0, 
            "tot_orphaned": 0.0, 
            "tot_risk": 100.0
        }, 
        {
            "author_risks": {
                "Jordon Bedwell\nParker Moore": {
                    "tot_knowledge": 81.81818181818183, 
                    "tot_orphaned": 0.0, 
                    "tot_risk": 0.8181818181818185
                }, 
                "Git by a Bus Safe Author": {
                    "tot_knowledge": 736.3636363636364, 
                    "tot_orphaned": 0.0, 
                    "tot_risk": 0.7363636363636366
                }, 
                "Jordon Bedwell\nmaul.esel": {
                    "tot_knowledge": 163.63636363636363, 
                    "tot_orphaned": 0.0, 
                    "tot_risk": 1.6363636363636367
                }, 
                "maul.esel": {
                    "tot_knowledge": 18.181818181818173, 
                    "tot_orphaned": 0.0, 
                    "tot_risk": 1.8181818181818175
                }, 
                "Parker Moore": {
                    "tot_knowledge": 100.0, 
                    "tot_orphaned": 0.0, 
                    "tot_risk": 10.0
                }, 
                "Parker Moore\nmaul.esel": {
                    "tot_knowledge": 81.81818181818183, 
                    "tot_orphaned": 0.0, 
                    "tot_risk": 0.8181818181818185
                }, 
                "Jordon Bedwell": {
                    "tot_knowledge": 18.181818181818173, 
                    "tot_orphaned": 0.0, 
                    "tot_risk": 1.8181818181818175
                }
            }, 
            "tot_knowledge": 1200.0, 
            "tot_orphaned": 0.0, 
            "tot_risk": 17.645454545454545
        }, 
        {
            "author_risks": {
                "Jordon Bedwell": {
                    "tot_knowledge": 100.0, 
                    "tot_orphaned": 0.0, 
                    "tot_risk": 10.0
                }, 
                "Jordon Bedwell\nParker Moore": {
                    "tot_knowledge": 900.0, 
                    "tot_orphaned": 0.0, 
                    "tot_risk": 9.000000000000002
                }, 
                "Parker Moore": {
                    "tot_knowledge": 100.0, 
                    "tot_orphaned": 0.0, 
                    "tot_risk": 10.0
                }
            }, 
            "tot_knowledge": 1100.0, 
            "tot_orphaned": 0.0, 
            "tot_risk": 29.0
        }, 
        {
            "author_risks": {
                "Jordon Bedwell": {
                    "tot_knowledge": 100.0, 
                    "tot_orphaned": 0.0, 
                    "tot_risk": 10.0
                }, 
                "Jordon Bedwell\nParker Moore": {
                    "tot_knowledge": 900.0, 
                    "tot_orphaned": 0.0, 
                    "tot_risk": 9.000000000000002
                }, 
                "Parker Moore": {
                    "tot_knowledge": 100.0, 
                    "tot_orphaned": 0.0, 
                    "tot_risk": 10.0
                }
            }, 
            "tot_knowledge": 1100.0, 
            "tot_orphaned": 0.0, 
            "tot_risk": 29.0
        }, 
        {
            "author_risks": {
                "Parker Moore": {
                    "tot_knowledge": 1000.0, 
                    "tot_orphaned": 0.0, 
                    "tot_risk": 100.0
                }
            }, 
            "tot_knowledge": 1000.0, 
            "tot_orphaned": 0.0, 
            "tot_risk": 100.0
        }, 
        {
            "author_risks": {
                "Parker Moore": {
                    "tot_knowledge": 1000.0, 
                    "tot_orphaned": 0.0, 
                    "tot_risk": 100.0
                }
            }, 
            "tot_knowledge": 1000.0, 
            "tot_orphaned": 0.0, 
            "tot_risk": 100.0
        }, 
        {
            "author_risks": {
                "Parker Moore": {
                    "tot_knowledge": 1000.0, 
                    "tot_orphaned": 0.0, 
                    "tot_risk": 100.0
                }
            }, 
            "tot_knowledge": 1000.0, 
            "tot_orphaned": 0.0, 
            "tot_risk": 100.0
        }, 
        {
            "author_risks": {
                "Parker Moore": {
                    "tot_knowledge": 1000.0, 
                    "tot_orphaned": 0.0, 
                    "tot_risk": 100.0
                }
            }, 
            "tot_knowledge": 1000.0, 
            "tot_orphaned": 0.0, 
            "tot_risk": 100.0
        }, 
        {
            "author_risks": {
                "Parker Moore": {
                    "tot_knowledge": 1000.0, 
                    "tot_orphaned": 0.0, 
                    "tot_risk": 100.0
                }
            }, 
            "tot_knowledge": 1000.0, 
            "tot_orphaned": 0.0, 
            "tot_risk": 100.0
        }, 
        {
            "author_risks": {
                "Parker Moore": {
                    "tot_knowledge": 1000.0, 
                    "tot_orphaned": 0.0, 
                    "tot_risk": 100.0
                }
            }, 
            "tot_knowledge": 1000.0, 
            "tot_orphaned": 0.0, 
            "tot_risk": 100.0
        }, 
        {
            "author_risks": {
                "Parker Moore": {
                    "tot_knowledge": 1000.0, 
                    "tot_orphaned": 0.0, 
                    "tot_risk": 100.0
                }
            }, 
            "tot_knowledge": 1000.0, 
            "tot_orphaned": 0.0, 
            "tot_risk": 100.0
        }, 
        {
            "author_risks": {
                "Parker Moore": {
                    "tot_knowledge": 1000.0, 
                    "tot_orphaned": 0.0, 
                    "tot_risk": 100.0
                }
            }, 
            "tot_knowledge": 1000.0, 
            "tot_orphaned": 0.0, 
            "tot_risk": 100.0
        }, 
        {
            "author_risks": {
                "Parker Moore": {
                    "tot_knowledge": 1000.0, 
                    "tot_orphaned": 0.0, 
                    "tot_risk": 100.0
                }
            }, 
            "tot_knowledge": 1000.0, 
            "tot_orphaned": 0.0, 
            "tot_risk": 100.0
        }, 
        {
            "author_risks": {
                "Parker Moore": {
                    "tot_knowledge": 1000.0, 
                    "tot_orphaned": 0.0, 
                    "tot_risk": 100.0
                }
            }, 
            "tot_knowledge": 1000.0, 
            "tot_orphaned": 0.0, 
            "tot_risk": 100.0
        }, 
        {
            "author_risks": {
                "Parker Moore": {
                    "tot_knowledge": 1000.0, 
                    "tot_orphaned": 0.0, 
                    "tot_risk": 100.0
                }
            }, 
            "tot_knowledge": 1000.0, 
            "tot_orphaned": 0.0, 
            "tot_risk": 100.0
        }, 
        {
            "author_risks": {
                "Parker Moore": {
                    "tot_knowledge": 1000.0, 
                    "tot_orphaned": 0.0, 
                    "tot_risk": 100.0
                }
            }, 
            "tot_knowledge": 1000.0, 
            "tot_orphaned": 0.0, 
            "tot_risk": 100.0
        }, 
        {
            "author_risks": {
                "Parker Moore": {
                    "tot_knowledge": 1000.0, 
                    "tot_orphaned": 0.0, 
                    "tot_risk": 100.0
                }
            }, 
            "tot_knowledge": 1000.0, 
            "tot_orphaned": 0.0, 
            "tot_risk": 100.0
        }, 
        {
            "author_risks": {
                "Parker Moore": {
                    "tot_knowledge": 1000.0, 
                    "tot_orphaned": 0.0, 
                    "tot_risk": 100.0
                }
            }, 
            "tot_knowledge": 1000.0, 
            "tot_orphaned": 0.0, 
            "tot_risk": 100.0
        }, 
        {
            "author_risks": {
                "Parker Moore": {
                    "tot_knowledge": 1000.0, 
                    "tot_orphaned": 0.0, 
                    "tot_risk": 100.0
                }
            }, 
            "tot_knowledge": 1000.0, 
            "tot_orphaned": 0.0, 
            "tot_risk": 100.0
        }, 
        {
            "author_risks": {
                "Parker Moore": {
                    "tot_knowledge": 1000.0, 
                    "tot_orphaned": 0.0, 
                    "tot_risk": 100.0
                }
            }, 
            "tot_knowledge": 1000.0, 
            "tot_orphaned": 0.0, 
            "tot_risk": 100.0
        }, 
        {
            "author_risks": {
                "Parker Moore": {
                    "tot_knowledge": 1000.0, 
                    "tot_orphaned": 0.0, 
                    "tot_risk": 100.0
                }
            }, 
            "tot_knowledge": 1000.0, 
            "tot_orphaned": 0.0, 
            "tot_risk": 100.0
        }, 
        {
            "author_risks": {
                "Parker Moore": {
                    "tot_knowledge": 1000.0, 
                    "tot_orphaned": 0.0, 
                    "tot_risk": 100.0
                }
            }, 
            "tot_knowledge": 1000.0, 
            "tot_orphaned": 0.0, 
            "tot_risk": 100.0
        }, 
        {
            "author_risks": {
                "Parker Moore": {
                    "tot_knowledge": 1000.0, 
                    "tot_orphaned": 0.0, 
                    "tot_risk": 100.0
                }
            }, 
            "tot_knowledge": 1000.0, 
            "tot_orphaned": 0.0, 
            "tot_risk": 100.0
        }, 
        {
            "author_risks": {
                "Jason Graham": {
                    "tot_knowledge": 1000.0, 
                    "tot_orphaned": 0.0, 
                    "tot_risk": 100.0
                }
            }, 
            "tot_knowledge": 1000.0, 
            "tot_orphaned": 0.0, 
            "tot_risk": 100.0
        }, 
        {
            "author_risks": {
                "Jason Graham": {
                    "tot_knowledge": 1000.0, 
                    "tot_orphaned": 0.0, 
                    "tot_risk": 100.0
                }
            }, 
            "tot_knowledge": 1000.0, 
            "tot_orphaned": 0.0, 
            "tot_risk": 100.0
        }, 
        {
            "author_risks": {
                "Alfred Xing": {
                    "tot_knowledge": 18.181818181818173, 
                    "tot_orphaned": 0.0, 
                    "tot_risk": 1.8181818181818175
                }, 
                "Git by a Bus Safe Author": {
                    "tot_knowledge": 736.3636363636364, 
                    "tot_orphaned": 0.0, 
                    "tot_risk": 0.7363636363636366
                }, 
                "Jason Graham": {
                    "tot_knowledge": 18.181818181818173, 
                    "tot_orphaned": 0.0, 
                    "tot_risk": 1.8181818181818175
                }, 
                "Jason Graham\nJordon Bedwell": {
                    "tot_knowledge": 81.81818181818183, 
                    "tot_orphaned": 0.0, 
                    "tot_risk": 0.8181818181818185
                }, 
                "Alfred Xing\nJason Graham": {
                    "tot_knowledge": 163.63636363636363, 
                    "tot_orphaned": 0.0, 
                    "tot_risk": 1.6363636363636367
                }, 
                "Alfred Xing\nJordon Bedwell": {
                    "tot_knowledge": 81.81818181818183, 
                    "tot_orphaned": 0.0, 
                    "tot_risk": 0.8181818181818185
                }, 
                "Jordon Bedwell": {
                    "tot_knowledge": 100.0, 
                    "tot_orphaned": 0.0, 
                    "tot_risk": 10.0
                }
            }, 
            "tot_knowledge": 1200.0, 
            "tot_orphaned": 0.0, 
            "tot_risk": 17.645454545454545
        }, 
        {
            "author_risks": {
                "maul.esel": {
                    "tot_knowledge": 30.769230769230788, 
                    "tot_orphaned": 0.0, 
                    "tot_risk": 3.076923076923079
                }, 
                "Jason Graham\nTom Bell": {
                    "tot_knowledge": 6.293706293706295, 
                    "tot_orphaned": 0.0, 
                    "tot_risk": 0.06293706293706296
                }, 
                "Git by a Bus Safe Author": {
                    "tot_knowledge": 1109.2657342657342, 
                    "tot_orphaned": 0.0, 
                    "tot_risk": 1.1092657342657344
                }, 
                "Parker Moore\nTom Preston-Werner": {
                    "tot_knowledge": 3.146853146853145, 
                    "tot_orphaned": 0.0, 
                    "tot_risk": 0.03146853146853146
                }, 
                "Tom Preston-Werner\nmaul.esel": {
                    "tot_knowledge": 4.195804195804195, 
                    "tot_orphaned": 0.0, 
                    "tot_risk": 0.04195804195804196
                }, 
                "Jason Graham": {
                    "tot_knowledge": 1.3986013986013983, 
                    "tot_orphaned": 0.0, 
                    "tot_risk": 0.13986013986013984
                }, 
                "Tom Bell": {
                    "tot_knowledge": 7.692307692307697, 
                    "tot_orphaned": 0.0, 
                    "tot_risk": 0.7692307692307697
                }, 
                "Jason Graham\nParker Moore": {
                    "tot_knowledge": 3.146853146853145, 
                    "tot_orphaned": 0.0, 
                    "tot_risk": 0.03146853146853146
                }, 
                "Tom Bell\nTom Preston-Werner": {
                    "tot_knowledge": 6.293706293706295, 
                    "tot_orphaned": 0.0, 
                    "tot_risk": 0.06293706293706296
                }, 
                "Jason Graham\nmaul.esel": {
                    "tot_knowledge": 4.195804195804195, 
                    "tot_orphaned": 0.0, 
                    "tot_risk": 0.04195804195804196
                }, 
                "Parker Moore": {
                    "tot_knowledge": 100.0, 
                    "tot_orphaned": 0.0, 
                    "tot_risk": 10.0
                }, 
                "Tom Bell\nmaul.esel": {
                    "tot_knowledge": 23.076923076923087, 
                    "tot_orphaned": 0.0, 
                    "tot_risk": 0.23076923076923092
                }, 
                "Parker Moore\nmaul.esel": {
                    "tot_knowledge": 69.23076923076921, 
                    "tot_orphaned": 0.0, 
                    "tot_risk": 0.6923076923076923
                }, 
                "Tom Preston-Werner": {
                    "tot_knowledge": 1.3986013986013983, 
                    "tot_orphaned": 0.0, 
                    "tot_risk": 0.13986013986013984
                }, 
                "Parker Moore\nTom Bell": {
                    "tot_knowledge": 17.307692307692303, 
                    "tot_orphaned": 0.0, 
                    "tot_risk": 0.17307692307692307
                }, 
                "Jason Graham\nTom Preston-Werner": {
                    "tot_knowledge": 12.58741258741259, 
                    "tot_orphaned": 0.0, 
                    "tot_risk": 0.12587412587412591
                }
            }, 
            "tot_knowledge": 1399.9999999999998, 
            "tot_orphaned": 0.0, 
            "tot_risk": 16.72989510489511
        }, 
        {
            "author_risks": {
                "Tom Preston-Werner": {
                    "tot_knowledge": 1000.0, 
                    "tot_orphaned": 0.0, 
                    "tot_risk": 100.0
                }
            }, 
            "tot_knowledge": 1000.0, 
            "tot_orphaned": 0.0, 
            "tot_risk": 100.0
        }, 
        {
            "author_risks": {
                "Jason Graham": {
                    "tot_knowledge": 1000.0, 
                    "tot_orphaned": 0.0, 
                    "tot_risk": 100.0
                }
            }, 
            "tot_knowledge": 1000.0, 
            "tot_orphaned": 0.0, 
            "tot_risk": 100.0
        }, 
        {
            "author_risks": {
                "Florian Thomas": {
                    "tot_knowledge": 1000.0, 
                    "tot_orphaned": 0.0, 
                    "tot_risk": 100.0
                }
            }, 
            "tot_knowledge": 1000.0, 
            "tot_orphaned": 0.0, 
            "tot_risk": 100.0
        }, 
        {
            "author_risks": {
                "Florian Thomas": {
                    "tot_knowledge": 1000.0, 
                    "tot_orphaned": 0.0, 
                    "tot_risk": 100.0
                }
            }, 
            "tot_knowledge": 1000.0, 
            "tot_orphaned": 0.0, 
            "tot_risk": 100.0
        }, 
        {
            "author_risks": {
                "Florian Thomas": {
                    "tot_knowledge": 1000.0, 
                    "tot_orphaned": 0.0, 
                    "tot_risk": 100.0
                }
            }, 
            "tot_knowledge": 1000.0, 
            "tot_orphaned": 0.0, 
            "tot_risk": 100.0
        }, 
        {
            "author_risks": {
                "Florian Thomas": {
                    "tot_knowledge": 1000.0, 
                    "tot_orphaned": 0.0, 
                    "tot_risk": 100.0
                }
            }, 
            "tot_knowledge": 1000.0, 
            "tot_orphaned": 0.0, 
            "tot_risk": 100.0
        }, 
        {
            "author_risks": {
                "Florian Thomas": {
                    "tot_knowledge": 1000.0, 
                    "tot_orphaned": 0.0, 
                    "tot_risk": 100.0
                }
            }, 
            "tot_knowledge": 1000.0, 
            "tot_orphaned": 0.0, 
            "tot_risk": 100.0
        }, 
        {
            "author_risks": {
                "Florian Thomas": {
                    "tot_knowledge": 1000.0, 
                    "tot_orphaned": 0.0, 
                    "tot_risk": 100.0
                }
            }, 
            "tot_knowledge": 1000.0, 
            "tot_orphaned": 0.0, 
            "tot_risk": 100.0
        }, 
        {
            "author_risks": {
                "Jason Graham": {
                    "tot_knowledge": 100.0, 
                    "tot_orphaned": 0.0, 
                    "tot_risk": 10.0
                }, 
                "Jordon Bedwell": {
                    "tot_knowledge": 100.0, 
                    "tot_orphaned": 0.0, 
                    "tot_risk": 10.0
                }, 
                "Jason Graham\nJordon Bedwell": {
                    "tot_knowledge": 900.0, 
                    "tot_orphaned": 0.0, 
                    "tot_risk": 9.000000000000002
                }
            }, 
            "tot_knowledge": 1100.0, 
            "tot_orphaned": 0.0, 
            "tot_risk": 29.0
        }, 
        {
            "author_risks": {
                "maul.esel": {
                    "tot_knowledge": 25.0, 
                    "tot_orphaned": 0.0, 
                    "tot_risk": 2.5
                }, 
                "Jason Graham\nTom Bell": {
                    "tot_knowledge": 40.90909090909091, 
                    "tot_orphaned": 0.0, 
                    "tot_risk": 0.40909090909090917
                }, 
                "Git by a Bus Safe Author": {
                    "tot_knowledge": 981.8181818181819, 
                    "tot_orphaned": 0.0, 
                    "tot_risk": 0.9818181818181821
                }, 
                "Jason Graham": {
                    "tot_knowledge": 4.545454545454543, 
                    "tot_orphaned": 0.0, 
                    "tot_risk": 0.45454545454545436
                }, 
                "Jordon Bedwell\nmaul.esel": {
                    "tot_knowledge": 75.0, 
                    "tot_orphaned": 0.0, 
                    "tot_risk": 0.7500000000000001
                }, 
                "Tom Bell": {
                    "tot_knowledge": 4.545454545454543, 
                    "tot_orphaned": 0.0, 
                    "tot_risk": 0.45454545454545436
                }, 
                "Jason Graham\nmaul.esel": {
                    "tot_knowledge": 20.454545454545453, 
                    "tot_orphaned": 0.0, 
                    "tot_risk": 0.20454545454545459
                }, 
                "Jordon Bedwell\nTom Bell": {
                    "tot_knowledge": 13.63636363636363, 
                    "tot_orphaned": 0.0, 
                    "tot_risk": 0.13636363636363633
                }, 
                "Jason Graham\nJordon Bedwell": {
                    "tot_knowledge": 13.63636363636363, 
                    "tot_orphaned": 0.0, 
                    "tot_risk": 0.13636363636363633
                }, 
                "Tom Bell\nmaul.esel": {
                    "tot_knowledge": 20.454545454545453, 
                    "tot_orphaned": 0.0, 
                    "tot_risk": 0.20454545454545459
                }, 
                "Jordon Bedwell": {
                    "tot_knowledge": 100.0, 
                    "tot_orphaned": 0.0, 
                    "tot_risk": 10.0
                }
            }, 
            "tot_knowledge": 1300.0000000000002, 
            "tot_orphaned": 0.0, 
            "tot_risk": 16.231818181818184
        }, 
        {
            "author_risks": {
                "Jordon Bedwell": {
                    "tot_knowledge": 100.0, 
                    "tot_orphaned": 0.0, 
                    "tot_risk": 10.0
                }, 
                "Pat Hawks": {
                    "tot_knowledge": 100.0, 
                    "tot_orphaned": 0.0, 
                    "tot_risk": 10.0
                }, 
                "Jordon Bedwell\nPat Hawks": {
                    "tot_knowledge": 900.0, 
                    "tot_orphaned": 0.0, 
                    "tot_risk": 9.000000000000002
                }
            }, 
            "tot_knowledge": 1100.0, 
            "tot_orphaned": 0.0, 
            "tot_risk": 29.0
        }, 
        {
            "author_risks": {
                "Pat Hawks": {
                    "tot_knowledge": 1000.0, 
                    "tot_orphaned": 0.0, 
                    "tot_risk": 100.0
                }
            }, 
            "tot_knowledge": 1000.0, 
            "tot_orphaned": 0.0, 
            "tot_risk": 100.0
        }, 
        {
            "author_risks": {
                "Pat Hawks": {
                    "tot_knowledge": 1000.0, 
                    "tot_orphaned": 0.0, 
                    "tot_risk": 100.0
                }
            }, 
            "tot_knowledge": 1000.0, 
            "tot_orphaned": 0.0, 
            "tot_risk": 100.0
        }, 
        {
            "author_risks": {
                "Pat Hawks": {
                    "tot_knowledge": 1000.0, 
                    "tot_orphaned": 0.0, 
                    "tot_risk": 100.0
                }
            }, 
            "tot_knowledge": 1000.0, 
            "tot_orphaned": 0.0, 
            "tot_risk": 100.0
        }, 
        {
            "author_risks": {
                "Jordon Bedwell": {
                    "tot_knowledge": 1000.0, 
                    "tot_orphaned": 0.0, 
                    "tot_risk": 100.0
                }
            }, 
            "tot_knowledge": 1000.0, 
            "tot_orphaned": 0.0, 
            "tot_risk": 100.0
        }, 
        {
            "author_risks": {
                "Jordon Bedwell": {
                    "tot_knowledge": 1000.0, 
                    "tot_orphaned": 0.0, 
                    "tot_risk": 100.0
                }
            }, 
            "tot_knowledge": 1000.0, 
            "tot_orphaned": 0.0, 
            "tot_risk": 100.0
        }, 
        {
            "author_risks": {
                "Jordon Bedwell": {
                    "tot_knowledge": 1000.0, 
                    "tot_orphaned": 0.0, 
                    "tot_risk": 100.0
                }
            }, 
            "tot_knowledge": 1000.0, 
            "tot_orphaned": 0.0, 
            "tot_risk": 100.0
        }, 
        {
            "author_risks": {
                "Jordon Bedwell": {
                    "tot_knowledge": 1000.0, 
                    "tot_orphaned": 0.0, 
                    "tot_risk": 100.0
                }
            }, 
            "tot_knowledge": 1000.0, 
            "tot_orphaned": 0.0, 
            "tot_risk": 100.0
        }, 
        {
            "author_risks": {
                "Jordon Bedwell": {
                    "tot_knowledge": 1000.0, 
                    "tot_orphaned": 0.0, 
                    "tot_risk": 100.0
                }
            }, 
            "tot_knowledge": 1000.0, 
            "tot_orphaned": 0.0, 
            "tot_risk": 100.0
        }, 
        {
            "author_risks": {
                "Jordon Bedwell": {
                    "tot_knowledge": 100.0, 
                    "tot_orphaned": 0.0, 
                    "tot_risk": 10.0
                }, 
                "Pat Hawks": {
                    "tot_knowledge": 100.0, 
                    "tot_orphaned": 0.0, 
                    "tot_risk": 10.0
                }, 
                "Jordon Bedwell\nPat Hawks": {
                    "tot_knowledge": 900.0, 
                    "tot_orphaned": 0.0, 
                    "tot_risk": 9.000000000000002
                }
            }, 
            "tot_knowledge": 1100.0, 
            "tot_orphaned": 0.0, 
            "tot_risk": 29.0
        }, 
        {
            "author_risks": {
                "Jordon Bedwell": {
                    "tot_knowledge": 18.181818181818173, 
                    "tot_orphaned": 0.0, 
                    "tot_risk": 1.8181818181818175
                }, 
                "Pat Hawks": {
                    "tot_knowledge": 200.0, 
                    "tot_orphaned": 0.0, 
                    "tot_risk": 20.0
                }, 
                "Jordon Bedwell\nPat Hawks": {
                    "tot_knowledge": 981.8181818181819, 
                    "tot_orphaned": 0.0, 
                    "tot_risk": 9.81818181818182
                }
            }, 
            "tot_knowledge": 1200.0, 
            "tot_orphaned": 0.0, 
            "tot_risk": 31.636363636363637
        }, 
        {
            "author_risks": {
                "Jordon Bedwell": {
                    "tot_knowledge": 100.0, 
                    "tot_orphaned": 0.0, 
                    "tot_risk": 10.0
                }, 
                "Pat Hawks": {
                    "tot_knowledge": 100.0, 
                    "tot_orphaned": 0.0, 
                    "tot_risk": 10.0
                }, 
                "Jordon Bedwell\nPat Hawks": {
                    "tot_knowledge": 900.0, 
                    "tot_orphaned": 0.0, 
                    "tot_risk": 9.000000000000002
                }
            }, 
            "tot_knowledge": 1100.0, 
            "tot_orphaned": 0.0, 
            "tot_risk": 29.0
        }, 
        {
            "author_risks": {
                "Jordon Bedwell": {
                    "tot_knowledge": 1000.0, 
                    "tot_orphaned": 0.0, 
                    "tot_risk": 100.0
                }
            }, 
            "tot_knowledge": 1000.0, 
            "tot_orphaned": 0.0, 
            "tot_risk": 100.0
        }, 
        {
            "author_risks": {
                "null": {
                    "tot_knowledge": null, 
                    "tot_orphaned": null, 
                    "tot_risk": null
                }
            }, 
            "tot_knowledge": null, 
            "tot_orphaned": null, 
            "tot_risk": null
        }, 
        {
            "author_risks": {
                "Parker Moore\nTom Bell": {
                    "tot_knowledge": -2700.0, 
                    "tot_orphaned": 0.0, 
                    "tot_risk": -27.000000000000004
                }, 
                "Parker Moore": {
                    "tot_knowledge": 200.0, 
                    "tot_orphaned": 0.0, 
                    "tot_risk": 20.0
                }, 
                "Tom Bell": {
                    "tot_knowledge": 2800.0, 
                    "tot_orphaned": 0.0, 
                    "tot_risk": 280.0
                }
            }, 
            "tot_knowledge": 300.0, 
            "tot_orphaned": 0.0, 
            "tot_risk": 273.0
        }, 
        {
            "author_risks": {
                "Jordon Bedwell": {
                    "tot_knowledge": 100.0, 
                    "tot_orphaned": 0.0, 
                    "tot_risk": 10.0
                }, 
                "Jordon Bedwell\nParker Moore": {
                    "tot_knowledge": 900.0, 
                    "tot_orphaned": 0.0, 
                    "tot_risk": 9.000000000000002
                }, 
                "Parker Moore": {
                    "tot_knowledge": -700.0, 
                    "tot_orphaned": 0.0, 
                    "tot_risk": -70.0
                }
            }, 
            "tot_knowledge": 300.0, 
            "tot_orphaned": 0.0, 
            "tot_risk": -51.0
        }, 
        {
            "author_risks": {
                "Jordon Bedwell": {
                    "tot_knowledge": 100.0, 
                    "tot_orphaned": 0.0, 
                    "tot_risk": 10.0
                }, 
                "Pat Hawks": {
                    "tot_knowledge": 100.0, 
                    "tot_orphaned": 0.0, 
                    "tot_risk": 10.0
                }, 
                "Jordon Bedwell\nPat Hawks": {
                    "tot_knowledge": 900.0, 
                    "tot_orphaned": 0.0, 
                    "tot_risk": 9.000000000000002
                }
            }, 
            "tot_knowledge": 1100.0, 
            "tot_orphaned": 0.0, 
            "tot_risk": 29.0
        }, 
        {
            "author_risks": {
                "Jordon Bedwell": {
                    "tot_knowledge": 1000.0, 
                    "tot_orphaned": 0.0, 
                    "tot_risk": 100.0
                }
            }, 
            "tot_knowledge": 1000.0, 
            "tot_orphaned": 0.0, 
            "tot_risk": 100.0
        }, 
        {
            "author_risks": {
                "null": {
                    "tot_knowledge": null, 
                    "tot_orphaned": null, 
                    "tot_risk": null
                }
            }, 
            "tot_knowledge": null, 
            "tot_orphaned": null, 
            "tot_risk": null
        }, 
        {
            "author_risks": {
                "maul.esel": {
                    "tot_knowledge": 1000.0, 
                    "tot_orphaned": 0.0, 
                    "tot_risk": 100.0
                }
            }, 
            "tot_knowledge": 1000.0, 
            "tot_orphaned": 0.0, 
            "tot_risk": 100.0
        }, 
        {
            "author_risks": {
                "Paul Robert Lloyd": {
                    "tot_knowledge": 1000.0, 
                    "tot_orphaned": 0.0, 
                    "tot_risk": 100.0
                }
            }, 
            "tot_knowledge": 1000.0, 
            "tot_orphaned": 0.0, 
            "tot_risk": 100.0
        }, 
        {
            "author_risks": {
                "Jordon Bedwell\nPat Hawks": {
                    "tot_knowledge": 81.81818181818183, 
                    "tot_orphaned": 0.0, 
                    "tot_risk": 0.8181818181818185
                }, 
                "Git by a Bus Safe Author": {
                    "tot_knowledge": 736.3636363636364, 
                    "tot_orphaned": 0.0, 
                    "tot_risk": 0.7363636363636366
                }, 
                "Pat Hawks\nPaul Robert Lloyd": {
                    "tot_knowledge": 81.81818181818183, 
                    "tot_orphaned": 0.0, 
                    "tot_risk": 0.8181818181818185
                }, 
                "Paul Robert Lloyd": {
                    "tot_knowledge": 18.181818181818173, 
                    "tot_orphaned": 0.0, 
                    "tot_risk": 1.8181818181818175
                }, 
                "Pat Hawks": {
                    "tot_knowledge": 100.0, 
                    "tot_orphaned": 0.0, 
                    "tot_risk": 10.0
                }, 
                "Jordon Bedwell\nPaul Robert Lloyd": {
                    "tot_knowledge": 163.63636363636363, 
                    "tot_orphaned": 0.0, 
                    "tot_risk": 1.6363636363636367
                }, 
                "Jordon Bedwell": {
                    "tot_knowledge": 18.181818181818173, 
                    "tot_orphaned": 0.0, 
                    "tot_risk": 1.8181818181818175
                }
            }, 
            "tot_knowledge": 1200.0, 
            "tot_orphaned": 0.0, 
            "tot_risk": 17.645454545454545
        }, 
        {
            "author_risks": {
                "Paul Robert Lloyd": {
                    "tot_knowledge": 1000.0, 
                    "tot_orphaned": 0.0, 
                    "tot_risk": 100.0
                }
            }, 
            "tot_knowledge": 1000.0, 
            "tot_orphaned": 0.0, 
            "tot_risk": 100.0
        }, 
        {
            "author_risks": {
                "Paul Robert Lloyd": {
                    "tot_knowledge": 100.0, 
                    "tot_orphaned": 0.0, 
                    "tot_risk": 10.0
                }, 
                "Jordon Bedwell\nPaul Robert Lloyd": {
                    "tot_knowledge": 900.0, 
                    "tot_orphaned": 0.0, 
                    "tot_risk": 9.000000000000002
                }, 
                "Jordon Bedwell": {
                    "tot_knowledge": 100.0, 
                    "tot_orphaned": 0.0, 
                    "tot_risk": 10.0
                }
            }, 
            "tot_knowledge": 1100.0, 
            "tot_orphaned": 0.0, 
            "tot_risk": 29.0
        }, 
        {
            "author_risks": {
                "Paul Robert Lloyd": {
                    "tot_knowledge": 1000.0, 
                    "tot_orphaned": 0.0, 
                    "tot_risk": 100.0
                }
            }, 
            "tot_knowledge": 1000.0, 
            "tot_orphaned": 0.0, 
            "tot_risk": 100.0
        }, 
        {
            "author_risks": {
                "Paul Robert Lloyd": {
                    "tot_knowledge": 100.0, 
                    "tot_orphaned": 0.0, 
                    "tot_risk": 10.0
                }, 
                "Jordon Bedwell\nPaul Robert Lloyd": {
                    "tot_knowledge": 900.0, 
                    "tot_orphaned": 0.0, 
                    "tot_risk": 9.000000000000002
                }, 
                "Jordon Bedwell": {
                    "tot_knowledge": 100.0, 
                    "tot_orphaned": 0.0, 
                    "tot_risk": 10.0
                }
            }, 
            "tot_knowledge": 1100.0, 
            "tot_orphaned": 0.0, 
            "tot_risk": 29.0
        }, 
        {
            "author_risks": {
                "Paul Robert Lloyd": {
                    "tot_knowledge": 100.0, 
                    "tot_orphaned": 0.0, 
                    "tot_risk": 10.0
                }, 
                "Parker Moore": {
                    "tot_knowledge": 100.0, 
                    "tot_orphaned": 0.0, 
                    "tot_risk": 10.0
                }, 
                "Parker Moore\nPaul Robert Lloyd": {
                    "tot_knowledge": 900.0, 
                    "tot_orphaned": 0.0, 
                    "tot_risk": 9.000000000000002
                }
            }, 
            "tot_knowledge": 1100.0, 
            "tot_orphaned": 0.0, 
            "tot_risk": 29.0
        }, 
        {
            "author_risks": {
                "Jordon Bedwell\nParker Moore": {
                    "tot_knowledge": 81.81818181818183, 
                    "tot_orphaned": 0.0, 
                    "tot_risk": 0.8181818181818185
                }, 
                "Git by a Bus Safe Author": {
                    "tot_knowledge": 736.3636363636364, 
                    "tot_orphaned": 0.0, 
                    "tot_risk": 0.7363636363636366
                }, 
                "Jordon Bedwell\nmaul.esel": {
                    "tot_knowledge": 163.63636363636363, 
                    "tot_orphaned": 0.0, 
                    "tot_risk": 1.6363636363636367
                }, 
                "maul.esel": {
                    "tot_knowledge": 18.181818181818173, 
                    "tot_orphaned": 0.0, 
                    "tot_risk": 1.8181818181818175
                }, 
                "Parker Moore": {
                    "tot_knowledge": 100.0, 
                    "tot_orphaned": 0.0, 
                    "tot_risk": 10.0
                }, 
                "Parker Moore\nmaul.esel": {
                    "tot_knowledge": 81.81818181818183, 
                    "tot_orphaned": 0.0, 
                    "tot_risk": 0.8181818181818185
                }, 
                "Jordon Bedwell": {
                    "tot_knowledge": 18.181818181818173, 
                    "tot_orphaned": 0.0, 
                    "tot_risk": 1.8181818181818175
                }
            }, 
            "tot_knowledge": 1200.0, 
            "tot_orphaned": 0.0, 
            "tot_risk": 17.645454545454545
        }, 
        {
            "author_risks": {
                "Parker Moore": {
                    "tot_knowledge": 1000.0, 
                    "tot_orphaned": 0.0, 
                    "tot_risk": 100.0
                }
            }, 
            "tot_knowledge": 1000.0, 
            "tot_orphaned": 0.0, 
            "tot_risk": 100.0
        }, 
        {
            "author_risks": {
                "Jordon Bedwell": {
                    "tot_knowledge": 100.0, 
                    "tot_orphaned": 0.0, 
                    "tot_risk": 10.0
                }, 
                "Jordon Bedwell\nmaul.esel": {
                    "tot_knowledge": 900.0, 
                    "tot_orphaned": 0.0, 
                    "tot_risk": 9.000000000000002
                }, 
                "maul.esel": {
                    "tot_knowledge": 100.0, 
                    "tot_orphaned": 0.0, 
                    "tot_risk": 10.0
                }
            }, 
            "tot_knowledge": 1100.0, 
            "tot_orphaned": 0.0, 
            "tot_risk": 29.0
        }, 
        {
            "author_risks": {
                "maul.esel": {
                    "tot_knowledge": 1000.0, 
                    "tot_orphaned": 0.0, 
                    "tot_risk": 100.0
                }
            }, 
            "tot_knowledge": 1000.0, 
            "tot_orphaned": 0.0, 
            "tot_risk": 100.0
        }, 
        {
            "author_risks": {
                "maul.esel": {
                    "tot_knowledge": 1000.0, 
                    "tot_orphaned": 0.0, 
                    "tot_risk": 100.0
                }
            }, 
            "tot_knowledge": 1000.0, 
            "tot_orphaned": 0.0, 
            "tot_risk": 100.0
        }, 
        {
            "author_risks": {
                "Jordon Bedwell": {
                    "tot_knowledge": 100.0, 
                    "tot_orphaned": 0.0, 
                    "tot_risk": 10.0
                }, 
                "Jordon Bedwell\nmaul.esel": {
                    "tot_knowledge": 900.0, 
                    "tot_orphaned": 0.0, 
                    "tot_risk": 9.000000000000002
                }, 
                "maul.esel": {
                    "tot_knowledge": 100.0, 
                    "tot_orphaned": 0.0, 
                    "tot_risk": 10.0
                }
            }, 
            "tot_knowledge": 1100.0, 
            "tot_orphaned": 0.0, 
            "tot_risk": 29.0
        }, 
        {
            "author_risks": {
                "Jordon Bedwell": {
                    "tot_knowledge": 100.0, 
                    "tot_orphaned": 0.0, 
                    "tot_risk": 10.0
                }, 
                "Jordon Bedwell\nmaul.esel": {
                    "tot_knowledge": 900.0, 
                    "tot_orphaned": 0.0, 
                    "tot_risk": 9.000000000000002
                }, 
                "maul.esel": {
                    "tot_knowledge": 100.0, 
                    "tot_orphaned": 0.0, 
                    "tot_risk": 10.0
                }
            }, 
            "tot_knowledge": 1100.0, 
            "tot_orphaned": 0.0, 
            "tot_risk": 29.0
        }, 
        {
            "author_risks": {
                "Jordon Bedwell": {
                    "tot_knowledge": 1100.0, 
                    "tot_orphaned": 0.0, 
                    "tot_risk": 110.0
                }
            }, 
            "tot_knowledge": 1100.0, 
            "tot_orphaned": 0.0, 
            "tot_risk": 110.0
        }, 
        {
            "author_risks": {
                "Jordon Bedwell": {
                    "tot_knowledge": 1000.0, 
                    "tot_orphaned": 0.0, 
                    "tot_risk": 100.0
                }
            }, 
            "tot_knowledge": 1000.0, 
            "tot_orphaned": 0.0, 
            "tot_risk": 100.0
        }, 
        {
            "author_risks": {
                "Jordon Bedwell": {
                    "tot_knowledge": 1000.0, 
                    "tot_orphaned": 0.0, 
                    "tot_risk": 100.0
                }
            }, 
            "tot_knowledge": 1000.0, 
            "tot_orphaned": 0.0, 
            "tot_risk": 100.0
        }, 
        {
            "author_risks": {
                "Jordon Bedwell": {
                    "tot_knowledge": 1000.0, 
                    "tot_orphaned": 0.0, 
                    "tot_risk": 100.0
                }
            }, 
            "tot_knowledge": 1000.0, 
            "tot_orphaned": 0.0, 
            "tot_risk": 100.0
        }, 
        {
            "author_risks": {
                "Jordon Bedwell": {
                    "tot_knowledge": 100.0, 
                    "tot_orphaned": 0.0, 
                    "tot_risk": 10.0
                }, 
                "Pat Hawks": {
                    "tot_knowledge": 100.0, 
                    "tot_orphaned": 0.0, 
                    "tot_risk": 10.0
                }, 
                "Jordon Bedwell\nPat Hawks": {
                    "tot_knowledge": 900.0, 
                    "tot_orphaned": 0.0, 
                    "tot_risk": 9.000000000000002
                }
            }, 
            "tot_knowledge": 1100.0, 
            "tot_orphaned": 0.0, 
            "tot_risk": 29.0
        }, 
        {
            "author_risks": {
                "Jordon Bedwell": {
                    "tot_knowledge": 100.0, 
                    "tot_orphaned": 0.0, 
                    "tot_risk": 10.0
                }, 
                "Pat Hawks": {
                    "tot_knowledge": 100.0, 
                    "tot_orphaned": 0.0, 
                    "tot_risk": 10.0
                }, 
                "Jordon Bedwell\nPat Hawks": {
                    "tot_knowledge": 900.0, 
                    "tot_orphaned": 0.0, 
                    "tot_risk": 9.000000000000002
                }
            }, 
            "tot_knowledge": 1100.0, 
            "tot_orphaned": 0.0, 
            "tot_risk": 29.0
        }, 
        {
            "author_risks": {
                "Jordon Bedwell": {
                    "tot_knowledge": 1000.0, 
                    "tot_orphaned": 0.0, 
                    "tot_risk": 100.0
                }
            }, 
            "tot_knowledge": 1000.0, 
            "tot_orphaned": 0.0, 
            "tot_risk": 100.0
        }, 
        {
            "author_risks": {
                "Jordon Bedwell": {
                    "tot_knowledge": 1000.0, 
                    "tot_orphaned": 0.0, 
                    "tot_risk": 100.0
                }
            }, 
            "tot_knowledge": 1000.0, 
            "tot_orphaned": 0.0, 
            "tot_risk": 100.0
        }, 
        {
            "author_risks": {
                "Jordon Bedwell": {
                    "tot_knowledge": 1000.0, 
                    "tot_orphaned": 0.0, 
                    "tot_risk": 100.0
                }
            }, 
            "tot_knowledge": 1000.0, 
            "tot_orphaned": 0.0, 
            "tot_risk": 100.0
        }, 
        {
            "author_risks": {
                "Jordon Bedwell": {
                    "tot_knowledge": 100.0, 
                    "tot_orphaned": 0.0, 
                    "tot_risk": 10.0
                }, 
                "Pat Hawks": {
                    "tot_knowledge": 100.0, 
                    "tot_orphaned": 0.0, 
                    "tot_risk": 10.0
                }, 
                "Jordon Bedwell\nPat Hawks": {
                    "tot_knowledge": 900.0, 
                    "tot_orphaned": 0.0, 
                    "tot_risk": 9.000000000000002
                }
            }, 
            "tot_knowledge": 1100.0, 
            "tot_orphaned": 0.0, 
            "tot_risk": 29.0
        }, 
        {
            "author_risks": {
                "Jordon Bedwell": {
                    "tot_knowledge": 1000.0, 
                    "tot_orphaned": 0.0, 
                    "tot_risk": 100.0
                }
            }, 
            "tot_knowledge": 1000.0, 
            "tot_orphaned": 0.0, 
            "tot_risk": 100.0
        }, 
        {
            "author_risks": {
                "Jordon Bedwell": {
                    "tot_knowledge": 1000.0, 
                    "tot_orphaned": 0.0, 
                    "tot_risk": 100.0
                }
            }, 
            "tot_knowledge": 1000.0, 
            "tot_orphaned": 0.0, 
            "tot_risk": 100.0
        }, 
        {
            "author_risks": {
                "Jordon Bedwell": {
                    "tot_knowledge": 1000.0, 
                    "tot_orphaned": 0.0, 
                    "tot_risk": 100.0
                }
            }, 
            "tot_knowledge": 1000.0, 
            "tot_orphaned": 0.0, 
            "tot_risk": 100.0
        }, 
        {
            "author_risks": {
                "Jordon Bedwell": {
                    "tot_knowledge": 1000.0, 
                    "tot_orphaned": 0.0, 
                    "tot_risk": 100.0
                }
            }, 
            "tot_knowledge": 1000.0, 
            "tot_orphaned": 0.0, 
            "tot_risk": 100.0
        }, 
        {
            "author_risks": {
                "Jordon Bedwell": {
                    "tot_knowledge": 1000.0, 
                    "tot_orphaned": 0.0, 
                    "tot_risk": 100.0
                }
            }, 
            "tot_knowledge": 1000.0, 
            "tot_orphaned": 0.0, 
            "tot_risk": 100.0
        }, 
        {
            "author_risks": {
                "Jordon Bedwell": {
                    "tot_knowledge": 1000.0, 
                    "tot_orphaned": 0.0, 
                    "tot_risk": 100.0
                }
            }, 
            "tot_knowledge": 1000.0, 
            "tot_orphaned": 0.0, 
            "tot_risk": 100.0
        }, 
        {
            "author_risks": {
                "Jordon Bedwell": {
                    "tot_knowledge": 1000.0, 
                    "tot_orphaned": 0.0, 
                    "tot_risk": 100.0
                }
            }, 
            "tot_knowledge": 1000.0, 
            "tot_orphaned": 0.0, 
            "tot_risk": 100.0
        }, 
        {
            "author_risks": {
                "maul.esel": {
                    "tot_knowledge": 1000.0, 
                    "tot_orphaned": 0.0, 
                    "tot_risk": 100.0
                }
            }, 
            "tot_knowledge": 1000.0, 
            "tot_orphaned": 0.0, 
            "tot_risk": 100.0
        }, 
        {
            "author_risks": {
                "maul.esel": {
                    "tot_knowledge": 1000.0, 
                    "tot_orphaned": 0.0, 
                    "tot_risk": 100.0
                }
            }, 
            "tot_knowledge": 1000.0, 
            "tot_orphaned": 0.0, 
            "tot_risk": 100.0
        }, 
        {
            "author_risks": {
                "Jordon Bedwell": {
                    "tot_knowledge": 100.0, 
                    "tot_orphaned": 0.0, 
                    "tot_risk": 10.0
                }, 
                "Jordon Bedwell\nmaul.esel": {
                    "tot_knowledge": 900.0, 
                    "tot_orphaned": 0.0, 
                    "tot_risk": 9.000000000000002
                }, 
                "maul.esel": {
                    "tot_knowledge": 100.0, 
                    "tot_orphaned": 0.0, 
                    "tot_risk": 10.0
                }
            }, 
            "tot_knowledge": 1100.0, 
            "tot_orphaned": 0.0, 
            "tot_risk": 29.0
        }, 
        {
            "author_risks": {
                "Jordon Bedwell": {
                    "tot_knowledge": 100.0, 
                    "tot_orphaned": 0.0, 
                    "tot_risk": 10.0
                }, 
                "Jordon Bedwell\nmaul.esel": {
                    "tot_knowledge": 900.0, 
                    "tot_orphaned": 0.0, 
                    "tot_risk": 9.000000000000002
                }, 
                "maul.esel": {
                    "tot_knowledge": 100.0, 
                    "tot_orphaned": 0.0, 
                    "tot_risk": 10.0
                }
            }, 
            "tot_knowledge": 1100.0, 
            "tot_orphaned": 0.0, 
            "tot_risk": 29.0
        }, 
        {
            "author_risks": {
                "Jordon Bedwell": {
                    "tot_knowledge": 100.0, 
                    "tot_orphaned": 0.0, 
                    "tot_risk": 10.0
                }, 
                "Jordon Bedwell\nmaul.esel": {
                    "tot_knowledge": 900.0, 
                    "tot_orphaned": 0.0, 
                    "tot_risk": 9.000000000000002
                }, 
                "maul.esel": {
                    "tot_knowledge": 100.0, 
                    "tot_orphaned": 0.0, 
                    "tot_risk": 10.0
                }
            }, 
            "tot_knowledge": 1100.0, 
            "tot_orphaned": 0.0, 
            "tot_risk": 29.0
        }, 
        {
            "author_risks": {
                "Jordon Bedwell": {
                    "tot_knowledge": 1000.0, 
                    "tot_orphaned": 0.0, 
                    "tot_risk": 100.0
                }
            }, 
            "tot_knowledge": 1000.0, 
            "tot_orphaned": 0.0, 
            "tot_risk": 100.0
        }, 
        {
            "author_risks": {
                "Jordon Bedwell": {
                    "tot_knowledge": 50.0, 
                    "tot_orphaned": 0.0, 
                    "tot_risk": 5.0
                }, 
                "Pat Hawks": {
                    "tot_knowledge": 200.0, 
                    "tot_orphaned": 0.0, 
                    "tot_risk": 20.0
                }, 
                "Jordon Bedwell\nPat Hawks": {
                    "tot_knowledge": 1050.0, 
                    "tot_orphaned": 0.0, 
                    "tot_risk": 10.500000000000002
                }
            }, 
            "tot_knowledge": 1300.0, 
            "tot_orphaned": 0.0, 
            "tot_risk": 35.5
        }, 
        {
            "author_risks": {
                "Jordon Bedwell": {
                    "tot_knowledge": 100.0, 
                    "tot_orphaned": 0.0, 
                    "tot_risk": 10.0
                }, 
                "Pat Hawks": {
                    "tot_knowledge": 100.0, 
                    "tot_orphaned": 0.0, 
                    "tot_risk": 10.0
                }, 
                "Jordon Bedwell\nPat Hawks": {
                    "tot_knowledge": 900.0, 
                    "tot_orphaned": 0.0, 
                    "tot_risk": 9.000000000000002
                }
            }, 
            "tot_knowledge": 1100.0, 
            "tot_orphaned": 0.0, 
            "tot_risk": 29.0
        }, 
        {
            "author_risks": {
                "Jordon Bedwell": {
                    "tot_knowledge": 1000.0, 
                    "tot_orphaned": 0.0, 
                    "tot_risk": 100.0
                }
            }, 
            "tot_knowledge": 1000.0, 
            "tot_orphaned": 0.0, 
            "tot_risk": 100.0
        }, 
        {
            "author_risks": {
                "Jordon Bedwell": {
                    "tot_knowledge": 1000.0, 
                    "tot_orphaned": 0.0, 
                    "tot_risk": 100.0
                }
            }, 
            "tot_knowledge": 1000.0, 
            "tot_orphaned": 0.0, 
            "tot_risk": 100.0
        }, 
        {
            "author_risks": {
                "Jordon Bedwell": {
                    "tot_knowledge": 1000.0, 
                    "tot_orphaned": 0.0, 
                    "tot_risk": 100.0
                }
            }, 
            "tot_knowledge": 1000.0, 
            "tot_orphaned": 0.0, 
            "tot_risk": 100.0
        }, 
        {
            "author_risks": {
                "Jordon Bedwell": {
                    "tot_knowledge": 1000.0, 
                    "tot_orphaned": 0.0, 
                    "tot_risk": 100.0
                }
            }, 
            "tot_knowledge": 1000.0, 
            "tot_orphaned": 0.0, 
            "tot_risk": 100.0
        }, 
        {
            "author_risks": {
                "Jordon Bedwell": {
                    "tot_knowledge": 1000.0, 
                    "tot_orphaned": 0.0, 
                    "tot_risk": 100.0
                }
            }, 
            "tot_knowledge": 1000.0, 
            "tot_orphaned": 0.0, 
            "tot_risk": 100.0
        }, 
        {
            "author_risks": {
                "Jordon Bedwell": {
                    "tot_knowledge": 100.0, 
                    "tot_orphaned": 0.0, 
                    "tot_risk": 10.0
                }, 
                "Pat Hawks": {
                    "tot_knowledge": 100.0, 
                    "tot_orphaned": 0.0, 
                    "tot_risk": 10.0
                }, 
                "Jordon Bedwell\nPat Hawks": {
                    "tot_knowledge": 900.0, 
                    "tot_orphaned": 0.0, 
                    "tot_risk": 9.000000000000002
                }
            }, 
            "tot_knowledge": 1100.0, 
            "tot_orphaned": 0.0, 
            "tot_risk": 29.0
        }, 
        {
            "author_risks": {
                "Jordon Bedwell": {
                    "tot_knowledge": 1000.0, 
                    "tot_orphaned": 0.0, 
                    "tot_risk": 100.0
                }
            }, 
            "tot_knowledge": 1000.0, 
            "tot_orphaned": 0.0, 
            "tot_risk": 100.0
        }, 
        {
            "author_risks": {
                "Jordon Bedwell": {
                    "tot_knowledge": 1000.0, 
                    "tot_orphaned": 0.0, 
                    "tot_risk": 100.0
                }
            }, 
            "tot_knowledge": 1000.0, 
            "tot_orphaned": 0.0, 
            "tot_risk": 100.0
        }, 
        {
            "author_risks": {
                "Jordon Bedwell": {
                    "tot_knowledge": 1000.0, 
                    "tot_orphaned": 0.0, 
                    "tot_risk": 100.0
                }
            }, 
            "tot_knowledge": 1000.0, 
            "tot_orphaned": 0.0, 
            "tot_risk": 100.0
        }, 
        {
            "author_risks": {
                "Jordon Bedwell": {
                    "tot_knowledge": 1000.0, 
                    "tot_orphaned": 0.0, 
                    "tot_risk": 100.0
                }
            }, 
            "tot_knowledge": 1000.0, 
            "tot_orphaned": 0.0, 
            "tot_risk": 100.0
        }, 
        {
            "author_risks": {
                "Jordon Bedwell": {
                    "tot_knowledge": 1000.0, 
                    "tot_orphaned": 0.0, 
                    "tot_risk": 100.0
                }
            }, 
            "tot_knowledge": 1000.0, 
            "tot_orphaned": 0.0, 
            "tot_risk": 100.0
        }, 
        {
            "author_risks": {
                "Jordon Bedwell": {
                    "tot_knowledge": 1000.0, 
                    "tot_orphaned": 0.0, 
                    "tot_risk": 100.0
                }
            }, 
            "tot_knowledge": 1000.0, 
            "tot_orphaned": 0.0, 
            "tot_risk": 100.0
        }, 
        {
            "author_risks": {
                "Jordon Bedwell": {
                    "tot_knowledge": 100.0, 
                    "tot_orphaned": 0.0, 
                    "tot_risk": 10.0
                }, 
                "Jordon Bedwell\nParker Moore": {
                    "tot_knowledge": 900.0, 
                    "tot_orphaned": 0.0, 
                    "tot_risk": 9.000000000000002
                }, 
                "Parker Moore": {
                    "tot_knowledge": 100.0, 
                    "tot_orphaned": 0.0, 
                    "tot_risk": 10.0
                }
            }, 
            "tot_knowledge": 1100.0, 
            "tot_orphaned": 0.0, 
            "tot_risk": 29.0
        }, 
        {
            "author_risks": {
                "Jordon Bedwell": {
                    "tot_knowledge": 1000.0, 
                    "tot_orphaned": 0.0, 
                    "tot_risk": 100.0
                }
            }, 
            "tot_knowledge": 1000.0, 
            "tot_orphaned": 0.0, 
            "tot_risk": 100.0
        }, 
        {
            "author_risks": {
                "maul.esel": {
                    "tot_knowledge": 1000.0, 
                    "tot_orphaned": 0.0, 
                    "tot_risk": 100.0
                }
            }, 
            "tot_knowledge": 1000.0, 
            "tot_orphaned": 0.0, 
            "tot_risk": 100.0
        }, 
        {
            "author_risks": {
                "maul.esel": {
                    "tot_knowledge": 1000.0, 
                    "tot_orphaned": 0.0, 
                    "tot_risk": 100.0
                }
            }, 
            "tot_knowledge": 1000.0, 
            "tot_orphaned": 0.0, 
            "tot_risk": 100.0
        }, 
        {
            "author_risks": {
                "Jordon Bedwell": {
                    "tot_knowledge": 100.0, 
                    "tot_orphaned": 0.0, 
                    "tot_risk": 10.0
                }, 
                "Jordon Bedwell\nmaul.esel": {
                    "tot_knowledge": 900.0, 
                    "tot_orphaned": 0.0, 
                    "tot_risk": 9.000000000000002
                }, 
                "maul.esel": {
                    "tot_knowledge": 100.0, 
                    "tot_orphaned": 0.0, 
                    "tot_risk": 10.0
                }
            }, 
            "tot_knowledge": 1100.0, 
            "tot_orphaned": 0.0, 
            "tot_risk": 29.0
        }, 
        {
            "author_risks": {
                "Jordon Bedwell": {
                    "tot_knowledge": 100.0, 
                    "tot_orphaned": 0.0, 
                    "tot_risk": 10.0
                }, 
                "Jordon Bedwell\nmaul.esel": {
                    "tot_knowledge": 900.0, 
                    "tot_orphaned": 0.0, 
                    "tot_risk": 9.000000000000002
                }, 
                "maul.esel": {
                    "tot_knowledge": 100.0, 
                    "tot_orphaned": 0.0, 
                    "tot_risk": 10.0
                }
            }, 
            "tot_knowledge": 1100.0, 
            "tot_orphaned": 0.0, 
            "tot_risk": 29.0
        }, 
        {
            "author_risks": {
                "Jordon Bedwell": {
                    "tot_knowledge": 1000.0, 
                    "tot_orphaned": 0.0, 
                    "tot_risk": 100.0
                }
            }, 
            "tot_knowledge": 1000.0, 
            "tot_orphaned": 0.0, 
            "tot_risk": 100.0
        }, 
        {
            "author_risks": {
                "Jordon Bedwell": {
                    "tot_knowledge": 1000.0, 
                    "tot_orphaned": 0.0, 
                    "tot_risk": 100.0
                }
            }, 
            "tot_knowledge": 1000.0, 
            "tot_orphaned": 0.0, 
            "tot_risk": 100.0
        }, 
        {
            "author_risks": {
                "Jordon Bedwell": {
                    "tot_knowledge": 1000.0, 
                    "tot_orphaned": 0.0, 
                    "tot_risk": 100.0
                }
            }, 
            "tot_knowledge": 1000.0, 
            "tot_orphaned": 0.0, 
            "tot_risk": 100.0
        }, 
        {
            "author_risks": {
                "Jordon Bedwell": {
                    "tot_knowledge": 1000.0, 
                    "tot_orphaned": 0.0, 
                    "tot_risk": 100.0
                }
            }, 
            "tot_knowledge": 1000.0, 
            "tot_orphaned": 0.0, 
            "tot_risk": 100.0
        }, 
        {
            "author_risks": {
                "Jordon Bedwell": {
                    "tot_knowledge": 1000.0, 
                    "tot_orphaned": 0.0, 
                    "tot_risk": 100.0
                }
            }, 
            "tot_knowledge": 1000.0, 
            "tot_orphaned": 0.0, 
            "tot_risk": 100.0
        }, 
        {
            "author_risks": {
                "Jordon Bedwell": {
                    "tot_knowledge": 1000.0, 
                    "tot_orphaned": 0.0, 
                    "tot_risk": 100.0
                }
            }, 
            "tot_knowledge": 1000.0, 
            "tot_orphaned": 0.0, 
            "tot_risk": 100.0
        }, 
        {
            "author_risks": {
                "Jordon Bedwell": {
                    "tot_knowledge": 100.0, 
                    "tot_orphaned": 0.0, 
                    "tot_risk": 10.0
                }, 
                "Pat Hawks": {
                    "tot_knowledge": 100.0, 
                    "tot_orphaned": 0.0, 
                    "tot_risk": 10.0
                }, 
                "Jordon Bedwell\nPat Hawks": {
                    "tot_knowledge": 900.0, 
                    "tot_orphaned": 0.0, 
                    "tot_risk": 9.000000000000002
                }
            }, 
            "tot_knowledge": 1100.0, 
            "tot_orphaned": 0.0, 
            "tot_risk": 29.0
        }, 
        {
            "author_risks": {
                "Jordon Bedwell": {
                    "tot_knowledge": 100.0, 
                    "tot_orphaned": 0.0, 
                    "tot_risk": 10.0
                }, 
                "Pat Hawks": {
                    "tot_knowledge": 100.0, 
                    "tot_orphaned": 0.0, 
                    "tot_risk": 10.0
                }, 
                "Jordon Bedwell\nPat Hawks": {
                    "tot_knowledge": 900.0, 
                    "tot_orphaned": 0.0, 
                    "tot_risk": 9.000000000000002
                }
            }, 
            "tot_knowledge": 1100.0, 
            "tot_orphaned": 0.0, 
            "tot_risk": 29.0
        }, 
        {
            "author_risks": {
                "Jordon Bedwell": {
                    "tot_knowledge": 100.0, 
                    "tot_orphaned": 0.0, 
                    "tot_risk": 10.0
                }, 
                "Pat Hawks": {
                    "tot_knowledge": 100.0, 
                    "tot_orphaned": 0.0, 
                    "tot_risk": 10.0
                }, 
                "Jordon Bedwell\nPat Hawks": {
                    "tot_knowledge": 900.0, 
                    "tot_orphaned": 0.0, 
                    "tot_risk": 9.000000000000002
                }
            }, 
            "tot_knowledge": 1100.0, 
            "tot_orphaned": 0.0, 
            "tot_risk": 29.0
        }, 
        {
            "author_risks": {
                "Jordon Bedwell": {
                    "tot_knowledge": 1000.0, 
                    "tot_orphaned": 0.0, 
                    "tot_risk": 100.0
                }
            }, 
            "tot_knowledge": 1000.0, 
            "tot_orphaned": 0.0, 
            "tot_risk": 100.0
        }, 
        {
            "author_risks": {
                "Jordon Bedwell": {
                    "tot_knowledge": 1000.0, 
                    "tot_orphaned": 0.0, 
                    "tot_risk": 100.0
                }
            }, 
            "tot_knowledge": 1000.0, 
            "tot_orphaned": 0.0, 
            "tot_risk": 100.0
        }, 
        {
            "author_risks": {
                "Jordon Bedwell": {
                    "tot_knowledge": 1000.0, 
                    "tot_orphaned": 0.0, 
                    "tot_risk": 100.0
                }
            }, 
            "tot_knowledge": 1000.0, 
            "tot_orphaned": 0.0, 
            "tot_risk": 100.0
        }, 
        {
            "author_risks": {
                "Jordon Bedwell": {
                    "tot_knowledge": 1000.0, 
                    "tot_orphaned": 0.0, 
                    "tot_risk": 100.0
                }
            }, 
            "tot_knowledge": 1000.0, 
            "tot_orphaned": 0.0, 
            "tot_risk": 100.0
        }, 
        {
            "author_risks": {
                "Jordon Bedwell": {
                    "tot_knowledge": 1000.0, 
                    "tot_orphaned": 0.0, 
                    "tot_risk": 100.0
                }
            }, 
            "tot_knowledge": 1000.0, 
            "tot_orphaned": 0.0, 
            "tot_risk": 100.0
        }
    ], 
    "tot_orphaned": 0.0, 
    "author_risks": {
        "Jordon Bedwell\nParker Moore": {
            "tot_knowledge": 3787.2377622377626, 
            "tot_orphaned": 0.0, 
            "tot_risk": 37.87237762237763
        }, 
        "Parker Moore\nPat Hawks": {
            "tot_knowledge": 152.09790209790208, 
            "tot_orphaned": 0.0, 
            "tot_risk": 1.520979020979021
        }, 
        "Ashwin Maroli": {
            "tot_knowledge": 1100.0, 
            "tot_orphaned": 0.0, 
            "tot_risk": 110.0
        }, 
        "Jordon Bedwell\nPat Hawks": {
            "tot_knowledge": 14074.825174825175, 
            "tot_orphaned": 0.0, 
            "tot_risk": 140.74825174825176
        }, 
        "Jason Graham\nTom Bell": {
            "tot_knowledge": 47.2027972027972, 
            "tot_orphaned": 0.0, 
            "tot_risk": 0.47202797202797214
        }, 
        "Jason Graham\nJordon Bedwell": {
            "tot_knowledge": 1159.0909090909092, 
            "tot_orphaned": 0.0, 
            "tot_risk": 11.590909090909093
        }, 
        "Tom Bell\nTom Preston-Werner": {
            "tot_knowledge": 6.293706293706295, 
            "tot_orphaned": 0.0, 
            "tot_risk": 0.06293706293706296
        }, 
        "Paul Robert Lloyd": {
            "tot_knowledge": 3318.181818181818, 
            "tot_orphaned": 0.0, 
            "tot_risk": 331.8181818181818
        }, 
        "Pat Hawks": {
            "tot_knowledge": 5961.538461538461, 
            "tot_orphaned": 0.0, 
            "tot_risk": 596.1538461538462
        }, 
        "Parker Moore\nmaul.esel": {
            "tot_knowledge": 276.9230769230769, 
            "tot_orphaned": 0.0, 
            "tot_risk": 2.76923076923077
        }, 
        "Alfred Xing\nJason Graham": {
            "tot_knowledge": 163.63636363636363, 
            "tot_orphaned": 0.0, 
            "tot_risk": 1.6363636363636367
        }, 
        "Jordon Bedwell\nTom Preston-Werner": {
            "tot_knowledge": 20.454545454545453, 
            "tot_orphaned": 0.0, 
            "tot_risk": 0.20454545454545459
        }, 
        "Pat Hawks\nSaleem Rashid": {
            "tot_knowledge": 900.0, 
            "tot_orphaned": 0.0, 
            "tot_risk": 9.000000000000002
        }, 
        "Pat Hawks\nPaul Robert Lloyd": {
            "tot_knowledge": 81.81818181818183, 
            "tot_orphaned": 0.0, 
            "tot_risk": 0.8181818181818185
        }, 
        "Jordon Bedwell\nmaul.esel": {
            "tot_knowledge": 7655.7692307692305, 
            "tot_orphaned": 0.0, 
            "tot_risk": 76.55769230769232
        }, 
        "Tom Bell": {
            "tot_knowledge": 2812.237762237762, 
            "tot_orphaned": 0.0, 
            "tot_risk": 281.2237762237762
        }, 
        "Jason Graham\nmaul.esel": {
            "tot_knowledge": 24.650349650349646, 
            "tot_orphaned": 0.0, 
            "tot_risk": 0.24650349650349654
        }, 
        "Jordon Bedwell\nTom Bell": {
            "tot_knowledge": 13.63636363636363, 
            "tot_orphaned": 0.0, 
            "tot_risk": 0.13636363636363633
        }, 
        "Alfred Xing\nJordon Bedwell": {
            "tot_knowledge": 81.81818181818183, 
            "tot_orphaned": 0.0, 
            "tot_risk": 0.8181818181818185
        }, 
        "Alfred Xing": {
            "tot_knowledge": 18.181818181818173, 
            "tot_orphaned": 0.0, 
            "tot_risk": 1.8181818181818175
        }, 
        "Florian Thomas": {
            "tot_knowledge": 6000.0, 
            "tot_orphaned": 0.0, 
            "tot_risk": 600.0
        }, 
        "Parker Moore\nPaul Robert Lloyd": {
            "tot_knowledge": 900.0, 
            "tot_orphaned": 0.0, 
            "tot_risk": 9.000000000000002
        }, 
        "Jason Graham\nTom Preston-Werner": {
            "tot_knowledge": 1239.8601398601397, 
            "tot_orphaned": 0.0, 
            "tot_risk": 12.398601398601402
        }, 
        "Jordon Bedwell\nPaul Robert Lloyd": {
            "tot_knowledge": 1963.6363636363635, 
            "tot_orphaned": 0.0, 
            "tot_risk": 19.63636363636364
        }, 
        "Jason Graham\nPat Hawks": {
            "tot_knowledge": 4745.454545454546, 
            "tot_orphaned": 0.0, 
            "tot_risk": 47.45454545454546
        }, 
        "Tom Bell\nmaul.esel": {
            "tot_knowledge": 43.53146853146854, 
            "tot_orphaned": 0.0, 
            "tot_risk": 0.43531468531468553
        }, 
        "Parker Moore\nTom Bell": {
            "tot_knowledge": -2682.6923076923076, 
            "tot_orphaned": 0.0, 
            "tot_risk": -26.82692307692308
        }, 
        "null": {
            "tot_knowledge": null, 
            "tot_orphaned": null, 
            "tot_risk": null
        }, 
        "Saleem Rashid": {
            "tot_knowledge": 100.0, 
            "tot_orphaned": 0.0, 
            "tot_risk": 10.0
        }, 
        "maul.esel": {
            "tot_knowledge": 10902.622377622378, 
            "tot_orphaned": 0.0, 
            "tot_risk": 1090.2622377622379
        }, 
        "Pat Hawks\nmaul.esel": {
            "tot_knowledge": 56.64335664335663, 
            "tot_orphaned": 0.0, 
            "tot_risk": 0.5664335664335665
        }, 
        "Git by a Bus Safe Author": {
            "tot_knowledge": 10228.846153846152, 
            "tot_orphaned": 0.0, 
            "tot_risk": 10.228846153846156
        }, 
        "Parker Moore\nTom Preston-Werner": {
            "tot_knowledge": 3.146853146853145, 
            "tot_orphaned": 0.0, 
            "tot_risk": 0.03146853146853146
        }, 
        "Tom Preston-Werner\nmaul.esel": {
            "tot_knowledge": 45.1048951048951, 
            "tot_orphaned": 0.0, 
            "tot_risk": 0.45104895104895115
        }, 
        "Jason Graham\nParker Moore": {
            "tot_knowledge": 984.965034965035, 
            "tot_orphaned": 0.0, 
            "tot_risk": 9.849650349650352
        }, 
        "Parker Moore": {
            "tot_knowledge": 28504.545454545456, 
            "tot_orphaned": 0.0, 
            "tot_risk": 2850.4545454545455
        }, 
        "Jason Graham": {
            "tot_knowledge": 6796.853146853146, 
            "tot_orphaned": 0.0, 
            "tot_risk": 679.6853146853148
        }, 
        "Tom Preston-Werner": {
            "tot_knowledge": 1142.3076923076924, 
            "tot_orphaned": 0.0, 
            "tot_risk": 114.23076923076923
        }, 
        "Jordon Bedwell": {
            "tot_knowledge": 49292.30769230769, 
            "tot_orphaned": 0.0, 
            "tot_risk": 4929.2307692307695
        }, 
        "Pat Hawks\nTom Preston-Werner": {
            "tot_knowledge": 177.27272727272728, 
            "tot_orphaned": 0.0, 
            "tot_risk": 1.7727272727272732
        }
    }, 
    "tot_knowledge": 162100.0
}