{
    "name": "doctor.rb", 
    "tot_risk": 15375.008741258742, 
    "lines": [
        {
            "author_risks": {
                "Parker Moore": {
                    "tot_knowledge": 1000.0, 
                    "tot_orphaned": 0.0, 
                    "tot_risk": 100.0
                }
            }, 
            "tot_knowledge": 1000.0, 
            "tot_orphaned": 0.0, 
            "tot_risk": 100.0
        }, 
        {
            "author_risks": {
                "Parker Moore": {
                    "tot_knowledge": 1000.0, 
                    "tot_orphaned": 0.0, 
                    "tot_risk": 100.0
                }
            }, 
            "tot_knowledge": 1000.0, 
            "tot_orphaned": 0.0, 
            "tot_risk": 100.0
        }, 
        {
            "author_risks": {
                "Pat Hawks": {
                    "tot_knowledge": 1000.0, 
                    "tot_orphaned": 0.0, 
                    "tot_risk": 100.0
                }
            }, 
            "tot_knowledge": 1000.0, 
            "tot_orphaned": 0.0, 
            "tot_risk": 100.0
        }, 
        {
            "author_risks": {
                "Pat Hawks": {
                    "tot_knowledge": 1000.0, 
                    "tot_orphaned": 0.0, 
                    "tot_risk": 100.0
                }
            }, 
            "tot_knowledge": 1000.0, 
            "tot_orphaned": 0.0, 
            "tot_risk": 100.0
        }, 
        {
            "author_risks": {
                "Parker Moore": {
                    "tot_knowledge": 1000.0, 
                    "tot_orphaned": 0.0, 
                    "tot_risk": 100.0
                }
            }, 
            "tot_knowledge": 1000.0, 
            "tot_orphaned": 0.0, 
            "tot_risk": 100.0
        }, 
        {
            "author_risks": {
                "Parker Moore": {
                    "tot_knowledge": 1000.0, 
                    "tot_orphaned": 0.0, 
                    "tot_risk": 100.0
                }
            }, 
            "tot_knowledge": 1000.0, 
            "tot_orphaned": 0.0, 
            "tot_risk": 100.0
        }, 
        {
            "author_risks": {
                "Parker Moore": {
                    "tot_knowledge": 1000.0, 
                    "tot_orphaned": 0.0, 
                    "tot_risk": 100.0
                }
            }, 
            "tot_knowledge": 1000.0, 
            "tot_orphaned": 0.0, 
            "tot_risk": 100.0
        }, 
        {
            "author_risks": {
                "Parker Moore": {
                    "tot_knowledge": 1000.0, 
                    "tot_orphaned": 0.0, 
                    "tot_risk": 100.0
                }
            }, 
            "tot_knowledge": 1000.0, 
            "tot_orphaned": 0.0, 
            "tot_risk": 100.0
        }, 
        {
            "author_risks": {
                "Parker Moore": {
                    "tot_knowledge": 1000.0, 
                    "tot_orphaned": 0.0, 
                    "tot_risk": 100.0
                }
            }, 
            "tot_knowledge": 1000.0, 
            "tot_orphaned": 0.0, 
            "tot_risk": 100.0
        }, 
        {
            "author_risks": {
                "Parker Moore": {
                    "tot_knowledge": 1000.0, 
                    "tot_orphaned": 0.0, 
                    "tot_risk": 100.0
                }
            }, 
            "tot_knowledge": 1000.0, 
            "tot_orphaned": 0.0, 
            "tot_risk": 100.0
        }, 
        {
            "author_risks": {
                "TheLucasMoore": {
                    "tot_knowledge": 100.0, 
                    "tot_orphaned": 0.0, 
                    "tot_risk": 10.0
                }, 
                "Parker Moore\nTheLucasMoore": {
                    "tot_knowledge": 900.0, 
                    "tot_orphaned": 0.0, 
                    "tot_risk": 9.000000000000002
                }, 
                "Parker Moore": {
                    "tot_knowledge": 100.0, 
                    "tot_orphaned": 0.0, 
                    "tot_risk": 10.0
                }
            }, 
            "tot_knowledge": 1100.0, 
            "tot_orphaned": 0.0, 
            "tot_risk": 29.0
        }, 
        {
            "author_risks": {
                "TheLucasMoore": {
                    "tot_knowledge": 100.0, 
                    "tot_orphaned": 0.0, 
                    "tot_risk": 10.0
                }, 
                "Parker Moore\nTheLucasMoore": {
                    "tot_knowledge": 900.0, 
                    "tot_orphaned": 0.0, 
                    "tot_risk": 9.000000000000002
                }, 
                "Parker Moore": {
                    "tot_knowledge": 100.0, 
                    "tot_orphaned": 0.0, 
                    "tot_risk": 10.0
                }
            }, 
            "tot_knowledge": 1100.0, 
            "tot_orphaned": 0.0, 
            "tot_risk": 29.0
        }, 
        {
            "author_risks": {
                "Parker Moore": {
                    "tot_knowledge": 1000.0, 
                    "tot_orphaned": 0.0, 
                    "tot_risk": 100.0
                }
            }, 
            "tot_knowledge": 1000.0, 
            "tot_orphaned": 0.0, 
            "tot_risk": 100.0
        }, 
        {
            "author_risks": {
                "Parker Moore": {
                    "tot_knowledge": 1000.0, 
                    "tot_orphaned": 0.0, 
                    "tot_risk": 100.0
                }
            }, 
            "tot_knowledge": 1000.0, 
            "tot_orphaned": 0.0, 
            "tot_risk": 100.0
        }, 
        {
            "author_risks": {
                "TheLucasMoore": {
                    "tot_knowledge": 100.0, 
                    "tot_orphaned": 0.0, 
                    "tot_risk": 10.0
                }, 
                "Parker Moore\nTheLucasMoore": {
                    "tot_knowledge": 900.0, 
                    "tot_orphaned": 0.0, 
                    "tot_risk": 9.000000000000002
                }, 
                "Parker Moore": {
                    "tot_knowledge": 200.0, 
                    "tot_orphaned": 0.0, 
                    "tot_risk": 20.0
                }
            }, 
            "tot_knowledge": 1200.0, 
            "tot_orphaned": 0.0, 
            "tot_risk": 39.0
        }, 
        {
            "author_risks": {
                "TheLucasMoore": {
                    "tot_knowledge": 1000.0, 
                    "tot_orphaned": 0.0, 
                    "tot_risk": 100.0
                }
            }, 
            "tot_knowledge": 1000.0, 
            "tot_orphaned": 0.0, 
            "tot_risk": 100.0
        }, 
        {
            "author_risks": {
                "Parker Moore": {
                    "tot_knowledge": 1000.0, 
                    "tot_orphaned": 0.0, 
                    "tot_risk": 100.0
                }
            }, 
            "tot_knowledge": 1000.0, 
            "tot_orphaned": 0.0, 
            "tot_risk": 100.0
        }, 
        {
            "author_risks": {
                "Pat Hawks": {
                    "tot_knowledge": 100.0, 
                    "tot_orphaned": 0.0, 
                    "tot_risk": 10.0
                }, 
                "Parker Moore\nPat Hawks": {
                    "tot_knowledge": 900.0, 
                    "tot_orphaned": 0.0, 
                    "tot_risk": 9.000000000000002
                }, 
                "Parker Moore": {
                    "tot_knowledge": 100.0, 
                    "tot_orphaned": 0.0, 
                    "tot_risk": 10.0
                }
            }, 
            "tot_knowledge": 1100.0, 
            "tot_orphaned": 0.0, 
            "tot_risk": 29.0
        }, 
        {
            "author_risks": {
                "Parker Moore": {
                    "tot_knowledge": 1000.0, 
                    "tot_orphaned": 0.0, 
                    "tot_risk": 100.0
                }
            }, 
            "tot_knowledge": 1000.0, 
            "tot_orphaned": 0.0, 
            "tot_risk": 100.0
        }, 
        {
            "author_risks": {
                "Parker Moore": {
                    "tot_knowledge": 1000.0, 
                    "tot_orphaned": 0.0, 
                    "tot_risk": 100.0
                }
            }, 
            "tot_knowledge": 1000.0, 
            "tot_orphaned": 0.0, 
            "tot_risk": 100.0
        }, 
        {
            "author_risks": {
                "Parker Moore": {
                    "tot_knowledge": 1000.0, 
                    "tot_orphaned": 0.0, 
                    "tot_risk": 100.0
                }
            }, 
            "tot_knowledge": 1000.0, 
            "tot_orphaned": 0.0, 
            "tot_risk": 100.0
        }, 
        {
            "author_risks": {
                "Parker Moore": {
                    "tot_knowledge": 1000.0, 
                    "tot_orphaned": 0.0, 
                    "tot_risk": 100.0
                }
            }, 
            "tot_knowledge": 1000.0, 
            "tot_orphaned": 0.0, 
            "tot_risk": 100.0
        }, 
        {
            "author_risks": {
                "Parker Moore": {
                    "tot_knowledge": 1000.0, 
                    "tot_orphaned": 0.0, 
                    "tot_risk": 100.0
                }
            }, 
            "tot_knowledge": 1000.0, 
            "tot_orphaned": 0.0, 
            "tot_risk": 100.0
        }, 
        {
            "author_risks": {
                "Parker Moore": {
                    "tot_knowledge": 1000.0, 
                    "tot_orphaned": 0.0, 
                    "tot_risk": 100.0
                }
            }, 
            "tot_knowledge": 1000.0, 
            "tot_orphaned": 0.0, 
            "tot_risk": 100.0
        }, 
        {
            "author_risks": {
                "Parker Moore": {
                    "tot_knowledge": 1100.0, 
                    "tot_orphaned": 0.0, 
                    "tot_risk": 110.0
                }
            }, 
            "tot_knowledge": 1100.0, 
            "tot_orphaned": 0.0, 
            "tot_risk": 110.0
        }, 
        {
            "author_risks": {
                "Parker Moore": {
                    "tot_knowledge": 1000.0, 
                    "tot_orphaned": 0.0, 
                    "tot_risk": 100.0
                }
            }, 
            "tot_knowledge": 1000.0, 
            "tot_orphaned": 0.0, 
            "tot_risk": 100.0
        }, 
        {
            "author_risks": {
                "Parker Moore": {
                    "tot_knowledge": 1000.0, 
                    "tot_orphaned": 0.0, 
                    "tot_risk": 100.0
                }
            }, 
            "tot_knowledge": 1000.0, 
            "tot_orphaned": 0.0, 
            "tot_risk": 100.0
        }, 
        {
            "author_risks": {
                "Parker Moore": {
                    "tot_knowledge": 1000.0, 
                    "tot_orphaned": 0.0, 
                    "tot_risk": 100.0
                }
            }, 
            "tot_knowledge": 1000.0, 
            "tot_orphaned": 0.0, 
            "tot_risk": 100.0
        }, 
        {
            "author_risks": {
                "Parker Moore": {
                    "tot_knowledge": 1000.0, 
                    "tot_orphaned": 0.0, 
                    "tot_risk": 100.0
                }
            }, 
            "tot_knowledge": 1000.0, 
            "tot_orphaned": 0.0, 
            "tot_risk": 100.0
        }, 
        {
            "author_risks": {
                "Parker Moore": {
                    "tot_knowledge": 1400.0, 
                    "tot_orphaned": 0.0, 
                    "tot_risk": 140.0
                }
            }, 
            "tot_knowledge": 1400.0, 
            "tot_orphaned": 0.0, 
            "tot_risk": 140.0
        }, 
        {
            "author_risks": {
                "Parker Moore": {
                    "tot_knowledge": 1200.0, 
                    "tot_orphaned": 0.0, 
                    "tot_risk": 120.0
                }
            }, 
            "tot_knowledge": 1200.0, 
            "tot_orphaned": 0.0, 
            "tot_risk": 120.0
        }, 
        {
            "author_risks": {
                "Parker Moore": {
                    "tot_knowledge": 1000.0, 
                    "tot_orphaned": 0.0, 
                    "tot_risk": 100.0
                }
            }, 
            "tot_knowledge": 1000.0, 
            "tot_orphaned": 0.0, 
            "tot_risk": 100.0
        }, 
        {
            "author_risks": {
                "Parker Moore": {
                    "tot_knowledge": 1000.0, 
                    "tot_orphaned": 0.0, 
                    "tot_risk": 100.0
                }
            }, 
            "tot_knowledge": 1000.0, 
            "tot_orphaned": 0.0, 
            "tot_risk": 100.0
        }, 
        {
            "author_risks": {
                "Parker Moore": {
                    "tot_knowledge": 1000.0, 
                    "tot_orphaned": 0.0, 
                    "tot_risk": 100.0
                }
            }, 
            "tot_knowledge": 1000.0, 
            "tot_orphaned": 0.0, 
            "tot_risk": 100.0
        }, 
        {
            "author_risks": {
                "Parker Moore": {
                    "tot_knowledge": 1000.0, 
                    "tot_orphaned": 0.0, 
                    "tot_risk": 100.0
                }
            }, 
            "tot_knowledge": 1000.0, 
            "tot_orphaned": 0.0, 
            "tot_risk": 100.0
        }, 
        {
            "author_risks": {
                "Parker Moore": {
                    "tot_knowledge": 1000.0, 
                    "tot_orphaned": 0.0, 
                    "tot_risk": 100.0
                }
            }, 
            "tot_knowledge": 1000.0, 
            "tot_orphaned": 0.0, 
            "tot_risk": 100.0
        }, 
        {
            "author_risks": {
                "Parker Moore": {
                    "tot_knowledge": 1100.0, 
                    "tot_orphaned": 0.0, 
                    "tot_risk": 110.0
                }
            }, 
            "tot_knowledge": 1100.0, 
            "tot_orphaned": 0.0, 
            "tot_risk": 110.0
        }, 
        {
            "author_risks": {
                "Parker Moore": {
                    "tot_knowledge": 1000.0, 
                    "tot_orphaned": 0.0, 
                    "tot_risk": 100.0
                }
            }, 
            "tot_knowledge": 1000.0, 
            "tot_orphaned": 0.0, 
            "tot_risk": 100.0
        }, 
        {
            "author_risks": {
                "Jordon Bedwell": {
                    "tot_knowledge": 1000.0, 
                    "tot_orphaned": 0.0, 
                    "tot_risk": 100.0
                }
            }, 
            "tot_knowledge": 1000.0, 
            "tot_orphaned": 0.0, 
            "tot_risk": 100.0
        }, 
        {
            "author_risks": {
                "Parker Moore": {
                    "tot_knowledge": 1100.0, 
                    "tot_orphaned": 0.0, 
                    "tot_risk": 110.0
                }
            }, 
            "tot_knowledge": 1100.0, 
            "tot_orphaned": 0.0, 
            "tot_risk": 110.0
        }, 
        {
            "author_risks": {
                "Alexander K\u00f6plinger\nParker Moore": {
                    "tot_knowledge": 900.0, 
                    "tot_orphaned": 0.0, 
                    "tot_risk": 9.000000000000002
                }, 
                "Parker Moore": {
                    "tot_knowledge": 200.0, 
                    "tot_orphaned": 0.0, 
                    "tot_risk": 20.0
                }, 
                "Alexander K\u00f6plinger": {
                    "tot_knowledge": 100.0, 
                    "tot_orphaned": 0.0, 
                    "tot_risk": 10.0
                }
            }, 
            "tot_knowledge": 1200.0, 
            "tot_orphaned": 0.0, 
            "tot_risk": 39.0
        }, 
        {
            "author_risks": {
                "Alexander K\u00f6plinger\nPat Hawks": {
                    "tot_knowledge": 900.0, 
                    "tot_orphaned": 0.0, 
                    "tot_risk": 9.000000000000002
                }, 
                "Pat Hawks": {
                    "tot_knowledge": 100.0, 
                    "tot_orphaned": 0.0, 
                    "tot_risk": 10.0
                }, 
                "Alexander K\u00f6plinger": {
                    "tot_knowledge": 100.0, 
                    "tot_orphaned": 0.0, 
                    "tot_risk": 10.0
                }
            }, 
            "tot_knowledge": 1100.0, 
            "tot_orphaned": 0.0, 
            "tot_risk": 29.0
        }, 
        {
            "author_risks": {
                "Pat Hawks": {
                    "tot_knowledge": 1000.0, 
                    "tot_orphaned": 0.0, 
                    "tot_risk": 100.0
                }
            }, 
            "tot_knowledge": 1000.0, 
            "tot_orphaned": 0.0, 
            "tot_risk": 100.0
        }, 
        {
            "author_risks": {
                "ashmaroli": {
                    "tot_knowledge": 1000.0, 
                    "tot_orphaned": 0.0, 
                    "tot_risk": 100.0
                }
            }, 
            "tot_knowledge": 1000.0, 
            "tot_orphaned": 0.0, 
            "tot_risk": 100.0
        }, 
        {
            "author_risks": {
                "Parker Moore": {
                    "tot_knowledge": 1100.0, 
                    "tot_orphaned": 0.0, 
                    "tot_risk": 110.0
                }
            }, 
            "tot_knowledge": 1100.0, 
            "tot_orphaned": 0.0, 
            "tot_risk": 110.0
        }, 
        {
            "author_risks": {
                "Parker Moore": {
                    "tot_knowledge": 1000.0, 
                    "tot_orphaned": 0.0, 
                    "tot_risk": 100.0
                }
            }, 
            "tot_knowledge": 1000.0, 
            "tot_orphaned": 0.0, 
            "tot_risk": 100.0
        }, 
        {
            "author_risks": {
                "Parker Moore": {
                    "tot_knowledge": 1000.0, 
                    "tot_orphaned": 0.0, 
                    "tot_risk": 100.0
                }
            }, 
            "tot_knowledge": 1000.0, 
            "tot_orphaned": 0.0, 
            "tot_risk": 100.0
        }, 
        {
            "author_risks": {
                "ashmaroli": {
                    "tot_knowledge": 1000.0, 
                    "tot_orphaned": 0.0, 
                    "tot_risk": 100.0
                }
            }, 
            "tot_knowledge": 1000.0, 
            "tot_orphaned": 0.0, 
            "tot_risk": 100.0
        }, 
        {
            "author_risks": {
                "ashmaroli": {
                    "tot_knowledge": 1000.0, 
                    "tot_orphaned": 0.0, 
                    "tot_risk": 100.0
                }
            }, 
            "tot_knowledge": 1000.0, 
            "tot_orphaned": 0.0, 
            "tot_risk": 100.0
        }, 
        {
            "author_risks": {
                "ashmaroli": {
                    "tot_knowledge": 1000.0, 
                    "tot_orphaned": 0.0, 
                    "tot_risk": 100.0
                }
            }, 
            "tot_knowledge": 1000.0, 
            "tot_orphaned": 0.0, 
            "tot_risk": 100.0
        }, 
        {
            "author_risks": {
                "ashmaroli": {
                    "tot_knowledge": 1000.0, 
                    "tot_orphaned": 0.0, 
                    "tot_risk": 100.0
                }
            }, 
            "tot_knowledge": 1000.0, 
            "tot_orphaned": 0.0, 
            "tot_risk": 100.0
        }, 
        {
            "author_risks": {
                "ashmaroli": {
                    "tot_knowledge": 1000.0, 
                    "tot_orphaned": 0.0, 
                    "tot_risk": 100.0
                }
            }, 
            "tot_knowledge": 1000.0, 
            "tot_orphaned": 0.0, 
            "tot_risk": 100.0
        }, 
        {
            "author_risks": {
                "ashmaroli": {
                    "tot_knowledge": 1000.0, 
                    "tot_orphaned": 0.0, 
                    "tot_risk": 100.0
                }
            }, 
            "tot_knowledge": 1000.0, 
            "tot_orphaned": 0.0, 
            "tot_risk": 100.0
        }, 
        {
            "author_risks": {
                "ashmaroli": {
                    "tot_knowledge": 1000.0, 
                    "tot_orphaned": 0.0, 
                    "tot_risk": 100.0
                }
            }, 
            "tot_knowledge": 1000.0, 
            "tot_orphaned": 0.0, 
            "tot_risk": 100.0
        }, 
        {
            "author_risks": {
                "ashmaroli": {
                    "tot_knowledge": 1000.0, 
                    "tot_orphaned": 0.0, 
                    "tot_risk": 100.0
                }
            }, 
            "tot_knowledge": 1000.0, 
            "tot_orphaned": 0.0, 
            "tot_risk": 100.0
        }, 
        {
            "author_risks": {
                "ashmaroli": {
                    "tot_knowledge": 1000.0, 
                    "tot_orphaned": 0.0, 
                    "tot_risk": 100.0
                }
            }, 
            "tot_knowledge": 1000.0, 
            "tot_orphaned": 0.0, 
            "tot_risk": 100.0
        }, 
        {
            "author_risks": {
                "ashmaroli": {
                    "tot_knowledge": 1000.0, 
                    "tot_orphaned": 0.0, 
                    "tot_risk": 100.0
                }
            }, 
            "tot_knowledge": 1000.0, 
            "tot_orphaned": 0.0, 
            "tot_risk": 100.0
        }, 
        {
            "author_risks": {
                "ashmaroli": {
                    "tot_knowledge": 1000.0, 
                    "tot_orphaned": 0.0, 
                    "tot_risk": 100.0
                }
            }, 
            "tot_knowledge": 1000.0, 
            "tot_orphaned": 0.0, 
            "tot_risk": 100.0
        }, 
        {
            "author_risks": {
                "ashmaroli": {
                    "tot_knowledge": 1000.0, 
                    "tot_orphaned": 0.0, 
                    "tot_risk": 100.0
                }
            }, 
            "tot_knowledge": 1000.0, 
            "tot_orphaned": 0.0, 
            "tot_risk": 100.0
        }, 
        {
            "author_risks": {
                "Alfred Xing\nParker Moore": {
                    "tot_knowledge": 900.0, 
                    "tot_orphaned": 0.0, 
                    "tot_risk": 9.000000000000002
                }, 
                "Alfred Xing": {
                    "tot_knowledge": 100.0, 
                    "tot_orphaned": 0.0, 
                    "tot_risk": 10.0
                }, 
                "Parker Moore": {
                    "tot_knowledge": 200.0, 
                    "tot_orphaned": 0.0, 
                    "tot_risk": 20.0
                }
            }, 
            "tot_knowledge": 1200.0, 
            "tot_orphaned": 0.0, 
            "tot_risk": 39.0
        }, 
        {
            "author_risks": {
                "TheLucasMoore": {
                    "tot_knowledge": 100.0, 
                    "tot_orphaned": 0.0, 
                    "tot_risk": 10.0
                }, 
                "Alfred Xing\nParker Moore": {
                    "tot_knowledge": 163.63636363636363, 
                    "tot_orphaned": 0.0, 
                    "tot_risk": 1.6363636363636367
                }, 
                "Git by a Bus Safe Author": {
                    "tot_knowledge": 736.3636363636364, 
                    "tot_orphaned": 0.0, 
                    "tot_risk": 0.7363636363636366
                }, 
                "Parker Moore\nTheLucasMoore": {
                    "tot_knowledge": 81.81818181818183, 
                    "tot_orphaned": 0.0, 
                    "tot_risk": 0.8181818181818185
                }, 
                "Parker Moore": {
                    "tot_knowledge": 18.181818181818173, 
                    "tot_orphaned": 0.0, 
                    "tot_risk": 1.8181818181818175
                }, 
                "Alfred Xing": {
                    "tot_knowledge": 18.181818181818173, 
                    "tot_orphaned": 0.0, 
                    "tot_risk": 1.8181818181818175
                }, 
                "Alfred Xing\nTheLucasMoore": {
                    "tot_knowledge": 81.81818181818183, 
                    "tot_orphaned": 0.0, 
                    "tot_risk": 0.8181818181818185
                }
            }, 
            "tot_knowledge": 1200.0, 
            "tot_orphaned": 0.0, 
            "tot_risk": 17.645454545454545
        }, 
        {
            "author_risks": {
                "Alfred Xing\nParker Moore": {
                    "tot_knowledge": 163.63636363636363, 
                    "tot_orphaned": 0.0, 
                    "tot_risk": 1.6363636363636367
                }, 
                "Parker Moore\nPat Hawks": {
                    "tot_knowledge": 81.81818181818183, 
                    "tot_orphaned": 0.0, 
                    "tot_risk": 0.8181818181818185
                }, 
                "Git by a Bus Safe Author": {
                    "tot_knowledge": 736.3636363636364, 
                    "tot_orphaned": 0.0, 
                    "tot_risk": 0.7363636363636366
                }, 
                "Alfred Xing\nPat Hawks": {
                    "tot_knowledge": 81.81818181818183, 
                    "tot_orphaned": 0.0, 
                    "tot_risk": 0.8181818181818185
                }, 
                "Pat Hawks": {
                    "tot_knowledge": 100.0, 
                    "tot_orphaned": 0.0, 
                    "tot_risk": 10.0
                }, 
                "Parker Moore": {
                    "tot_knowledge": 18.181818181818173, 
                    "tot_orphaned": 0.0, 
                    "tot_risk": 1.8181818181818175
                }, 
                "Alfred Xing": {
                    "tot_knowledge": 18.181818181818173, 
                    "tot_orphaned": 0.0, 
                    "tot_risk": 1.8181818181818175
                }
            }, 
            "tot_knowledge": 1200.0, 
            "tot_orphaned": 0.0, 
            "tot_risk": 17.645454545454545
        }, 
        {
            "author_risks": {
                "Alfred Xing\nParker Moore": {
                    "tot_knowledge": 20.454545454545453, 
                    "tot_orphaned": 0.0, 
                    "tot_risk": 0.20454545454545459
                }, 
                "Parker Moore\nPat Hawks": {
                    "tot_knowledge": 13.63636363636363, 
                    "tot_orphaned": 0.0, 
                    "tot_risk": 0.13636363636363633
                }, 
                "Git by a Bus Safe Author": {
                    "tot_knowledge": 981.8181818181819, 
                    "tot_orphaned": 0.0, 
                    "tot_risk": 0.9818181818181821
                }, 
                "Joop Au\u00e9\nPat Hawks": {
                    "tot_knowledge": 13.63636363636363, 
                    "tot_orphaned": 0.0, 
                    "tot_risk": 0.13636363636363633
                }, 
                "Joop Au\u00e9": {
                    "tot_knowledge": 4.545454545454543, 
                    "tot_orphaned": 0.0, 
                    "tot_risk": 0.45454545454545436
                }, 
                "Alfred Xing\nPat Hawks": {
                    "tot_knowledge": 75.0, 
                    "tot_orphaned": 0.0, 
                    "tot_risk": 0.7500000000000001
                }, 
                "Pat Hawks": {
                    "tot_knowledge": 100.0, 
                    "tot_orphaned": 0.0, 
                    "tot_risk": 10.0
                }, 
                "Parker Moore": {
                    "tot_knowledge": 4.545454545454543, 
                    "tot_orphaned": 0.0, 
                    "tot_risk": 0.45454545454545436
                }, 
                "Alfred Xing\nJoop Au\u00e9": {
                    "tot_knowledge": 20.454545454545453, 
                    "tot_orphaned": 0.0, 
                    "tot_risk": 0.20454545454545459
                }, 
                "Alfred Xing": {
                    "tot_knowledge": 25.0, 
                    "tot_orphaned": 0.0, 
                    "tot_risk": 2.5
                }, 
                "Joop Au\u00e9\nParker Moore": {
                    "tot_knowledge": 40.90909090909091, 
                    "tot_orphaned": 0.0, 
                    "tot_risk": 0.40909090909090917
                }
            }, 
            "tot_knowledge": 1300.0000000000002, 
            "tot_orphaned": 0.0, 
            "tot_risk": 16.231818181818184
        }, 
        {
            "author_risks": {
                "Alfred Xing\nParker Moore": {
                    "tot_knowledge": 900.0, 
                    "tot_orphaned": 0.0, 
                    "tot_risk": 9.000000000000002
                }, 
                "Alfred Xing": {
                    "tot_knowledge": 100.0, 
                    "tot_orphaned": 0.0, 
                    "tot_risk": 10.0
                }, 
                "Parker Moore": {
                    "tot_knowledge": 300.0, 
                    "tot_orphaned": 0.0, 
                    "tot_risk": 30.0
                }
            }, 
            "tot_knowledge": 1300.0, 
            "tot_orphaned": 0.0, 
            "tot_risk": 49.0
        }, 
        {
            "author_risks": {
                "Parker Moore": {
                    "tot_knowledge": 1000.0, 
                    "tot_orphaned": 0.0, 
                    "tot_risk": 100.0
                }
            }, 
            "tot_knowledge": 1000.0, 
            "tot_orphaned": 0.0, 
            "tot_risk": 100.0
        }, 
        {
            "author_risks": {
                "Parker Moore": {
                    "tot_knowledge": 1000.0, 
                    "tot_orphaned": 0.0, 
                    "tot_risk": 100.0
                }
            }, 
            "tot_knowledge": 1000.0, 
            "tot_orphaned": 0.0, 
            "tot_risk": 100.0
        }, 
        {
            "author_risks": {
                "Parker Moore": {
                    "tot_knowledge": 1000.0, 
                    "tot_orphaned": 0.0, 
                    "tot_risk": 100.0
                }
            }, 
            "tot_knowledge": 1000.0, 
            "tot_orphaned": 0.0, 
            "tot_risk": 100.0
        }, 
        {
            "author_risks": {
                "Parker Moore": {
                    "tot_knowledge": 1000.0, 
                    "tot_orphaned": 0.0, 
                    "tot_risk": 100.0
                }
            }, 
            "tot_knowledge": 1000.0, 
            "tot_orphaned": 0.0, 
            "tot_risk": 100.0
        }, 
        {
            "author_risks": {
                "Parker Moore": {
                    "tot_knowledge": 1000.0, 
                    "tot_orphaned": 0.0, 
                    "tot_risk": 100.0
                }
            }, 
            "tot_knowledge": 1000.0, 
            "tot_orphaned": 0.0, 
            "tot_risk": 100.0
        }, 
        {
            "author_risks": {
                "Parker Moore": {
                    "tot_knowledge": 1000.0, 
                    "tot_orphaned": 0.0, 
                    "tot_risk": 100.0
                }
            }, 
            "tot_knowledge": 1000.0, 
            "tot_orphaned": 0.0, 
            "tot_risk": 100.0
        }, 
        {
            "author_risks": {
                "Parker Moore": {
                    "tot_knowledge": 1000.0, 
                    "tot_orphaned": 0.0, 
                    "tot_risk": 100.0
                }
            }, 
            "tot_knowledge": 1000.0, 
            "tot_orphaned": 0.0, 
            "tot_risk": 100.0
        }, 
        {
            "author_risks": {
                "chrisfinazzo": {
                    "tot_knowledge": 100.0, 
                    "tot_orphaned": 0.0, 
                    "tot_risk": 10.0
                }, 
                "Parker Moore\nchrisfinazzo": {
                    "tot_knowledge": 900.0, 
                    "tot_orphaned": 0.0, 
                    "tot_risk": 9.000000000000002
                }, 
                "Parker Moore": {
                    "tot_knowledge": 100.0, 
                    "tot_orphaned": 0.0, 
                    "tot_risk": 10.0
                }
            }, 
            "tot_knowledge": 1100.0, 
            "tot_orphaned": 0.0, 
            "tot_risk": 29.0
        }, 
        {
            "author_risks": {
                "Parker Moore": {
                    "tot_knowledge": 1000.0, 
                    "tot_orphaned": 0.0, 
                    "tot_risk": 100.0
                }
            }, 
            "tot_knowledge": 1000.0, 
            "tot_orphaned": 0.0, 
            "tot_risk": 100.0
        }, 
        {
            "author_risks": {
                "Pat Hawks": {
                    "tot_knowledge": 200.0, 
                    "tot_orphaned": 0.0, 
                    "tot_risk": 20.0
                }, 
                "Parker Moore\nPat Hawks": {
                    "tot_knowledge": 981.8181818181819, 
                    "tot_orphaned": 0.0, 
                    "tot_risk": 9.81818181818182
                }, 
                "Parker Moore": {
                    "tot_knowledge": 18.181818181818173, 
                    "tot_orphaned": 0.0, 
                    "tot_risk": 1.8181818181818175
                }
            }, 
            "tot_knowledge": 1200.0, 
            "tot_orphaned": 0.0, 
            "tot_risk": 31.636363636363637
        }, 
        {
            "author_risks": {
                "Pat Hawks": {
                    "tot_knowledge": 1000.0, 
                    "tot_orphaned": 0.0, 
                    "tot_risk": 100.0
                }
            }, 
            "tot_knowledge": 1000.0, 
            "tot_orphaned": 0.0, 
            "tot_risk": 100.0
        }, 
        {
            "author_risks": {
                "Parker Moore": {
                    "tot_knowledge": 1000.0, 
                    "tot_orphaned": 0.0, 
                    "tot_risk": 100.0
                }
            }, 
            "tot_knowledge": 1000.0, 
            "tot_orphaned": 0.0, 
            "tot_risk": 100.0
        }, 
        {
            "author_risks": {
                "Pat Hawks": {
                    "tot_knowledge": 100.0, 
                    "tot_orphaned": 0.0, 
                    "tot_risk": 10.0
                }, 
                "Parker Moore\nPat Hawks": {
                    "tot_knowledge": 900.0, 
                    "tot_orphaned": 0.0, 
                    "tot_risk": 9.000000000000002
                }, 
                "Parker Moore": {
                    "tot_knowledge": 100.0, 
                    "tot_orphaned": 0.0, 
                    "tot_risk": 10.0
                }
            }, 
            "tot_knowledge": 1100.0, 
            "tot_orphaned": 0.0, 
            "tot_risk": 29.0
        }, 
        {
            "author_risks": {
                "Parker Moore": {
                    "tot_knowledge": 1000.0, 
                    "tot_orphaned": 0.0, 
                    "tot_risk": 100.0
                }
            }, 
            "tot_knowledge": 1000.0, 
            "tot_orphaned": 0.0, 
            "tot_risk": 100.0
        }, 
        {
            "author_risks": {
                "Parker Moore": {
                    "tot_knowledge": 1000.0, 
                    "tot_orphaned": 0.0, 
                    "tot_risk": 100.0
                }
            }, 
            "tot_knowledge": 1000.0, 
            "tot_orphaned": 0.0, 
            "tot_risk": 100.0
        }, 
        {
            "author_risks": {
                "Parker Moore": {
                    "tot_knowledge": 1000.0, 
                    "tot_orphaned": 0.0, 
                    "tot_risk": 100.0
                }
            }, 
            "tot_knowledge": 1000.0, 
            "tot_orphaned": 0.0, 
            "tot_risk": 100.0
        }, 
        {
            "author_risks": {
                "Parker Moore": {
                    "tot_knowledge": 1000.0, 
                    "tot_orphaned": 0.0, 
                    "tot_risk": 100.0
                }
            }, 
            "tot_knowledge": 1000.0, 
            "tot_orphaned": 0.0, 
            "tot_risk": 100.0
        }, 
        {
            "author_risks": {
                "Jordon Bedwell": {
                    "tot_knowledge": 1000.0, 
                    "tot_orphaned": 0.0, 
                    "tot_risk": 100.0
                }
            }, 
            "tot_knowledge": 1000.0, 
            "tot_orphaned": 0.0, 
            "tot_risk": 100.0
        }, 
        {
            "author_risks": {
                "Jordon Bedwell": {
                    "tot_knowledge": 100.0, 
                    "tot_orphaned": 0.0, 
                    "tot_risk": 10.0
                }, 
                "Pat Hawks": {
                    "tot_knowledge": 100.0, 
                    "tot_orphaned": 0.0, 
                    "tot_risk": 10.0
                }, 
                "Jordon Bedwell\nPat Hawks": {
                    "tot_knowledge": 900.0, 
                    "tot_orphaned": 0.0, 
                    "tot_risk": 9.000000000000002
                }
            }, 
            "tot_knowledge": 1100.0, 
            "tot_orphaned": 0.0, 
            "tot_risk": 29.0
        }, 
        {
            "author_risks": {
                "Jordon Bedwell": {
                    "tot_knowledge": 100.0, 
                    "tot_orphaned": 0.0, 
                    "tot_risk": 10.0
                }, 
                "Pat Hawks": {
                    "tot_knowledge": 100.0, 
                    "tot_orphaned": 0.0, 
                    "tot_risk": 10.0
                }, 
                "Jordon Bedwell\nPat Hawks": {
                    "tot_knowledge": 900.0, 
                    "tot_orphaned": 0.0, 
                    "tot_risk": 9.000000000000002
                }
            }, 
            "tot_knowledge": 1100.0, 
            "tot_orphaned": 0.0, 
            "tot_risk": 29.0
        }, 
        {
            "author_risks": {
                "Jordon Bedwell": {
                    "tot_knowledge": 1000.0, 
                    "tot_orphaned": 0.0, 
                    "tot_risk": 100.0
                }
            }, 
            "tot_knowledge": 1000.0, 
            "tot_orphaned": 0.0, 
            "tot_risk": 100.0
        }, 
        {
            "author_risks": {
                "Jordon Bedwell": {
                    "tot_knowledge": 100.0, 
                    "tot_orphaned": 0.0, 
                    "tot_risk": 10.0
                }, 
                "Jordon Bedwell\nParker Moore": {
                    "tot_knowledge": 900.0, 
                    "tot_orphaned": 0.0, 
                    "tot_risk": 9.000000000000002
                }, 
                "Parker Moore": {
                    "tot_knowledge": 100.0, 
                    "tot_orphaned": 0.0, 
                    "tot_risk": 10.0
                }
            }, 
            "tot_knowledge": 1100.0, 
            "tot_orphaned": 0.0, 
            "tot_risk": 29.0
        }, 
        {
            "author_risks": {
                "Jordon Bedwell": {
                    "tot_knowledge": 1000.0, 
                    "tot_orphaned": 0.0, 
                    "tot_risk": 100.0
                }
            }, 
            "tot_knowledge": 1000.0, 
            "tot_orphaned": 0.0, 
            "tot_risk": 100.0
        }, 
        {
            "author_risks": {
                "Jordon Bedwell": {
                    "tot_knowledge": 1000.0, 
                    "tot_orphaned": 0.0, 
                    "tot_risk": 100.0
                }
            }, 
            "tot_knowledge": 1000.0, 
            "tot_orphaned": 0.0, 
            "tot_risk": 100.0
        }, 
        {
            "author_risks": {
                "Jordon Bedwell": {
                    "tot_knowledge": 1000.0, 
                    "tot_orphaned": 0.0, 
                    "tot_risk": 100.0
                }
            }, 
            "tot_knowledge": 1000.0, 
            "tot_orphaned": 0.0, 
            "tot_risk": 100.0
        }, 
        {
            "author_risks": {
                "Jordon Bedwell": {
                    "tot_knowledge": 1000.0, 
                    "tot_orphaned": 0.0, 
                    "tot_risk": 100.0
                }
            }, 
            "tot_knowledge": 1000.0, 
            "tot_orphaned": 0.0, 
            "tot_risk": 100.0
        }, 
        {
            "author_risks": {
                "Jordon Bedwell": {
                    "tot_knowledge": 1000.0, 
                    "tot_orphaned": 0.0, 
                    "tot_risk": 100.0
                }
            }, 
            "tot_knowledge": 1000.0, 
            "tot_orphaned": 0.0, 
            "tot_risk": 100.0
        }, 
        {
            "author_risks": {
                "Jordon Bedwell": {
                    "tot_knowledge": 1000.0, 
                    "tot_orphaned": 0.0, 
                    "tot_risk": 100.0
                }
            }, 
            "tot_knowledge": 1000.0, 
            "tot_orphaned": 0.0, 
            "tot_risk": 100.0
        }, 
        {
            "author_risks": {
                "Jordon Bedwell": {
                    "tot_knowledge": 1000.0, 
                    "tot_orphaned": 0.0, 
                    "tot_risk": 100.0
                }
            }, 
            "tot_knowledge": 1000.0, 
            "tot_orphaned": 0.0, 
            "tot_risk": 100.0
        }, 
        {
            "author_risks": {
                "Jordon Bedwell": {
                    "tot_knowledge": 1000.0, 
                    "tot_orphaned": 0.0, 
                    "tot_risk": 100.0
                }
            }, 
            "tot_knowledge": 1000.0, 
            "tot_orphaned": 0.0, 
            "tot_risk": 100.0
        }, 
        {
            "author_risks": {
                "Jordon Bedwell": {
                    "tot_knowledge": 1000.0, 
                    "tot_orphaned": 0.0, 
                    "tot_risk": 100.0
                }
            }, 
            "tot_knowledge": 1000.0, 
            "tot_orphaned": 0.0, 
            "tot_risk": 100.0
        }, 
        {
            "author_risks": {
                "Jordon Bedwell": {
                    "tot_knowledge": 1000.0, 
                    "tot_orphaned": 0.0, 
                    "tot_risk": 100.0
                }
            }, 
            "tot_knowledge": 1000.0, 
            "tot_orphaned": 0.0, 
            "tot_risk": 100.0
        }, 
        {
            "author_risks": {
                "Jordon Bedwell": {
                    "tot_knowledge": 1000.0, 
                    "tot_orphaned": 0.0, 
                    "tot_risk": 100.0
                }
            }, 
            "tot_knowledge": 1000.0, 
            "tot_orphaned": 0.0, 
            "tot_risk": 100.0
        }, 
        {
            "author_risks": {
                "Parker Moore": {
                    "tot_knowledge": 1000.0, 
                    "tot_orphaned": 0.0, 
                    "tot_risk": 100.0
                }
            }, 
            "tot_knowledge": 1000.0, 
            "tot_orphaned": 0.0, 
            "tot_risk": 100.0
        }, 
        {
            "author_risks": {
                "Alexander K\u00f6plinger": {
                    "tot_knowledge": 1000.0, 
                    "tot_orphaned": 0.0, 
                    "tot_risk": 100.0
                }
            }, 
            "tot_knowledge": 1000.0, 
            "tot_orphaned": 0.0, 
            "tot_risk": 100.0
        }, 
        {
            "author_risks": {
                "Alexander K\u00f6plinger": {
                    "tot_knowledge": 1100.0, 
                    "tot_orphaned": 0.0, 
                    "tot_risk": 110.0
                }
            }, 
            "tot_knowledge": 1100.0, 
            "tot_orphaned": 0.0, 
            "tot_risk": 110.0
        }, 
        {
            "author_risks": {
                "Alexander K\u00f6plinger": {
                    "tot_knowledge": 1000.0, 
                    "tot_orphaned": 0.0, 
                    "tot_risk": 100.0
                }
            }, 
            "tot_knowledge": 1000.0, 
            "tot_orphaned": 0.0, 
            "tot_risk": 100.0
        }, 
        {
            "author_risks": {
                "TheLucasMoore": {
                    "tot_knowledge": 30.769230769230774, 
                    "tot_orphaned": 0.0, 
                    "tot_risk": 3.0769230769230775
                }, 
                "Alexander K\u00f6plinger\nTheLucasMoore": {
                    "tot_knowledge": 4.195804195804193, 
                    "tot_orphaned": 0.0, 
                    "tot_risk": 0.04195804195804194
                }, 
                "Pat Hawks\nashmaroli": {
                    "tot_knowledge": 34.61538461538461, 
                    "tot_orphaned": 0.0, 
                    "tot_risk": 0.3461538461538462
                }, 
                "Alexander K\u00f6plinger\nashmaroli": {
                    "tot_knowledge": 3.1468531468531453, 
                    "tot_orphaned": 0.0, 
                    "tot_risk": 0.03146853146853146
                }, 
                "Git by a Bus Safe Author": {
                    "tot_knowledge": 1019.5804195804196, 
                    "tot_orphaned": 0.0, 
                    "tot_risk": 1.01958041958042
                }, 
                "ashmaroli": {
                    "tot_knowledge": 100.0, 
                    "tot_orphaned": 0.0, 
                    "tot_risk": 10.0
                }, 
                "TheLucasMoore\nashmaroli": {
                    "tot_knowledge": 69.23076923076923, 
                    "tot_orphaned": 0.0, 
                    "tot_risk": 0.6923076923076924
                }, 
                "Pat Hawks": {
                    "tot_knowledge": 15.384615384615387, 
                    "tot_orphaned": 0.0, 
                    "tot_risk": 1.5384615384615388
                }, 
                "Alexander K\u00f6plinger": {
                    "tot_knowledge": 1.3986013986013979, 
                    "tot_orphaned": 0.0, 
                    "tot_risk": 0.1398601398601398
                }, 
                "Alexander K\u00f6plinger\nPat Hawks": {
                    "tot_knowledge": 75.52447552447555, 
                    "tot_orphaned": 0.0, 
                    "tot_risk": 0.7552447552447557
                }, 
                "Pat Hawks\nTheLucasMoore": {
                    "tot_knowledge": 46.15384615384616, 
                    "tot_orphaned": 0.0, 
                    "tot_risk": 0.4615384615384617
                }
            }, 
            "tot_knowledge": 1400.0, 
            "tot_orphaned": 0.0, 
            "tot_risk": 18.103496503496505
        }, 
        {
            "author_risks": {
                "Pat Hawks": {
                    "tot_knowledge": 1000.0, 
                    "tot_orphaned": 0.0, 
                    "tot_risk": 100.0
                }
            }, 
            "tot_knowledge": 1000.0, 
            "tot_orphaned": 0.0, 
            "tot_risk": 100.0
        }, 
        {
            "author_risks": {
                "Alexander K\u00f6plinger": {
                    "tot_knowledge": 1000.0, 
                    "tot_orphaned": 0.0, 
                    "tot_risk": 100.0
                }
            }, 
            "tot_knowledge": 1000.0, 
            "tot_orphaned": 0.0, 
            "tot_risk": 100.0
        }, 
        {
            "author_risks": {
                "Alexander K\u00f6plinger\nPat Hawks": {
                    "tot_knowledge": 900.0, 
                    "tot_orphaned": 0.0, 
                    "tot_risk": 9.000000000000002
                }, 
                "Pat Hawks": {
                    "tot_knowledge": 100.0, 
                    "tot_orphaned": 0.0, 
                    "tot_risk": 10.0
                }, 
                "Alexander K\u00f6plinger": {
                    "tot_knowledge": 100.0, 
                    "tot_orphaned": 0.0, 
                    "tot_risk": 10.0
                }
            }, 
            "tot_knowledge": 1100.0, 
            "tot_orphaned": 0.0, 
            "tot_risk": 29.0
        }, 
        {
            "author_risks": {
                "Alexander K\u00f6plinger\nPat Hawks": {
                    "tot_knowledge": 900.0, 
                    "tot_orphaned": 0.0, 
                    "tot_risk": 9.000000000000002
                }, 
                "Pat Hawks": {
                    "tot_knowledge": 100.0, 
                    "tot_orphaned": 0.0, 
                    "tot_risk": 10.0
                }, 
                "Alexander K\u00f6plinger": {
                    "tot_knowledge": 100.0, 
                    "tot_orphaned": 0.0, 
                    "tot_risk": 10.0
                }
            }, 
            "tot_knowledge": 1100.0, 
            "tot_orphaned": 0.0, 
            "tot_risk": 29.0
        }, 
        {
            "author_risks": {
                "Alexander K\u00f6plinger": {
                    "tot_knowledge": 1000.0, 
                    "tot_orphaned": 0.0, 
                    "tot_risk": 100.0
                }
            }, 
            "tot_knowledge": 1000.0, 
            "tot_orphaned": 0.0, 
            "tot_risk": 100.0
        }, 
        {
            "author_risks": {
                "Alexander K\u00f6plinger": {
                    "tot_knowledge": 1000.0, 
                    "tot_orphaned": 0.0, 
                    "tot_risk": 100.0
                }
            }, 
            "tot_knowledge": 1000.0, 
            "tot_orphaned": 0.0, 
            "tot_risk": 100.0
        }, 
        {
            "author_risks": {
                "Alexander K\u00f6plinger": {
                    "tot_knowledge": 1000.0, 
                    "tot_orphaned": 0.0, 
                    "tot_risk": 100.0
                }
            }, 
            "tot_knowledge": 1000.0, 
            "tot_orphaned": 0.0, 
            "tot_risk": 100.0
        }, 
        {
            "author_risks": {
                "Alexander K\u00f6plinger": {
                    "tot_knowledge": 1000.0, 
                    "tot_orphaned": 0.0, 
                    "tot_risk": 100.0
                }
            }, 
            "tot_knowledge": 1000.0, 
            "tot_orphaned": 0.0, 
            "tot_risk": 100.0
        }, 
        {
            "author_risks": {
                "Parker Moore": {
                    "tot_knowledge": 1000.0, 
                    "tot_orphaned": 0.0, 
                    "tot_risk": 100.0
                }
            }, 
            "tot_knowledge": 1000.0, 
            "tot_orphaned": 0.0, 
            "tot_risk": 100.0
        }, 
        {
            "author_risks": {
                "Pat Hawks": {
                    "tot_knowledge": 1000.0, 
                    "tot_orphaned": 0.0, 
                    "tot_risk": 100.0
                }
            }, 
            "tot_knowledge": 1000.0, 
            "tot_orphaned": 0.0, 
            "tot_risk": 100.0
        }, 
        {
            "author_risks": {
                "Pat Hawks": {
                    "tot_knowledge": 1000.0, 
                    "tot_orphaned": 0.0, 
                    "tot_risk": 100.0
                }
            }, 
            "tot_knowledge": 1000.0, 
            "tot_orphaned": 0.0, 
            "tot_risk": 100.0
        }, 
        {
            "author_risks": {
                "Pat Hawks": {
                    "tot_knowledge": 1000.0, 
                    "tot_orphaned": 0.0, 
                    "tot_risk": 100.0
                }
            }, 
            "tot_knowledge": 1000.0, 
            "tot_orphaned": 0.0, 
            "tot_risk": 100.0
        }, 
        {
            "author_risks": {
                "Pat Hawks": {
                    "tot_knowledge": 1000.0, 
                    "tot_orphaned": 0.0, 
                    "tot_risk": 100.0
                }
            }, 
            "tot_knowledge": 1000.0, 
            "tot_orphaned": 0.0, 
            "tot_risk": 100.0
        }, 
        {
            "author_risks": {
                "Pat Hawks": {
                    "tot_knowledge": 1000.0, 
                    "tot_orphaned": 0.0, 
                    "tot_risk": 100.0
                }
            }, 
            "tot_knowledge": 1000.0, 
            "tot_orphaned": 0.0, 
            "tot_risk": 100.0
        }, 
        {
            "author_risks": {
                "Pat Hawks": {
                    "tot_knowledge": 1000.0, 
                    "tot_orphaned": 0.0, 
                    "tot_risk": 100.0
                }
            }, 
            "tot_knowledge": 1000.0, 
            "tot_orphaned": 0.0, 
            "tot_risk": 100.0
        }, 
        {
            "author_risks": {
                "Pat Hawks": {
                    "tot_knowledge": 1000.0, 
                    "tot_orphaned": 0.0, 
                    "tot_risk": 100.0
                }
            }, 
            "tot_knowledge": 1000.0, 
            "tot_orphaned": 0.0, 
            "tot_risk": 100.0
        }, 
        {
            "author_risks": {
                "Pat Hawks": {
                    "tot_knowledge": 1000.0, 
                    "tot_orphaned": 0.0, 
                    "tot_risk": 100.0
                }
            }, 
            "tot_knowledge": 1000.0, 
            "tot_orphaned": 0.0, 
            "tot_risk": 100.0
        }, 
        {
            "author_risks": {
                "Pat Hawks": {
                    "tot_knowledge": 1000.0, 
                    "tot_orphaned": 0.0, 
                    "tot_risk": 100.0
                }
            }, 
            "tot_knowledge": 1000.0, 
            "tot_orphaned": 0.0, 
            "tot_risk": 100.0
        }, 
        {
            "author_risks": {
                "Parker Moore": {
                    "tot_knowledge": 1000.0, 
                    "tot_orphaned": 0.0, 
                    "tot_risk": 100.0
                }
            }, 
            "tot_knowledge": 1000.0, 
            "tot_orphaned": 0.0, 
            "tot_risk": 100.0
        }, 
        {
            "author_risks": {
                "Parker Moore": {
                    "tot_knowledge": 1000.0, 
                    "tot_orphaned": 0.0, 
                    "tot_risk": 100.0
                }
            }, 
            "tot_knowledge": 1000.0, 
            "tot_orphaned": 0.0, 
            "tot_risk": 100.0
        }, 
        {
            "author_risks": {
                "Parker Moore": {
                    "tot_knowledge": 1000.0, 
                    "tot_orphaned": 0.0, 
                    "tot_risk": 100.0
                }
            }, 
            "tot_knowledge": 1000.0, 
            "tot_orphaned": 0.0, 
            "tot_risk": 100.0
        }, 
        {
            "author_risks": {
                "Parker Moore": {
                    "tot_knowledge": 1000.0, 
                    "tot_orphaned": 0.0, 
                    "tot_risk": 100.0
                }
            }, 
            "tot_knowledge": 1000.0, 
            "tot_orphaned": 0.0, 
            "tot_risk": 100.0
        }, 
        {
            "author_risks": {
                "Parker Moore": {
                    "tot_knowledge": 1000.0, 
                    "tot_orphaned": 0.0, 
                    "tot_risk": 100.0
                }
            }, 
            "tot_knowledge": 1000.0, 
            "tot_orphaned": 0.0, 
            "tot_risk": 100.0
        }, 
        {
            "author_risks": {
                "Parker Moore": {
                    "tot_knowledge": 1000.0, 
                    "tot_orphaned": 0.0, 
                    "tot_risk": 100.0
                }
            }, 
            "tot_knowledge": 1000.0, 
            "tot_orphaned": 0.0, 
            "tot_risk": 100.0
        }, 
        {
            "author_risks": {
                "Parker Moore": {
                    "tot_knowledge": 1000.0, 
                    "tot_orphaned": 0.0, 
                    "tot_risk": 100.0
                }
            }, 
            "tot_knowledge": 1000.0, 
            "tot_orphaned": 0.0, 
            "tot_risk": 100.0
        }, 
        {
            "author_risks": {
                "Parker Moore": {
                    "tot_knowledge": 1000.0, 
                    "tot_orphaned": 0.0, 
                    "tot_risk": 100.0
                }
            }, 
            "tot_knowledge": 1000.0, 
            "tot_orphaned": 0.0, 
            "tot_risk": 100.0
        }, 
        {
            "author_risks": {
                "Parker Moore": {
                    "tot_knowledge": 1000.0, 
                    "tot_orphaned": 0.0, 
                    "tot_risk": 100.0
                }
            }, 
            "tot_knowledge": 1000.0, 
            "tot_orphaned": 0.0, 
            "tot_risk": 100.0
        }, 
        {
            "author_risks": {
                "Parker Moore": {
                    "tot_knowledge": 1000.0, 
                    "tot_orphaned": 0.0, 
                    "tot_risk": 100.0
                }
            }, 
            "tot_knowledge": 1000.0, 
            "tot_orphaned": 0.0, 
            "tot_risk": 100.0
        }, 
        {
            "author_risks": {
                "Parker Moore": {
                    "tot_knowledge": 1000.0, 
                    "tot_orphaned": 0.0, 
                    "tot_risk": 100.0
                }
            }, 
            "tot_knowledge": 1000.0, 
            "tot_orphaned": 0.0, 
            "tot_risk": 100.0
        }, 
        {
            "author_risks": {
                "Parker Moore": {
                    "tot_knowledge": 1000.0, 
                    "tot_orphaned": 0.0, 
                    "tot_risk": 100.0
                }
            }, 
            "tot_knowledge": 1000.0, 
            "tot_orphaned": 0.0, 
            "tot_risk": 100.0
        }, 
        {
            "author_risks": {
                "Parker Moore": {
                    "tot_knowledge": 1000.0, 
                    "tot_orphaned": 0.0, 
                    "tot_risk": 100.0
                }
            }, 
            "tot_knowledge": 1000.0, 
            "tot_orphaned": 0.0, 
            "tot_risk": 100.0
        }, 
        {
            "author_risks": {
                "Alexander K\u00f6plinger": {
                    "tot_knowledge": 1100.0, 
                    "tot_orphaned": 0.0, 
                    "tot_risk": 110.0
                }
            }, 
            "tot_knowledge": 1100.0, 
            "tot_orphaned": 0.0, 
            "tot_risk": 110.0
        }, 
        {
            "author_risks": {
                "TheLucasMoore": {
                    "tot_knowledge": 200.0, 
                    "tot_orphaned": 0.0, 
                    "tot_risk": 20.0
                }, 
                "Alexander K\u00f6plinger\nTheLucasMoore": {
                    "tot_knowledge": 267.032967032967, 
                    "tot_orphaned": 0.0, 
                    "tot_risk": 2.6703296703296706
                }, 
                "Git by a Bus Safe Author": {
                    "tot_knowledge": 801.0989010989011, 
                    "tot_orphaned": 0.0, 
                    "tot_risk": 0.8010989010989014
                }, 
                "Pat Hawks": {
                    "tot_knowledge": 10.989010989010989, 
                    "tot_orphaned": 0.0, 
                    "tot_risk": 1.098901098901099
                }, 
                "Alexander K\u00f6plinger": {
                    "tot_knowledge": 32.96703296703297, 
                    "tot_orphaned": 0.0, 
                    "tot_risk": 3.2967032967032974
                }, 
                "Alexander K\u00f6plinger\nPat Hawks": {
                    "tot_knowledge": 98.90109890109889, 
                    "tot_orphaned": 0.0, 
                    "tot_risk": 0.989010989010989
                }, 
                "Pat Hawks\nTheLucasMoore": {
                    "tot_knowledge": 89.01098901098901, 
                    "tot_orphaned": 0.0, 
                    "tot_risk": 0.8901098901098903
                }
            }, 
            "tot_knowledge": 1500.0, 
            "tot_orphaned": 0.0, 
            "tot_risk": 29.74615384615385
        }, 
        {
            "author_risks": {
                "Alexander K\u00f6plinger": {
                    "tot_knowledge": 1000.0, 
                    "tot_orphaned": 0.0, 
                    "tot_risk": 100.0
                }
            }, 
            "tot_knowledge": 1000.0, 
            "tot_orphaned": 0.0, 
            "tot_risk": 100.0
        }, 
        {
            "author_risks": {
                "Alexander K\u00f6plinger": {
                    "tot_knowledge": 1100.0, 
                    "tot_orphaned": 0.0, 
                    "tot_risk": 110.0
                }
            }, 
            "tot_knowledge": 1100.0, 
            "tot_orphaned": 0.0, 
            "tot_risk": 110.0
        }, 
        {
            "author_risks": {
                "Alexander K\u00f6plinger": {
                    "tot_knowledge": 1000.0, 
                    "tot_orphaned": 0.0, 
                    "tot_risk": 100.0
                }
            }, 
            "tot_knowledge": 1000.0, 
            "tot_orphaned": 0.0, 
            "tot_risk": 100.0
        }, 
        {
            "author_risks": {
                "Alexander K\u00f6plinger": {
                    "tot_knowledge": 1000.0, 
                    "tot_orphaned": 0.0, 
                    "tot_risk": 100.0
                }
            }, 
            "tot_knowledge": 1000.0, 
            "tot_orphaned": 0.0, 
            "tot_risk": 100.0
        }, 
        {
            "author_risks": {
                "Pat Hawks": {
                    "tot_knowledge": 1000.0, 
                    "tot_orphaned": 0.0, 
                    "tot_risk": 100.0
                }
            }, 
            "tot_knowledge": 1000.0, 
            "tot_orphaned": 0.0, 
            "tot_risk": 100.0
        }, 
        {
            "author_risks": {
                "Pat Hawks": {
                    "tot_knowledge": 1000.0, 
                    "tot_orphaned": 0.0, 
                    "tot_risk": 100.0
                }
            }, 
            "tot_knowledge": 1000.0, 
            "tot_orphaned": 0.0, 
            "tot_risk": 100.0
        }, 
        {
            "author_risks": {
                "Pat Hawks": {
                    "tot_knowledge": 1000.0, 
                    "tot_orphaned": 0.0, 
                    "tot_risk": 100.0
                }
            }, 
            "tot_knowledge": 1000.0, 
            "tot_orphaned": 0.0, 
            "tot_risk": 100.0
        }, 
        {
            "author_risks": {
                "Pat Hawks": {
                    "tot_knowledge": 1000.0, 
                    "tot_orphaned": 0.0, 
                    "tot_risk": 100.0
                }
            }, 
            "tot_knowledge": 1000.0, 
            "tot_orphaned": 0.0, 
            "tot_risk": 100.0
        }, 
        {
            "author_risks": {
                "Pat Hawks": {
                    "tot_knowledge": 1000.0, 
                    "tot_orphaned": 0.0, 
                    "tot_risk": 100.0
                }
            }, 
            "tot_knowledge": 1000.0, 
            "tot_orphaned": 0.0, 
            "tot_risk": 100.0
        }, 
        {
            "author_risks": {
                "Pat Hawks": {
                    "tot_knowledge": 1000.0, 
                    "tot_orphaned": 0.0, 
                    "tot_risk": 100.0
                }
            }, 
            "tot_knowledge": 1000.0, 
            "tot_orphaned": 0.0, 
            "tot_risk": 100.0
        }, 
        {
            "author_risks": {
                "Pat Hawks": {
                    "tot_knowledge": 1000.0, 
                    "tot_orphaned": 0.0, 
                    "tot_risk": 100.0
                }
            }, 
            "tot_knowledge": 1000.0, 
            "tot_orphaned": 0.0, 
            "tot_risk": 100.0
        }, 
        {
            "author_risks": {
                "Pat Hawks": {
                    "tot_knowledge": 1000.0, 
                    "tot_orphaned": 0.0, 
                    "tot_risk": 100.0
                }
            }, 
            "tot_knowledge": 1000.0, 
            "tot_orphaned": 0.0, 
            "tot_risk": 100.0
        }, 
        {
            "author_risks": {
                "Pat Hawks": {
                    "tot_knowledge": 1000.0, 
                    "tot_orphaned": 0.0, 
                    "tot_risk": 100.0
                }
            }, 
            "tot_knowledge": 1000.0, 
            "tot_orphaned": 0.0, 
            "tot_risk": 100.0
        }, 
        {
            "author_risks": {
                "Pat Hawks": {
                    "tot_knowledge": 1000.0, 
                    "tot_orphaned": 0.0, 
                    "tot_risk": 100.0
                }
            }, 
            "tot_knowledge": 1000.0, 
            "tot_orphaned": 0.0, 
            "tot_risk": 100.0
        }, 
        {
            "author_risks": {
                "Pat Hawks": {
                    "tot_knowledge": 1000.0, 
                    "tot_orphaned": 0.0, 
                    "tot_risk": 100.0
                }
            }, 
            "tot_knowledge": 1000.0, 
            "tot_orphaned": 0.0, 
            "tot_risk": 100.0
        }, 
        {
            "author_risks": {
                "ashmaroli": {
                    "tot_knowledge": 100.0, 
                    "tot_orphaned": 0.0, 
                    "tot_risk": 10.0
                }, 
                "Pat Hawks": {
                    "tot_knowledge": 100.0, 
                    "tot_orphaned": 0.0, 
                    "tot_risk": 10.0
                }, 
                "Pat Hawks\nashmaroli": {
                    "tot_knowledge": 900.0, 
                    "tot_orphaned": 0.0, 
                    "tot_risk": 9.000000000000002
                }
            }, 
            "tot_knowledge": 1100.0, 
            "tot_orphaned": 0.0, 
            "tot_risk": 29.0
        }, 
        {
            "author_risks": {
                "ashmaroli": {
                    "tot_knowledge": 1000.0, 
                    "tot_orphaned": 0.0, 
                    "tot_risk": 100.0
                }
            }, 
            "tot_knowledge": 1000.0, 
            "tot_orphaned": 0.0, 
            "tot_risk": 100.0
        }, 
        {
            "author_risks": {
                "ashmaroli": {
                    "tot_knowledge": 1000.0, 
                    "tot_orphaned": 0.0, 
                    "tot_risk": 100.0
                }
            }, 
            "tot_knowledge": 1000.0, 
            "tot_orphaned": 0.0, 
            "tot_risk": 100.0
        }, 
        {
            "author_risks": {
                "Pat Hawks": {
                    "tot_knowledge": 1000.0, 
                    "tot_orphaned": 0.0, 
                    "tot_risk": 100.0
                }
            }, 
            "tot_knowledge": 1000.0, 
            "tot_orphaned": 0.0, 
            "tot_risk": 100.0
        }, 
        {
            "author_risks": {
                "Pat Hawks": {
                    "tot_knowledge": 1000.0, 
                    "tot_orphaned": 0.0, 
                    "tot_risk": 100.0
                }
            }, 
            "tot_knowledge": 1000.0, 
            "tot_orphaned": 0.0, 
            "tot_risk": 100.0
        }, 
        {
            "author_risks": {
                "Pat Hawks": {
                    "tot_knowledge": 1000.0, 
                    "tot_orphaned": 0.0, 
                    "tot_risk": 100.0
                }
            }, 
            "tot_knowledge": 1000.0, 
            "tot_orphaned": 0.0, 
            "tot_risk": 100.0
        }, 
        {
            "author_risks": {
                "Pat Hawks": {
                    "tot_knowledge": 1000.0, 
                    "tot_orphaned": 0.0, 
                    "tot_risk": 100.0
                }
            }, 
            "tot_knowledge": 1000.0, 
            "tot_orphaned": 0.0, 
            "tot_risk": 100.0
        }, 
        {
            "author_risks": {
                "Pat Hawks": {
                    "tot_knowledge": 1000.0, 
                    "tot_orphaned": 0.0, 
                    "tot_risk": 100.0
                }
            }, 
            "tot_knowledge": 1000.0, 
            "tot_orphaned": 0.0, 
            "tot_risk": 100.0
        }, 
        {
            "author_risks": {
                "Pat Hawks": {
                    "tot_knowledge": 1000.0, 
                    "tot_orphaned": 0.0, 
                    "tot_risk": 100.0
                }
            }, 
            "tot_knowledge": 1000.0, 
            "tot_orphaned": 0.0, 
            "tot_risk": 100.0
        }, 
        {
            "author_risks": {
                "Pat Hawks": {
                    "tot_knowledge": 1000.0, 
                    "tot_orphaned": 0.0, 
                    "tot_risk": 100.0
                }
            }, 
            "tot_knowledge": 1000.0, 
            "tot_orphaned": 0.0, 
            "tot_risk": 100.0
        }, 
        {
            "author_risks": {
                "Pat Hawks": {
                    "tot_knowledge": 1000.0, 
                    "tot_orphaned": 0.0, 
                    "tot_risk": 100.0
                }
            }, 
            "tot_knowledge": 1000.0, 
            "tot_orphaned": 0.0, 
            "tot_risk": 100.0
        }, 
        {
            "author_risks": {
                "Pat Hawks": {
                    "tot_knowledge": 1000.0, 
                    "tot_orphaned": 0.0, 
                    "tot_risk": 100.0
                }
            }, 
            "tot_knowledge": 1000.0, 
            "tot_orphaned": 0.0, 
            "tot_risk": 100.0
        }, 
        {
            "author_risks": {
                "Pat Hawks": {
                    "tot_knowledge": 1000.0, 
                    "tot_orphaned": 0.0, 
                    "tot_risk": 100.0
                }
            }, 
            "tot_knowledge": 1000.0, 
            "tot_orphaned": 0.0, 
            "tot_risk": 100.0
        }, 
        {
            "author_risks": {
                "Pat Hawks": {
                    "tot_knowledge": 1000.0, 
                    "tot_orphaned": 0.0, 
                    "tot_risk": 100.0
                }
            }, 
            "tot_knowledge": 1000.0, 
            "tot_orphaned": 0.0, 
            "tot_risk": 100.0
        }, 
        {
            "author_risks": {
                "Parker Moore": {
                    "tot_knowledge": 1000.0, 
                    "tot_orphaned": 0.0, 
                    "tot_risk": 100.0
                }
            }, 
            "tot_knowledge": 1000.0, 
            "tot_orphaned": 0.0, 
            "tot_risk": 100.0
        }, 
        {
            "author_risks": {
                "Parker Moore": {
                    "tot_knowledge": 1000.0, 
                    "tot_orphaned": 0.0, 
                    "tot_risk": 100.0
                }
            }, 
            "tot_knowledge": 1000.0, 
            "tot_orphaned": 0.0, 
            "tot_risk": 100.0
        }, 
        {
            "author_risks": {
                "Parker Moore": {
                    "tot_knowledge": 1000.0, 
                    "tot_orphaned": 0.0, 
                    "tot_risk": 100.0
                }
            }, 
            "tot_knowledge": 1000.0, 
            "tot_orphaned": 0.0, 
            "tot_risk": 100.0
        }, 
        {
            "author_risks": {
                "Parker Moore": {
                    "tot_knowledge": 1000.0, 
                    "tot_orphaned": 0.0, 
                    "tot_risk": 100.0
                }
            }, 
            "tot_knowledge": 1000.0, 
            "tot_orphaned": 0.0, 
            "tot_risk": 100.0
        }
    ], 
    "tot_orphaned": 0.0, 
    "author_risks": {
        "Jordon Bedwell\nParker Moore": {
            "tot_knowledge": 900.0, 
            "tot_orphaned": 0.0, 
            "tot_risk": 9.000000000000002
        }, 
        "Parker Moore\nPat Hawks": {
            "tot_knowledge": 2877.2727272727275, 
            "tot_orphaned": 0.0, 
            "tot_risk": 28.77272727272728
        }, 
        "Jordon Bedwell\nPat Hawks": {
            "tot_knowledge": 1800.0, 
            "tot_orphaned": 0.0, 
            "tot_risk": 18.000000000000004
        }, 
        "Pat Hawks": {
            "tot_knowledge": 37226.37362637363, 
            "tot_orphaned": 0.0, 
            "tot_risk": 3722.6373626373625
        }, 
        "Alexander K\u00f6plinger\nPat Hawks": {
            "tot_knowledge": 2874.4255744255747, 
            "tot_orphaned": 0.0, 
            "tot_risk": 28.74425574425575
        }, 
        "Alfred Xing\nJoop Au\u00e9": {
            "tot_knowledge": 20.454545454545453, 
            "tot_orphaned": 0.0, 
            "tot_risk": 0.20454545454545459
        }, 
        "Alfred Xing\nTheLucasMoore": {
            "tot_knowledge": 81.81818181818183, 
            "tot_orphaned": 0.0, 
            "tot_risk": 0.8181818181818185
        }, 
        "Pat Hawks\nashmaroli": {
            "tot_knowledge": 934.6153846153846, 
            "tot_orphaned": 0.0, 
            "tot_risk": 9.346153846153848
        }, 
        "chrisfinazzo": {
            "tot_knowledge": 100.0, 
            "tot_orphaned": 0.0, 
            "tot_risk": 10.0
        }, 
        "Alexander K\u00f6plinger\nParker Moore": {
            "tot_knowledge": 900.0, 
            "tot_orphaned": 0.0, 
            "tot_risk": 9.000000000000002
        }, 
        "Alfred Xing\nPat Hawks": {
            "tot_knowledge": 156.8181818181818, 
            "tot_orphaned": 0.0, 
            "tot_risk": 1.5681818181818186
        }, 
        "Alexander K\u00f6plinger": {
            "tot_knowledge": 13734.365634365635, 
            "tot_orphaned": 0.0, 
            "tot_risk": 1373.4365634365636
        }, 
        "Alfred Xing\nParker Moore": {
            "tot_knowledge": 2147.7272727272725, 
            "tot_orphaned": 0.0, 
            "tot_risk": 21.477272727272734
        }, 
        "TheLucasMoore": {
            "tot_knowledge": 1630.7692307692307, 
            "tot_orphaned": 0.0, 
            "tot_risk": 163.07692307692307
        }, 
        "Joop Au\u00e9": {
            "tot_knowledge": 4.545454545454543, 
            "tot_orphaned": 0.0, 
            "tot_risk": 0.45454545454545436
        }, 
        "Parker Moore\nTheLucasMoore": {
            "tot_knowledge": 2781.818181818182, 
            "tot_orphaned": 0.0, 
            "tot_risk": 27.818181818181827
        }, 
        "Pat Hawks\nTheLucasMoore": {
            "tot_knowledge": 135.16483516483515, 
            "tot_orphaned": 0.0, 
            "tot_risk": 1.351648351648352
        }, 
        "Parker Moore\nchrisfinazzo": {
            "tot_knowledge": 900.0, 
            "tot_orphaned": 0.0, 
            "tot_risk": 9.000000000000002
        }, 
        "Joop Au\u00e9\nParker Moore": {
            "tot_knowledge": 40.90909090909091, 
            "tot_orphaned": 0.0, 
            "tot_risk": 0.40909090909090917
        }, 
        "Alfred Xing": {
            "tot_knowledge": 261.3636363636364, 
            "tot_orphaned": 0.0, 
            "tot_risk": 26.136363636363633
        }, 
        "Alexander K\u00f6plinger\nashmaroli": {
            "tot_knowledge": 3.1468531468531453, 
            "tot_orphaned": 0.0, 
            "tot_risk": 0.03146853146853146
        }, 
        "Git by a Bus Safe Author": {
            "tot_knowledge": 4275.224775224776, 
            "tot_orphaned": 0.0, 
            "tot_risk": 4.2752247752247765
        }, 
        "Joop Au\u00e9\nPat Hawks": {
            "tot_knowledge": 13.63636363636363, 
            "tot_orphaned": 0.0, 
            "tot_risk": 0.13636363636363633
        }, 
        "ashmaroli": {
            "tot_knowledge": 15200.0, 
            "tot_orphaned": 0.0, 
            "tot_risk": 1520.0
        }, 
        "TheLucasMoore\nashmaroli": {
            "tot_knowledge": 69.23076923076923, 
            "tot_orphaned": 0.0, 
            "tot_risk": 0.6923076923076924
        }, 
        "Parker Moore": {
            "tot_knowledge": 69559.09090909091, 
            "tot_orphaned": 0.0, 
            "tot_risk": 6955.909090909092
        }, 
        "Jordon Bedwell": {
            "tot_knowledge": 14300.0, 
            "tot_orphaned": 0.0, 
            "tot_risk": 1430.0
        }, 
        "Alexander K\u00f6plinger\nTheLucasMoore": {
            "tot_knowledge": 271.2287712287712, 
            "tot_orphaned": 0.0, 
            "tot_risk": 2.7122877122877127
        }
    }, 
    "tot_knowledge": 173200.0
}