{
    "name": "stevenson.rb", 
    "tot_risk": 3737.9762237762247, 
    "lines": [
        {
            "author_risks": {
                "Parker Moore": {
                    "tot_knowledge": 1000.0, 
                    "tot_orphaned": 0.0, 
                    "tot_risk": 100.0
                }
            }, 
            "tot_knowledge": 1000.0, 
            "tot_orphaned": 0.0, 
            "tot_risk": 100.0
        }, 
        {
            "author_risks": {
                "Parker Moore": {
                    "tot_knowledge": 1000.0, 
                    "tot_orphaned": 0.0, 
                    "tot_risk": 100.0
                }
            }, 
            "tot_knowledge": 1000.0, 
            "tot_orphaned": 0.0, 
            "tot_risk": 100.0
        }, 
        {
            "author_risks": {
                "Parker Moore": {
                    "tot_knowledge": 1000.0, 
                    "tot_orphaned": 0.0, 
                    "tot_risk": 100.0
                }
            }, 
            "tot_knowledge": 1000.0, 
            "tot_orphaned": 0.0, 
            "tot_risk": 100.0
        }, 
        {
            "author_risks": {
                "Parker Moore\nPeter Rhoades": {
                    "tot_knowledge": 900.0, 
                    "tot_orphaned": 0.0, 
                    "tot_risk": 9.000000000000002
                }, 
                "Parker Moore": {
                    "tot_knowledge": 400.0, 
                    "tot_orphaned": 0.0, 
                    "tot_risk": 40.0
                }, 
                "Peter Rhoades": {
                    "tot_knowledge": 100.0, 
                    "tot_orphaned": 0.0, 
                    "tot_risk": 10.0
                }
            }, 
            "tot_knowledge": 1400.0, 
            "tot_orphaned": 0.0, 
            "tot_risk": 59.0
        }, 
        {
            "author_risks": {
                "Parker Moore\nPeter Rhoades": {
                    "tot_knowledge": 900.0, 
                    "tot_orphaned": 0.0, 
                    "tot_risk": 9.000000000000002
                }, 
                "Parker Moore": {
                    "tot_knowledge": 100.0, 
                    "tot_orphaned": 0.0, 
                    "tot_risk": 10.0
                }, 
                "Peter Rhoades": {
                    "tot_knowledge": 100.0, 
                    "tot_orphaned": 0.0, 
                    "tot_risk": 10.0
                }
            }, 
            "tot_knowledge": 1100.0, 
            "tot_orphaned": 0.0, 
            "tot_risk": 29.0
        }, 
        {
            "author_risks": {
                "Parker Moore\nPeter Rhoades": {
                    "tot_knowledge": 900.0, 
                    "tot_orphaned": 0.0, 
                    "tot_risk": 9.000000000000002
                }, 
                "Parker Moore": {
                    "tot_knowledge": 100.0, 
                    "tot_orphaned": 0.0, 
                    "tot_risk": 10.0
                }, 
                "Peter Rhoades": {
                    "tot_knowledge": 100.0, 
                    "tot_orphaned": 0.0, 
                    "tot_risk": 10.0
                }
            }, 
            "tot_knowledge": 1100.0, 
            "tot_orphaned": 0.0, 
            "tot_risk": 29.0
        }, 
        {
            "author_risks": {
                "Parker Moore\nPeter Rhoades": {
                    "tot_knowledge": 900.0, 
                    "tot_orphaned": 0.0, 
                    "tot_risk": 9.000000000000002
                }, 
                "Parker Moore": {
                    "tot_knowledge": 200.0, 
                    "tot_orphaned": 0.0, 
                    "tot_risk": 20.0
                }, 
                "Peter Rhoades": {
                    "tot_knowledge": 100.0, 
                    "tot_orphaned": 0.0, 
                    "tot_risk": 10.0
                }
            }, 
            "tot_knowledge": 1200.0, 
            "tot_orphaned": 0.0, 
            "tot_risk": 39.0
        }, 
        {
            "author_risks": {
                "Parker Moore\nPeter Rhoades": {
                    "tot_knowledge": 900.0, 
                    "tot_orphaned": 0.0, 
                    "tot_risk": 9.000000000000002
                }, 
                "Parker Moore": {
                    "tot_knowledge": 200.0, 
                    "tot_orphaned": 0.0, 
                    "tot_risk": 20.0
                }, 
                "Peter Rhoades": {
                    "tot_knowledge": 100.0, 
                    "tot_orphaned": 0.0, 
                    "tot_risk": 10.0
                }
            }, 
            "tot_knowledge": 1200.0, 
            "tot_orphaned": 0.0, 
            "tot_risk": 39.0
        }, 
        {
            "author_risks": {
                "Parker Moore\nPeter Rhoades": {
                    "tot_knowledge": 900.0, 
                    "tot_orphaned": 0.0, 
                    "tot_risk": 9.000000000000002
                }, 
                "Parker Moore": {
                    "tot_knowledge": 200.0, 
                    "tot_orphaned": 0.0, 
                    "tot_risk": 20.0
                }, 
                "Peter Rhoades": {
                    "tot_knowledge": 100.0, 
                    "tot_orphaned": 0.0, 
                    "tot_risk": 10.0
                }
            }, 
            "tot_knowledge": 1200.0, 
            "tot_orphaned": 0.0, 
            "tot_risk": 39.0
        }, 
        {
            "author_risks": {
                "Brian Kim\nParker Moore": {
                    "tot_knowledge": 75.5244755244756, 
                    "tot_orphaned": 0.0, 
                    "tot_risk": 0.7552447552447562
                }, 
                "Parker Moore\nPat Hawks": {
                    "tot_knowledge": 34.61538461538463, 
                    "tot_orphaned": 0.0, 
                    "tot_risk": 0.34615384615384637
                }, 
                "Pat Hawks\nPeter Rhoades": {
                    "tot_knowledge": 69.23076923076921, 
                    "tot_orphaned": 0.0, 
                    "tot_risk": 0.6923076923076923
                }, 
                "Git by a Bus Safe Author": {
                    "tot_knowledge": 1019.5804195804195, 
                    "tot_orphaned": 0.0, 
                    "tot_risk": 1.0195804195804197
                }, 
                "Brian Kim\nPat Hawks": {
                    "tot_knowledge": 3.1468531468531458, 
                    "tot_orphaned": 0.0, 
                    "tot_risk": 0.031468531468531465
                }, 
                "Parker Moore\nPeter Rhoades": {
                    "tot_knowledge": 46.15384615384616, 
                    "tot_orphaned": 0.0, 
                    "tot_risk": 0.4615384615384617
                }, 
                "Pat Hawks": {
                    "tot_knowledge": 100.0, 
                    "tot_orphaned": 0.0, 
                    "tot_risk": 10.0
                }, 
                "Parker Moore": {
                    "tot_knowledge": 15.384615384615401, 
                    "tot_orphaned": 0.0, 
                    "tot_risk": 1.53846153846154
                }, 
                "Brian Kim": {
                    "tot_knowledge": 1.3986013986013992, 
                    "tot_orphaned": 0.0, 
                    "tot_risk": 0.13986013986013993
                }, 
                "Brian Kim\nPeter Rhoades": {
                    "tot_knowledge": 4.195804195804195, 
                    "tot_orphaned": 0.0, 
                    "tot_risk": 0.04195804195804196
                }, 
                "Peter Rhoades": {
                    "tot_knowledge": 30.769230769230788, 
                    "tot_orphaned": 0.0, 
                    "tot_risk": 3.076923076923079
                }
            }, 
            "tot_knowledge": 1400.0, 
            "tot_orphaned": 0.0, 
            "tot_risk": 18.10349650349651
        }, 
        {
            "author_risks": {
                "Parker Moore\nPat Hawks": {
                    "tot_knowledge": 81.81818181818183, 
                    "tot_orphaned": 0.0, 
                    "tot_risk": 0.8181818181818185
                }, 
                "Git by a Bus Safe Author": {
                    "tot_knowledge": 736.3636363636364, 
                    "tot_orphaned": 0.0, 
                    "tot_risk": 0.7363636363636366
                }, 
                "Parker Moore\nPeter Rhoades": {
                    "tot_knowledge": 163.63636363636363, 
                    "tot_orphaned": 0.0, 
                    "tot_risk": 1.6363636363636367
                }, 
                "Pat Hawks": {
                    "tot_knowledge": 100.0, 
                    "tot_orphaned": 0.0, 
                    "tot_risk": 10.0
                }, 
                "Parker Moore": {
                    "tot_knowledge": 18.181818181818173, 
                    "tot_orphaned": 0.0, 
                    "tot_risk": 1.8181818181818175
                }, 
                "Pat Hawks\nPeter Rhoades": {
                    "tot_knowledge": 81.81818181818183, 
                    "tot_orphaned": 0.0, 
                    "tot_risk": 0.8181818181818185
                }, 
                "Peter Rhoades": {
                    "tot_knowledge": 18.181818181818173, 
                    "tot_orphaned": 0.0, 
                    "tot_risk": 1.8181818181818175
                }
            }, 
            "tot_knowledge": 1200.0, 
            "tot_orphaned": 0.0, 
            "tot_risk": 17.645454545454545
        }, 
        {
            "author_risks": {
                "Parker Moore": {
                    "tot_knowledge": 1000.0, 
                    "tot_orphaned": 0.0, 
                    "tot_risk": 100.0
                }
            }, 
            "tot_knowledge": 1000.0, 
            "tot_orphaned": 0.0, 
            "tot_risk": 100.0
        }, 
        {
            "author_risks": {
                "Parker Moore": {
                    "tot_knowledge": 1000.0, 
                    "tot_orphaned": 0.0, 
                    "tot_risk": 100.0
                }
            }, 
            "tot_knowledge": 1000.0, 
            "tot_orphaned": 0.0, 
            "tot_risk": 100.0
        }, 
        {
            "author_risks": {
                "Parker Moore": {
                    "tot_knowledge": 1000.0, 
                    "tot_orphaned": 0.0, 
                    "tot_risk": 100.0
                }
            }, 
            "tot_knowledge": 1000.0, 
            "tot_orphaned": 0.0, 
            "tot_risk": 100.0
        }, 
        {
            "author_risks": {
                "Parker Moore\nPat Hawks": {
                    "tot_knowledge": 81.81818181818183, 
                    "tot_orphaned": 0.0, 
                    "tot_risk": 0.8181818181818185
                }, 
                "Git by a Bus Safe Author": {
                    "tot_knowledge": 736.3636363636364, 
                    "tot_orphaned": 0.0, 
                    "tot_risk": 0.7363636363636366
                }, 
                "Parker Moore\nPeter Rhoades": {
                    "tot_knowledge": 163.63636363636363, 
                    "tot_orphaned": 0.0, 
                    "tot_risk": 1.6363636363636367
                }, 
                "Pat Hawks": {
                    "tot_knowledge": 100.0, 
                    "tot_orphaned": 0.0, 
                    "tot_risk": 10.0
                }, 
                "Parker Moore": {
                    "tot_knowledge": 18.181818181818173, 
                    "tot_orphaned": 0.0, 
                    "tot_risk": 1.8181818181818175
                }, 
                "Pat Hawks\nPeter Rhoades": {
                    "tot_knowledge": 81.81818181818183, 
                    "tot_orphaned": 0.0, 
                    "tot_risk": 0.8181818181818185
                }, 
                "Peter Rhoades": {
                    "tot_knowledge": 18.181818181818173, 
                    "tot_orphaned": 0.0, 
                    "tot_risk": 1.8181818181818175
                }
            }, 
            "tot_knowledge": 1200.0, 
            "tot_orphaned": 0.0, 
            "tot_risk": 17.645454545454545
        }, 
        {
            "author_risks": {
                "Parker Moore\nPeter Rhoades": {
                    "tot_knowledge": 900.0, 
                    "tot_orphaned": 0.0, 
                    "tot_risk": 9.000000000000002
                }, 
                "Parker Moore": {
                    "tot_knowledge": 100.0, 
                    "tot_orphaned": 0.0, 
                    "tot_risk": 10.0
                }, 
                "Peter Rhoades": {
                    "tot_knowledge": 100.0, 
                    "tot_orphaned": 0.0, 
                    "tot_risk": 10.0
                }
            }, 
            "tot_knowledge": 1100.0, 
            "tot_orphaned": 0.0, 
            "tot_risk": 29.0
        }, 
        {
            "author_risks": {
                "Parker Moore\nPat Hawks": {
                    "tot_knowledge": 81.81818181818183, 
                    "tot_orphaned": 0.0, 
                    "tot_risk": 0.8181818181818185
                }, 
                "Git by a Bus Safe Author": {
                    "tot_knowledge": 736.3636363636364, 
                    "tot_orphaned": 0.0, 
                    "tot_risk": 0.7363636363636366
                }, 
                "Parker Moore\nPeter Rhoades": {
                    "tot_knowledge": 163.63636363636363, 
                    "tot_orphaned": 0.0, 
                    "tot_risk": 1.6363636363636367
                }, 
                "Pat Hawks": {
                    "tot_knowledge": 100.0, 
                    "tot_orphaned": 0.0, 
                    "tot_risk": 10.0
                }, 
                "Parker Moore": {
                    "tot_knowledge": 18.181818181818173, 
                    "tot_orphaned": 0.0, 
                    "tot_risk": 1.8181818181818175
                }, 
                "Pat Hawks\nPeter Rhoades": {
                    "tot_knowledge": 81.81818181818183, 
                    "tot_orphaned": 0.0, 
                    "tot_risk": 0.8181818181818185
                }, 
                "Peter Rhoades": {
                    "tot_knowledge": 18.181818181818173, 
                    "tot_orphaned": 0.0, 
                    "tot_risk": 1.8181818181818175
                }
            }, 
            "tot_knowledge": 1200.0, 
            "tot_orphaned": 0.0, 
            "tot_risk": 17.645454545454545
        }, 
        {
            "author_risks": {
                "Parker Moore": {
                    "tot_knowledge": 1000.0, 
                    "tot_orphaned": 0.0, 
                    "tot_risk": 100.0
                }
            }, 
            "tot_knowledge": 1000.0, 
            "tot_orphaned": 0.0, 
            "tot_risk": 100.0
        }, 
        {
            "author_risks": {
                "Parker Moore\nPat Hawks": {
                    "tot_knowledge": 81.81818181818183, 
                    "tot_orphaned": 0.0, 
                    "tot_risk": 0.8181818181818185
                }, 
                "Git by a Bus Safe Author": {
                    "tot_knowledge": 736.3636363636364, 
                    "tot_orphaned": 0.0, 
                    "tot_risk": 0.7363636363636366
                }, 
                "Parker Moore\nPeter Rhoades": {
                    "tot_knowledge": 163.63636363636363, 
                    "tot_orphaned": 0.0, 
                    "tot_risk": 1.6363636363636367
                }, 
                "Pat Hawks": {
                    "tot_knowledge": 100.0, 
                    "tot_orphaned": 0.0, 
                    "tot_risk": 10.0
                }, 
                "Parker Moore": {
                    "tot_knowledge": 18.181818181818173, 
                    "tot_orphaned": 0.0, 
                    "tot_risk": 1.8181818181818175
                }, 
                "Pat Hawks\nPeter Rhoades": {
                    "tot_knowledge": 81.81818181818183, 
                    "tot_orphaned": 0.0, 
                    "tot_risk": 0.8181818181818185
                }, 
                "Peter Rhoades": {
                    "tot_knowledge": 18.181818181818173, 
                    "tot_orphaned": 0.0, 
                    "tot_risk": 1.8181818181818175
                }
            }, 
            "tot_knowledge": 1200.0, 
            "tot_orphaned": 0.0, 
            "tot_risk": 17.645454545454545
        }, 
        {
            "author_risks": {
                "Parker Moore\nPeter Rhoades": {
                    "tot_knowledge": 900.0, 
                    "tot_orphaned": 0.0, 
                    "tot_risk": 9.000000000000002
                }, 
                "Parker Moore": {
                    "tot_knowledge": 100.0, 
                    "tot_orphaned": 0.0, 
                    "tot_risk": 10.0
                }, 
                "Peter Rhoades": {
                    "tot_knowledge": 100.0, 
                    "tot_orphaned": 0.0, 
                    "tot_risk": 10.0
                }
            }, 
            "tot_knowledge": 1100.0, 
            "tot_orphaned": 0.0, 
            "tot_risk": 29.0
        }, 
        {
            "author_risks": {
                "Parker Moore": {
                    "tot_knowledge": 1000.0, 
                    "tot_orphaned": 0.0, 
                    "tot_risk": 100.0
                }
            }, 
            "tot_knowledge": 1000.0, 
            "tot_orphaned": 0.0, 
            "tot_risk": 100.0
        }, 
        {
            "author_risks": {
                "Parker Moore\nPeter Rhoades": {
                    "tot_knowledge": 900.0, 
                    "tot_orphaned": 0.0, 
                    "tot_risk": 9.000000000000002
                }, 
                "Parker Moore": {
                    "tot_knowledge": 100.0, 
                    "tot_orphaned": 0.0, 
                    "tot_risk": 10.0
                }, 
                "Peter Rhoades": {
                    "tot_knowledge": 100.0, 
                    "tot_orphaned": 0.0, 
                    "tot_risk": 10.0
                }
            }, 
            "tot_knowledge": 1100.0, 
            "tot_orphaned": 0.0, 
            "tot_risk": 29.0
        }, 
        {
            "author_risks": {
                "Parker Moore\nPeter Rhoades": {
                    "tot_knowledge": 900.0, 
                    "tot_orphaned": 0.0, 
                    "tot_risk": 9.000000000000002
                }, 
                "Parker Moore": {
                    "tot_knowledge": 100.0, 
                    "tot_orphaned": 0.0, 
                    "tot_risk": 10.0
                }, 
                "Peter Rhoades": {
                    "tot_knowledge": 100.0, 
                    "tot_orphaned": 0.0, 
                    "tot_risk": 10.0
                }
            }, 
            "tot_knowledge": 1100.0, 
            "tot_orphaned": 0.0, 
            "tot_risk": 29.0
        }, 
        {
            "author_risks": {
                "Parker Moore\nPeter Rhoades": {
                    "tot_knowledge": 900.0, 
                    "tot_orphaned": 0.0, 
                    "tot_risk": 9.000000000000002
                }, 
                "Parker Moore": {
                    "tot_knowledge": 100.0, 
                    "tot_orphaned": 0.0, 
                    "tot_risk": 10.0
                }, 
                "Peter Rhoades": {
                    "tot_knowledge": 100.0, 
                    "tot_orphaned": 0.0, 
                    "tot_risk": 10.0
                }
            }, 
            "tot_knowledge": 1100.0, 
            "tot_orphaned": 0.0, 
            "tot_risk": 29.0
        }, 
        {
            "author_risks": {
                "Parker Moore\nPeter Rhoades": {
                    "tot_knowledge": 900.0, 
                    "tot_orphaned": 0.0, 
                    "tot_risk": 9.000000000000002
                }, 
                "Parker Moore": {
                    "tot_knowledge": 100.0, 
                    "tot_orphaned": 0.0, 
                    "tot_risk": 10.0
                }, 
                "Peter Rhoades": {
                    "tot_knowledge": 100.0, 
                    "tot_orphaned": 0.0, 
                    "tot_risk": 10.0
                }
            }, 
            "tot_knowledge": 1100.0, 
            "tot_orphaned": 0.0, 
            "tot_risk": 29.0
        }, 
        {
            "author_risks": {
                "Parker Moore\nPeter Rhoades": {
                    "tot_knowledge": 900.0, 
                    "tot_orphaned": 0.0, 
                    "tot_risk": 9.000000000000002
                }, 
                "Parker Moore": {
                    "tot_knowledge": 100.0, 
                    "tot_orphaned": 0.0, 
                    "tot_risk": 10.0
                }, 
                "Peter Rhoades": {
                    "tot_knowledge": 100.0, 
                    "tot_orphaned": 0.0, 
                    "tot_risk": 10.0
                }
            }, 
            "tot_knowledge": 1100.0, 
            "tot_orphaned": 0.0, 
            "tot_risk": 29.0
        }, 
        {
            "author_risks": {
                "Parker Moore\nPeter Rhoades": {
                    "tot_knowledge": 900.0, 
                    "tot_orphaned": 0.0, 
                    "tot_risk": 9.000000000000002
                }, 
                "Parker Moore": {
                    "tot_knowledge": 100.0, 
                    "tot_orphaned": 0.0, 
                    "tot_risk": 10.0
                }, 
                "Peter Rhoades": {
                    "tot_knowledge": 100.0, 
                    "tot_orphaned": 0.0, 
                    "tot_risk": 10.0
                }
            }, 
            "tot_knowledge": 1100.0, 
            "tot_orphaned": 0.0, 
            "tot_risk": 29.0
        }, 
        {
            "author_risks": {
                "Parker Moore\nPeter Rhoades": {
                    "tot_knowledge": 900.0, 
                    "tot_orphaned": 0.0, 
                    "tot_risk": 9.000000000000002
                }, 
                "Parker Moore": {
                    "tot_knowledge": 100.0, 
                    "tot_orphaned": 0.0, 
                    "tot_risk": 10.0
                }, 
                "Peter Rhoades": {
                    "tot_knowledge": 100.0, 
                    "tot_orphaned": 0.0, 
                    "tot_risk": 10.0
                }
            }, 
            "tot_knowledge": 1100.0, 
            "tot_orphaned": 0.0, 
            "tot_risk": 29.0
        }, 
        {
            "author_risks": {
                "Parker Moore": {
                    "tot_knowledge": 1000.0, 
                    "tot_orphaned": 0.0, 
                    "tot_risk": 100.0
                }
            }, 
            "tot_knowledge": 1000.0, 
            "tot_orphaned": 0.0, 
            "tot_risk": 100.0
        }, 
        {
            "author_risks": {
                "Parker Moore": {
                    "tot_knowledge": 1000.0, 
                    "tot_orphaned": 0.0, 
                    "tot_risk": 100.0
                }
            }, 
            "tot_knowledge": 1000.0, 
            "tot_orphaned": 0.0, 
            "tot_risk": 100.0
        }, 
        {
            "author_risks": {
                "Parker Moore\nPeter Rhoades": {
                    "tot_knowledge": 900.0, 
                    "tot_orphaned": 0.0, 
                    "tot_risk": 9.000000000000002
                }, 
                "Parker Moore": {
                    "tot_knowledge": 100.0, 
                    "tot_orphaned": 0.0, 
                    "tot_risk": 10.0
                }, 
                "Peter Rhoades": {
                    "tot_knowledge": 100.0, 
                    "tot_orphaned": 0.0, 
                    "tot_risk": 10.0
                }
            }, 
            "tot_knowledge": 1100.0, 
            "tot_orphaned": 0.0, 
            "tot_risk": 29.0
        }, 
        {
            "author_risks": {
                "Parker Moore\nPat Hawks": {
                    "tot_knowledge": 81.81818181818183, 
                    "tot_orphaned": 0.0, 
                    "tot_risk": 0.8181818181818185
                }, 
                "Git by a Bus Safe Author": {
                    "tot_knowledge": 736.3636363636364, 
                    "tot_orphaned": 0.0, 
                    "tot_risk": 0.7363636363636366
                }, 
                "Parker Moore\nPeter Rhoades": {
                    "tot_knowledge": 163.63636363636363, 
                    "tot_orphaned": 0.0, 
                    "tot_risk": 1.6363636363636367
                }, 
                "Pat Hawks": {
                    "tot_knowledge": 100.0, 
                    "tot_orphaned": 0.0, 
                    "tot_risk": 10.0
                }, 
                "Parker Moore": {
                    "tot_knowledge": 18.181818181818173, 
                    "tot_orphaned": 0.0, 
                    "tot_risk": 1.8181818181818175
                }, 
                "Pat Hawks\nPeter Rhoades": {
                    "tot_knowledge": 81.81818181818183, 
                    "tot_orphaned": 0.0, 
                    "tot_risk": 0.8181818181818185
                }, 
                "Peter Rhoades": {
                    "tot_knowledge": 18.181818181818173, 
                    "tot_orphaned": 0.0, 
                    "tot_risk": 1.8181818181818175
                }
            }, 
            "tot_knowledge": 1200.0, 
            "tot_orphaned": 0.0, 
            "tot_risk": 17.645454545454545
        }, 
        {
            "author_risks": {
                "Pat Hawks": {
                    "tot_knowledge": 1000.0, 
                    "tot_orphaned": 0.0, 
                    "tot_risk": 100.0
                }
            }, 
            "tot_knowledge": 1000.0, 
            "tot_orphaned": 0.0, 
            "tot_risk": 100.0
        }, 
        {
            "author_risks": {
                "Parker Moore\nPeter Rhoades": {
                    "tot_knowledge": 900.0, 
                    "tot_orphaned": 0.0, 
                    "tot_risk": 9.000000000000002
                }, 
                "Parker Moore": {
                    "tot_knowledge": 100.0, 
                    "tot_orphaned": 0.0, 
                    "tot_risk": 10.0
                }, 
                "Peter Rhoades": {
                    "tot_knowledge": 100.0, 
                    "tot_orphaned": 0.0, 
                    "tot_risk": 10.0
                }
            }, 
            "tot_knowledge": 1100.0, 
            "tot_orphaned": 0.0, 
            "tot_risk": 29.0
        }, 
        {
            "author_risks": {
                "Parker Moore": {
                    "tot_knowledge": 1000.0, 
                    "tot_orphaned": 0.0, 
                    "tot_risk": 100.0
                }
            }, 
            "tot_knowledge": 1000.0, 
            "tot_orphaned": 0.0, 
            "tot_risk": 100.0
        }, 
        {
            "author_risks": {
                "Parker Moore": {
                    "tot_knowledge": 1000.0, 
                    "tot_orphaned": 0.0, 
                    "tot_risk": 100.0
                }
            }, 
            "tot_knowledge": 1000.0, 
            "tot_orphaned": 0.0, 
            "tot_risk": 100.0
        }, 
        {
            "author_risks": {
                "Peter Rhoades": {
                    "tot_knowledge": 1000.0, 
                    "tot_orphaned": 0.0, 
                    "tot_risk": 100.0
                }
            }, 
            "tot_knowledge": 1000.0, 
            "tot_orphaned": 0.0, 
            "tot_risk": 100.0
        }, 
        {
            "author_risks": {
                "Peter Rhoades": {
                    "tot_knowledge": 1000.0, 
                    "tot_orphaned": 0.0, 
                    "tot_risk": 100.0
                }
            }, 
            "tot_knowledge": 1000.0, 
            "tot_orphaned": 0.0, 
            "tot_risk": 100.0
        }, 
        {
            "author_risks": {
                "Peter Rhoades": {
                    "tot_knowledge": 1000.0, 
                    "tot_orphaned": 0.0, 
                    "tot_risk": 100.0
                }
            }, 
            "tot_knowledge": 1000.0, 
            "tot_orphaned": 0.0, 
            "tot_risk": 100.0
        }, 
        {
            "author_risks": {
                "Peter Rhoades": {
                    "tot_knowledge": 1000.0, 
                    "tot_orphaned": 0.0, 
                    "tot_risk": 100.0
                }
            }, 
            "tot_knowledge": 1000.0, 
            "tot_orphaned": 0.0, 
            "tot_risk": 100.0
        }, 
        {
            "author_risks": {
                "Peter Rhoades": {
                    "tot_knowledge": 1000.0, 
                    "tot_orphaned": 0.0, 
                    "tot_risk": 100.0
                }
            }, 
            "tot_knowledge": 1000.0, 
            "tot_orphaned": 0.0, 
            "tot_risk": 100.0
        }, 
        {
            "author_risks": {
                "Peter Rhoades": {
                    "tot_knowledge": 1000.0, 
                    "tot_orphaned": 0.0, 
                    "tot_risk": 100.0
                }
            }, 
            "tot_knowledge": 1000.0, 
            "tot_orphaned": 0.0, 
            "tot_risk": 100.0
        }, 
        {
            "author_risks": {
                "Peter Rhoades": {
                    "tot_knowledge": 1000.0, 
                    "tot_orphaned": 0.0, 
                    "tot_risk": 100.0
                }
            }, 
            "tot_knowledge": 1000.0, 
            "tot_orphaned": 0.0, 
            "tot_risk": 100.0
        }, 
        {
            "author_risks": {
                "Peter Rhoades": {
                    "tot_knowledge": 1000.0, 
                    "tot_orphaned": 0.0, 
                    "tot_risk": 100.0
                }
            }, 
            "tot_knowledge": 1000.0, 
            "tot_orphaned": 0.0, 
            "tot_risk": 100.0
        }, 
        {
            "author_risks": {
                "Peter Rhoades": {
                    "tot_knowledge": 1000.0, 
                    "tot_orphaned": 0.0, 
                    "tot_risk": 100.0
                }
            }, 
            "tot_knowledge": 1000.0, 
            "tot_orphaned": 0.0, 
            "tot_risk": 100.0
        }, 
        {
            "author_risks": {
                "Peter Rhoades": {
                    "tot_knowledge": 1000.0, 
                    "tot_orphaned": 0.0, 
                    "tot_risk": 100.0
                }
            }, 
            "tot_knowledge": 1000.0, 
            "tot_orphaned": 0.0, 
            "tot_risk": 100.0
        }, 
        {
            "author_risks": {
                "Parker Moore\nPeter Rhoades": {
                    "tot_knowledge": 900.0, 
                    "tot_orphaned": 0.0, 
                    "tot_risk": 9.000000000000002
                }, 
                "Parker Moore": {
                    "tot_knowledge": 100.0, 
                    "tot_orphaned": 0.0, 
                    "tot_risk": 10.0
                }, 
                "Peter Rhoades": {
                    "tot_knowledge": 100.0, 
                    "tot_orphaned": 0.0, 
                    "tot_risk": 10.0
                }
            }, 
            "tot_knowledge": 1100.0, 
            "tot_orphaned": 0.0, 
            "tot_risk": 29.0
        }, 
        {
            "author_risks": {
                "Parker Moore\nPeter Rhoades": {
                    "tot_knowledge": 900.0, 
                    "tot_orphaned": 0.0, 
                    "tot_risk": 9.000000000000002
                }, 
                "Parker Moore": {
                    "tot_knowledge": 100.0, 
                    "tot_orphaned": 0.0, 
                    "tot_risk": 10.0
                }, 
                "Peter Rhoades": {
                    "tot_knowledge": 100.0, 
                    "tot_orphaned": 0.0, 
                    "tot_risk": 10.0
                }
            }, 
            "tot_knowledge": 1100.0, 
            "tot_orphaned": 0.0, 
            "tot_risk": 29.0
        }, 
        {
            "author_risks": {
                "Parker Moore": {
                    "tot_knowledge": 1000.0, 
                    "tot_orphaned": 0.0, 
                    "tot_risk": 100.0
                }
            }, 
            "tot_knowledge": 1000.0, 
            "tot_orphaned": 0.0, 
            "tot_risk": 100.0
        }, 
        {
            "author_risks": {
                "Parker Moore": {
                    "tot_knowledge": 1000.0, 
                    "tot_orphaned": 0.0, 
                    "tot_risk": 100.0
                }
            }, 
            "tot_knowledge": 1000.0, 
            "tot_orphaned": 0.0, 
            "tot_risk": 100.0
        }, 
        {
            "author_risks": {
                "Parker Moore\nPeter Rhoades": {
                    "tot_knowledge": 900.0, 
                    "tot_orphaned": 0.0, 
                    "tot_risk": 9.000000000000002
                }, 
                "Parker Moore": {
                    "tot_knowledge": 100.0, 
                    "tot_orphaned": 0.0, 
                    "tot_risk": 10.0
                }, 
                "Peter Rhoades": {
                    "tot_knowledge": 100.0, 
                    "tot_orphaned": 0.0, 
                    "tot_risk": 10.0
                }
            }, 
            "tot_knowledge": 1100.0, 
            "tot_orphaned": 0.0, 
            "tot_risk": 29.0
        }, 
        {
            "author_risks": {
                "Parker Moore\nPeter Rhoades": {
                    "tot_knowledge": 900.0, 
                    "tot_orphaned": 0.0, 
                    "tot_risk": 9.000000000000002
                }, 
                "Parker Moore": {
                    "tot_knowledge": 100.0, 
                    "tot_orphaned": 0.0, 
                    "tot_risk": 10.0
                }, 
                "Peter Rhoades": {
                    "tot_knowledge": 100.0, 
                    "tot_orphaned": 0.0, 
                    "tot_risk": 10.0
                }
            }, 
            "tot_knowledge": 1100.0, 
            "tot_orphaned": 0.0, 
            "tot_risk": 29.0
        }, 
        {
            "author_risks": {
                "Parker Moore\nPat Hawks": {
                    "tot_knowledge": 81.81818181818183, 
                    "tot_orphaned": 0.0, 
                    "tot_risk": 0.8181818181818185
                }, 
                "Git by a Bus Safe Author": {
                    "tot_knowledge": 736.3636363636364, 
                    "tot_orphaned": 0.0, 
                    "tot_risk": 0.7363636363636366
                }, 
                "Parker Moore\nPeter Rhoades": {
                    "tot_knowledge": 163.63636363636363, 
                    "tot_orphaned": 0.0, 
                    "tot_risk": 1.6363636363636367
                }, 
                "Pat Hawks": {
                    "tot_knowledge": 100.0, 
                    "tot_orphaned": 0.0, 
                    "tot_risk": 10.0
                }, 
                "Parker Moore": {
                    "tot_knowledge": 18.181818181818173, 
                    "tot_orphaned": 0.0, 
                    "tot_risk": 1.8181818181818175
                }, 
                "Pat Hawks\nPeter Rhoades": {
                    "tot_knowledge": 81.81818181818183, 
                    "tot_orphaned": 0.0, 
                    "tot_risk": 0.8181818181818185
                }, 
                "Peter Rhoades": {
                    "tot_knowledge": 18.181818181818173, 
                    "tot_orphaned": 0.0, 
                    "tot_risk": 1.8181818181818175
                }
            }, 
            "tot_knowledge": 1200.0, 
            "tot_orphaned": 0.0, 
            "tot_risk": 17.645454545454545
        }, 
        {
            "author_risks": {
                "Parker Moore\nPeter Rhoades": {
                    "tot_knowledge": 900.0, 
                    "tot_orphaned": 0.0, 
                    "tot_risk": 9.000000000000002
                }, 
                "Parker Moore": {
                    "tot_knowledge": 100.0, 
                    "tot_orphaned": 0.0, 
                    "tot_risk": 10.0
                }, 
                "Peter Rhoades": {
                    "tot_knowledge": 100.0, 
                    "tot_orphaned": 0.0, 
                    "tot_risk": 10.0
                }
            }, 
            "tot_knowledge": 1100.0, 
            "tot_orphaned": 0.0, 
            "tot_risk": 29.0
        }, 
        {
            "author_risks": {
                "Parker Moore\nPeter Rhoades": {
                    "tot_knowledge": 900.0, 
                    "tot_orphaned": 0.0, 
                    "tot_risk": 9.000000000000002
                }, 
                "Parker Moore": {
                    "tot_knowledge": 100.0, 
                    "tot_orphaned": 0.0, 
                    "tot_risk": 10.0
                }, 
                "Peter Rhoades": {
                    "tot_knowledge": 100.0, 
                    "tot_orphaned": 0.0, 
                    "tot_risk": 10.0
                }
            }, 
            "tot_knowledge": 1100.0, 
            "tot_orphaned": 0.0, 
            "tot_risk": 29.0
        }, 
        {
            "author_risks": {
                "Parker Moore\nPeter Rhoades": {
                    "tot_knowledge": 900.0, 
                    "tot_orphaned": 0.0, 
                    "tot_risk": 9.000000000000002
                }, 
                "Parker Moore": {
                    "tot_knowledge": 100.0, 
                    "tot_orphaned": 0.0, 
                    "tot_risk": 10.0
                }, 
                "Peter Rhoades": {
                    "tot_knowledge": 100.0, 
                    "tot_orphaned": 0.0, 
                    "tot_risk": 10.0
                }
            }, 
            "tot_knowledge": 1100.0, 
            "tot_orphaned": 0.0, 
            "tot_risk": 29.0
        }, 
        {
            "author_risks": {
                "Parker Moore\nPeter Rhoades": {
                    "tot_knowledge": 900.0, 
                    "tot_orphaned": 0.0, 
                    "tot_risk": 9.000000000000002
                }, 
                "Parker Moore": {
                    "tot_knowledge": 100.0, 
                    "tot_orphaned": 0.0, 
                    "tot_risk": 10.0
                }, 
                "Peter Rhoades": {
                    "tot_knowledge": 100.0, 
                    "tot_orphaned": 0.0, 
                    "tot_risk": 10.0
                }
            }, 
            "tot_knowledge": 1100.0, 
            "tot_orphaned": 0.0, 
            "tot_risk": 29.0
        }, 
        {
            "author_risks": {
                "Parker Moore\nPeter Rhoades": {
                    "tot_knowledge": 900.0, 
                    "tot_orphaned": 0.0, 
                    "tot_risk": 9.000000000000002
                }, 
                "Parker Moore": {
                    "tot_knowledge": 100.0, 
                    "tot_orphaned": 0.0, 
                    "tot_risk": 10.0
                }, 
                "Peter Rhoades": {
                    "tot_knowledge": 100.0, 
                    "tot_orphaned": 0.0, 
                    "tot_risk": 10.0
                }
            }, 
            "tot_knowledge": 1100.0, 
            "tot_orphaned": 0.0, 
            "tot_risk": 29.0
        }, 
        {
            "author_risks": {
                "Parker Moore": {
                    "tot_knowledge": 1000.0, 
                    "tot_orphaned": 0.0, 
                    "tot_risk": 100.0
                }
            }, 
            "tot_knowledge": 1000.0, 
            "tot_orphaned": 0.0, 
            "tot_risk": 100.0
        }, 
        {
            "author_risks": {
                "Parker Moore": {
                    "tot_knowledge": 1000.0, 
                    "tot_orphaned": 0.0, 
                    "tot_risk": 100.0
                }
            }, 
            "tot_knowledge": 1000.0, 
            "tot_orphaned": 0.0, 
            "tot_risk": 100.0
        }, 
        {
            "author_risks": {
                "Parker Moore": {
                    "tot_knowledge": 1000.0, 
                    "tot_orphaned": 0.0, 
                    "tot_risk": 100.0
                }
            }, 
            "tot_knowledge": 1000.0, 
            "tot_orphaned": 0.0, 
            "tot_risk": 100.0
        }
    ], 
    "tot_orphaned": 0.0, 
    "author_risks": {
        "Brian Kim\nParker Moore": {
            "tot_knowledge": 75.5244755244756, 
            "tot_orphaned": 0.0, 
            "tot_risk": 0.7552447552447562
        }, 
        "Parker Moore\nPat Hawks": {
            "tot_knowledge": 525.5244755244755, 
            "tot_orphaned": 0.0, 
            "tot_risk": 5.255244755244757
        }, 
        "Pat Hawks\nPeter Rhoades": {
            "tot_knowledge": 560.1398601398602, 
            "tot_orphaned": 0.0, 
            "tot_risk": 5.601398601398603
        }, 
        "Git by a Bus Safe Author": {
            "tot_knowledge": 5437.762237762237, 
            "tot_orphaned": 0.0, 
            "tot_risk": 5.4377622377622385
        }, 
        "Brian Kim\nPat Hawks": {
            "tot_knowledge": 3.1468531468531458, 
            "tot_orphaned": 0.0, 
            "tot_risk": 0.031468531468531465
        }, 
        "Parker Moore\nPeter Rhoades": {
            "tot_knowledge": 24427.97202797203, 
            "tot_orphaned": 0.0, 
            "tot_risk": 244.2797202797203
        }, 
        "Pat Hawks": {
            "tot_knowledge": 1700.0, 
            "tot_orphaned": 0.0, 
            "tot_risk": 170.0
        }, 
        "Parker Moore": {
            "tot_knowledge": 20324.475524475525, 
            "tot_orphaned": 0.0, 
            "tot_risk": 2032.4475524475524
        }, 
        "Brian Kim": {
            "tot_knowledge": 1.3986013986013992, 
            "tot_orphaned": 0.0, 
            "tot_risk": 0.13986013986013993
        }, 
        "Brian Kim\nPeter Rhoades": {
            "tot_knowledge": 4.195804195804195, 
            "tot_orphaned": 0.0, 
            "tot_risk": 0.04195804195804196
        }, 
        "Peter Rhoades": {
            "tot_knowledge": 12739.86013986014, 
            "tot_orphaned": 0.0, 
            "tot_risk": 1273.9860139860139
        }
    }, 
    "tot_knowledge": 65800.0
}